<?xml version="1.0" encoding="iso-8859-1"?>
<!-- Generator: Adobe Illustrator 19.0.0, SVG Export Plug-In . SVG Version: 6.00 Build 0)  -->
<svg version="1.1" id="Capa_1" xmlns="http://www.w3.org/2000/svg" xmlns:xlink="http://www.w3.org/1999/xlink" x="0px" y="0px"
	 viewBox="0 0 512 512" style="enable-background:new 0 0 512 512;" xml:space="preserve">
<g>
	<g>
		<path d="M263.069,157.061c-1.859-1.859-4.439-2.93-7.069-2.93s-5.21,1.07-7.07,2.93c-1.86,1.87-2.93,4.44-2.93,7.07
			s1.069,5.21,2.93,7.07c1.86,1.868,4.44,2.939,7.07,2.939s5.21-1.07,7.069-2.939c1.86-1.86,2.931-4.431,2.931-7.07
			C266,161.501,264.93,158.921,263.069,157.061z"/>
	</g>
</g>
<g>
	<g>
		<path d="M364.232,213.414l-56.01-9.014v-8.572c8.437-7.738,14.978-17.281,19.172-27.843c26.91-0.84,48.546-22.977,48.546-50.087
			c0-25.46-19.086-46.532-43.698-49.7C327.984,29.891,295.424,0,256,0s-71.984,29.891-76.243,68.198
			c-24.613,3.167-43.699,24.24-43.699,49.701c0,27.109,21.636,49.245,48.544,50.086c4.196,10.57,10.74,20.117,19.174,27.851v8.564
			l-56.01,9.014C116.612,218.427,94,244.969,94,276.525v31.068c0,5.522,4.478,10,10,10h142.127V343H89.809
			C68.961,343,52,359.961,52,380.809v8.009C22.553,393.615,0,419.218,0,450c0,34.187,27.813,62,62,62s62-27.813,62-62
			c0-30.782-22.553-56.385-52-61.182v-8.009C72,370.989,79.989,363,89.809,363h156.318v25.795C216.617,393.539,194,419.174,194,450
			c0,34.187,27.813,62,62,62s62-27.813,62-62c0-30.737-22.488-56.309-51.873-61.159V363h39.456c5.522,0,10-4.478,10-10
			c0-5.522-4.478-10-10-10h-39.456v-25.406H408c5.522,0,10-4.478,10-10v-31.068C418,244.969,395.388,218.427,364.232,213.414z
			 M332.728,140.725v-0.538v-12.229V92.425v-0.929v-2.924c13.291,3.133,23.213,15.093,23.213,29.326
			c0,14.233-9.923,26.192-23.213,29.325V140.725z M179.271,92.426v11.305v36.458v7.035c-13.29-3.133-23.213-15.093-23.213-29.326
			c0-14.233,9.923-26.192,23.213-29.325V92.426z M104,450c0,23.159-18.841,42-42,42s-42-18.841-42-42s18.841-42,42-42
			S104,426.841,104,450z M256,20c27.429,0,50.37,19.569,55.604,45.478l-16.912,11.656c-7.779,5.362-16.887,8.197-26.336,8.197
			h-69.085v-7.56v-1.042h0C199.271,45.448,224.72,20,256,20z M199.271,140.188v-34.856h69.085c13.522,0,26.555-4.057,37.688-11.73
			l6.685-4.608v2.503v0.929v35.533v12.229c0,0.27-0.01,0.538-0.014,0.806c-0.145,7.269-6.093,13.14-13.396,13.14h-10.882
			c-5.522,0-10,4.478-10,10c0,5.522,4.478,10,10,10h10.882c0.614,0,1.223-0.019,1.828-0.052
			c-4.442,5.757-10.036,10.675-16.56,14.369c-17.609,9.998-39.497,10.012-57.071,0.06c-0.017-0.009-0.099-0.056-0.114-0.065
			C210.051,178.619,199.271,160.128,199.271,140.188z M298,450c0,23.159-18.841,42-42,42s-42-18.841-42-42s18.841-42,42-42
			S298,426.841,298,450z M398,297.593H114v-21.067c0-21.684,15.538-39.922,36.945-43.366l64.421-10.367
			c4.847-0.78,8.411-4.964,8.411-9.873v-3.909c10.198,4.618,21.209,6.935,32.225,6.935c11.014,0,22.026-2.317,32.221-6.934v3.908
			c0,4.909,3.564,9.093,8.411,9.873l64.421,10.367C382.462,236.604,398,254.842,398,276.525V297.593z"/>
	</g>
</g>
<g>
	<g>
		<path d="M460,388.818v-8.009C460,359.961,443.039,343,422.191,343H382c-5.522,0-10,4.478-10,10c0,5.522,4.478,10,10,10h40.191
			c9.819,0,17.809,7.989,17.809,17.809v8.009c-29.447,4.797-52,30.4-52,61.182c0,34.187,27.813,62,62,62s62-27.813,62-62
			C512,419.218,489.447,393.615,460,388.818z M450,492c-23.159,0-42-18.841-42-42s18.841-42,42-42s42,18.841,42,42
			S473.159,492,450,492z"/>
	</g>
</g>
<g>
	<g>
		<path d="M351.399,345.93c-1.849-1.861-4.429-2.93-7.069-2.93c-2.63,0-5.21,1.069-7.07,2.93c-1.86,1.861-2.92,4.44-2.92,7.07
			s1.06,5.21,2.92,7.069c1.87,1.86,4.44,2.931,7.07,2.931c2.64,0,5.21-1.07,7.069-2.931c1.87-1.859,2.931-4.439,2.931-7.069
			S353.269,347.79,351.399,345.93z"/>
	</g>
</g>
<g>
</g>
<g>
</g>
<g>
</g>
<g>
</g>
<g>
</g>
<g>
</g>
<g>
</g>
<g>
</g>
<g>
</g>
<g>
</g>
<g>
</g>
<g>
</g>
<g>
</g>
<g>
</g>
<g>
</g>
</svg>
