<?xml version="1.0" encoding="iso-8859-1"?>
<!-- Generator: Adobe Illustrator 19.0.0, SVG Export Plug-In . SVG Version: 6.00 Build 0)  -->
<svg version="1.1" id="Capa_1" xmlns="http://www.w3.org/2000/svg" xmlns:xlink="http://www.w3.org/1999/xlink" x="0px" y="0px"
	 viewBox="0 0 512 512" style="enable-background:new 0 0 512 512;" xml:space="preserve">
<g>
	<g>
		<path d="M447.889,118.021H194.661c-0.817-0.037-1.637-0.063-2.463-0.063h-65.007c-29.503,0-53.506,24.003-53.506,53.506V418.49
			c0,29.503,24.003,53.506,53.506,53.506h22.413c-0.975,11.191-10.391,20.002-21.831,20.002h-69.96
			c-9.672,0-17.541-7.868-17.541-17.54v-88.44c0-5.523-4.477-10.001-10.001-10.001c-5.524,0-10.001,4.478-10.001,10.001v88.44
			c0,20.7,16.842,37.542,37.543,37.542h69.961c22.473,0,40.867-17.776,41.873-40.004h0.715h277.526
			c24.174,0,43.841-19.667,43.841-43.841V161.862C491.73,137.688,472.063,118.021,447.889,118.021z M225.702,418.491
			c0,18.474-15.03,33.504-33.504,33.504h-65.007v-0.001c-18.474,0-33.504-15.03-33.504-33.504V171.464
			c0-18.474,15.03-33.504,33.504-33.504l66.975,0.063c17.561,1.023,31.535,15.629,31.535,33.442V418.491z M447.889,451.993H233.873
			c7.393-9.177,11.831-20.829,11.831-33.504V171.464c0-12.646-4.419-24.274-11.782-33.442h213.967
			c13.145,0,23.839,10.693,23.839,23.839v266.294h0.001C471.728,441.3,461.034,451.993,447.889,451.993z"/>
	</g>
</g>
<g>
	<g>
		<path d="M441.724,158.025H275.707c-5.524,0-10.001,4.478-10.001,10.001v88.009c0,5.523,4.477,10.001,10.001,10.001h166.018
			c5.524,0,10.001-4.478,10.001-10.001v-88.009C451.726,162.503,447.248,158.025,441.724,158.025z M431.723,246.035H285.708v-68.007
			h146.015V246.035z"/>
	</g>
</g>
<g>
	<g>
		<path d="M294.709,304.978h-19.002c-5.524,0-10.001,4.478-10.001,10.001s4.477,10.001,10.001,10.001h19.002
			c5.524,0,10.001-4.478,10.001-10.001S300.233,304.978,294.709,304.978z"/>
	</g>
</g>
<g>
	<g>
		<path d="M368.217,304.978h-19.002c-5.524,0-10.001,4.478-10.001,10.001s4.477,10.001,10.001,10.001h19.002
			c5.524,0,10.001-4.478,10.001-10.001S373.74,304.978,368.217,304.978z"/>
	</g>
</g>
<g>
	<g>
		<path d="M441.724,304.978h-19.002c-5.524,0-10.001,4.478-10.001,10.001s4.477,10.001,10.001,10.001h19.002
			c5.524,0,10.001-4.478,10.001-10.001S447.248,304.978,441.724,304.978z"/>
	</g>
</g>
<g>
	<g>
		<path d="M294.709,354.073h-19.002c-5.524,0-10.001,4.478-10.001,10.001s4.477,10.001,10.001,10.001h19.002
			c5.524,0,10.001-4.479,10.001-10.001S300.233,354.073,294.709,354.073z"/>
	</g>
</g>
<g>
	<g>
		<path d="M368.217,354.073h-19.002c-5.524,0-10.001,4.478-10.001,10.001s4.477,10.001,10.001,10.001h19.002
			c5.524,0,10.001-4.479,10.001-10.001S373.74,354.073,368.217,354.073z"/>
	</g>
</g>
<g>
	<g>
		<path d="M441.724,354.073h-19.002c-5.524,0-10.001,4.478-10.001,10.001s4.477,10.001,10.001,10.001h19.002
			c5.524,0,10.001-4.479,10.001-10.001S447.248,354.073,441.724,354.073z"/>
	</g>
</g>
<g>
	<g>
		<path d="M294.709,403.168h-19.002c-5.524,0-10.001,4.479-10.001,10.001s4.477,10.001,10.001,10.001h19.002
			c5.524,0,10.001-4.478,10.001-10.001S300.233,403.168,294.709,403.168z"/>
	</g>
</g>
<g>
	<g>
		<path d="M368.217,403.168h-19.002c-5.524,0-10.001,4.479-10.001,10.001s4.477,10.001,10.001,10.001h19.002
			c5.524,0,10.001-4.478,10.001-10.001S373.74,403.168,368.217,403.168z"/>
	</g>
</g>
<g>
	<g>
		<path d="M441.724,403.168h-19.002c-5.524,0-10.001,4.479-10.001,10.001s4.477,10.001,10.001,10.001h19.002
			c5.524,0,10.001-4.478,10.001-10.001S447.248,403.168,441.724,403.168z"/>
	</g>
</g>
<g>
	<g>
		<path d="M413.599,61.189c-14.661-14.66-34.152-22.733-54.884-22.733c-20.732,0-40.223,8.074-54.884,22.733
			c-3.905,3.905-3.905,10.238,0,14.144c3.905,3.904,10.238,3.904,14.143,0c10.882-10.882,25.351-16.876,40.739-16.876
			s29.857,5.994,40.739,16.876c1.955,1.952,4.513,2.929,7.074,2.929c2.559,0,5.12-0.977,7.072-2.929
			C417.505,71.428,417.506,65.096,413.599,61.189z"/>
	</g>
</g>
<g>
	<g>
		<path d="M440.831,33.958c-45.278-45.278-118.951-45.278-164.229,0c-3.905,3.905-3.905,10.238,0,14.145
			c3.905,3.904,10.238,3.904,14.143,0c37.479-37.482,98.462-37.478,135.942,0c1.953,1.952,4.513,2.929,7.072,2.929
			c2.559,0,5.12-0.977,7.072-2.929C444.737,44.197,444.737,37.865,440.831,33.958z"/>
	</g>
</g>
<g>
	<g>
		<path d="M386.993,87.797c-15.593-15.592-40.961-15.592-56.554,0c-3.905,3.905-3.905,10.238,0,14.145
			c3.905,3.904,10.238,3.904,14.145,0c7.793-7.794,20.473-7.794,28.266,0c1.953,1.952,4.513,2.929,7.072,2.929
			c2.559,0,5.12-0.977,7.072-2.929C390.898,98.036,390.898,91.703,386.993,87.797z"/>
	</g>
</g>
<g>
	<g>
		<path d="M48.143,202.029H30.271c-5.524,0-10.001,4.478-10.001,10.001v95.483c0,5.524,4.477,10.001,10.001,10.001
			c5.524,0,10.001-4.478,10.001-10.001v-85.482h7.871c5.524,0,10.001-4.478,10.001-10.001
			C58.144,206.508,53.667,202.029,48.143,202.029z"/>
	</g>
</g>
<g>
	<g>
		<path d="M37.342,340.452c-1.86-1.86-4.44-2.93-7.071-2.93c-2.63,0-5.211,1.069-7.071,2.93c-1.86,1.86-2.93,4.44-2.93,7.071
			c0,2.63,1.07,5.211,2.93,7.07c1.86,1.861,4.44,2.931,7.071,2.931c2.63,0,5.211-1.07,7.071-2.931c1.86-1.859,2.93-4.439,2.93-7.07
			C40.272,344.892,39.202,342.312,37.342,340.452z"/>
	</g>
</g>
<g>
	<g>
		<path d="M321.782,204.958c-1.86-1.86-4.44-2.931-7.071-2.931c-2.63,0-5.211,1.07-7.071,2.931c-1.86,1.859-2.93,4.439-2.93,7.07
			c0,2.641,1.07,5.211,2.93,7.071c1.86,1.861,4.44,2.93,7.071,2.93c2.63,0,5.211-1.069,7.071-2.93c1.86-1.861,2.93-4.43,2.93-7.071
			C324.712,209.398,323.642,206.818,321.782,204.958z"/>
	</g>
</g>
<g>
	<g>
		<path d="M365.786,204.958c-1.86-1.86-4.44-2.931-7.071-2.931c-2.63,0-5.211,1.07-7.071,2.931c-1.86,1.859-2.93,4.439-2.93,7.07
			c0,2.63,1.07,5.211,2.93,7.071c1.86,1.861,4.44,2.93,7.071,2.93c2.63,0,5.211-1.069,7.071-2.93c1.86-1.861,2.93-4.44,2.93-7.071
			C368.717,209.398,367.647,206.818,365.786,204.958z"/>
	</g>
</g>
<g>
	<g>
		<path d="M409.791,204.958c-1.86-1.86-4.44-2.931-7.071-2.931c-2.63,0-5.211,1.07-7.071,2.931c-1.86,1.859-2.93,4.439-2.93,7.07
			c0,2.63,1.07,5.211,2.93,7.071c1.86,1.861,4.44,2.93,7.071,2.93c2.63,0,5.211-1.069,7.071-2.93c1.86-1.861,2.93-4.44,2.93-7.071
			C412.721,209.398,411.651,206.818,409.791,204.958z"/>
	</g>
</g>
<g>
	<g>
		<path d="M191.698,267.641c-5.524,0-10.001,4.478-10.001,10.001v86.432c0,5.523,4.477,10.001,10.001,10.001
			c5.524,0,10.001-4.478,10.001-10.001v-86.432C201.699,272.119,197.222,267.641,191.698,267.641z"/>
	</g>
</g>
<g>
	<g>
		<path d="M198.769,228.211c-1.86-1.86-4.44-2.931-7.071-2.931c-2.63,0-5.211,1.07-7.071,2.931c-1.86,1.859-2.93,4.439-2.93,7.07
			c0,2.641,1.07,5.211,2.93,7.071c1.86,1.861,4.44,2.93,7.071,2.93c2.63,0,5.211-1.069,7.071-2.93c1.86-1.861,2.93-4.43,2.93-7.071
			C201.699,232.65,200.629,230.07,198.769,228.211z"/>
	</g>
</g>
<g>
</g>
<g>
</g>
<g>
</g>
<g>
</g>
<g>
</g>
<g>
</g>
<g>
</g>
<g>
</g>
<g>
</g>
<g>
</g>
<g>
</g>
<g>
</g>
<g>
</g>
<g>
</g>
<g>
</g>
</svg>
