<?xml version="1.0" encoding="iso-8859-1"?>
<!-- Generator: Adobe Illustrator 19.0.0, SVG Export Plug-In . SVG Version: 6.00 Build 0)  -->
<svg version="1.1" id="Capa_1" xmlns="http://www.w3.org/2000/svg" xmlns:xlink="http://www.w3.org/1999/xlink" x="0px" y="0px"
	 viewBox="0 0 512.001 512.001" style="enable-background:new 0 0 512.001 512.001;" xml:space="preserve">
<g>
	<g>
		<path d="M161.83,305.017c-1.86-1.86-4.44-2.921-7.07-2.921s-5.21,1.061-7.07,2.921c-1.86,1.869-2.93,4.439-2.93,7.079
			c0,2.631,1.07,5.2,2.93,7.07c1.86,1.86,4.44,2.93,7.07,2.93s5.21-1.069,7.07-2.93c1.86-1.87,2.93-4.439,2.93-7.07
			C164.76,309.456,163.69,306.886,161.83,305.017z"/>
	</g>
</g>
<g>
	<g>
		<path d="M470.731,429.449c-13.52,0-26.23-5.265-35.79-14.824l-0.501-0.501l9.529-9.53c9.047-9.047,14.03-21.076,14.03-33.871
			c0-12.794-4.983-24.823-14.03-33.871l-69.38-69.38c-9.047-9.047-21.076-14.03-33.871-14.03c-12.795,0-24.824,4.983-33.871,14.03
			l-15.823,15.822c-3.64,3.64-8.479,5.645-13.626,5.645c-5.147,0-9.986-2.005-13.626-5.646l-89.08-89.079
			c-7.514-7.514-7.514-19.738,0-27.252l15.822-15.822c9.047-9.047,14.03-21.076,14.03-33.871s-4.983-24.824-14.03-33.871
			l-69.381-69.381c-18.677-18.676-49.065-18.675-67.742,0l-16.599,16.6C13.066,54.344,0,85.889,0,119.443
			c0,33.554,13.066,65.099,36.792,88.825l83.796,83.797c3.906,3.904,10.237,3.905,14.143,0c3.905-3.905,3.905-10.237,0-14.143
			l-83.797-83.797C30.986,174.177,20,147.655,20,119.443c0-25.108,8.708-48.874,24.686-67.862l73.562,73.562
			c1.953,1.952,4.512,2.929,7.071,2.929c2.559,0,5.119-0.977,7.071-2.929c3.905-3.905,3.905-10.237,0-14.143L58.542,37.152
			l8.993-8.994c10.879-10.878,28.58-10.878,39.458,0l69.381,69.381c5.27,5.27,8.172,12.275,8.172,19.729
			c0,7.452-2.902,14.459-8.172,19.729l-15.822,15.822c-7.417,7.417-11.502,17.279-11.502,27.769c0,10.49,4.085,20.352,11.502,27.769
			l89.08,89.078c7.417,7.418,17.279,11.504,27.769,11.504c6.946,0,13.611-1.802,19.478-5.165l73.403,73.403
			c1.953,1.952,4.512,2.929,7.071,2.929c2.559,0,5.119-0.977,7.071-2.929c3.905-3.905,3.905-10.237,0-14.143l-72.426-72.427
			l8.994-8.993c5.27-5.271,12.276-8.173,19.729-8.173s14.459,2.902,19.729,8.173l69.38,69.38c5.27,5.27,8.172,12.276,8.172,19.729
			s-2.902,14.459-8.172,19.729l-16.596,16.597c-0.002,0.002-0.003,0.003-0.005,0.005c-0.001,0.001-0.002,0.003-0.004,0.004
			c-41.182,41.176-108.184,41.174-149.362-0.004L190.9,334.09c-3.905-3.904-10.237-3.904-14.142,0
			c-3.905,3.905-3.906,10.237,0,14.143l72.963,72.964c24.49,24.489,56.658,36.733,88.826,36.733
			c29.042,0,58.081-9.983,81.473-29.944l0.783,0.783c13.336,13.337,31.069,20.682,49.931,20.682c11.728,0,21.269,9.541,21.269,21.27
			c0,11.728-9.542,21.269-21.269,21.269H112c-5.523,0-10,4.478-10,10c0,5.522,4.477,10,10,10h358.731
			c22.756,0,41.269-18.513,41.269-41.269C512,447.965,493.487,429.449,470.731,429.449z"/>
	</g>
</g>
<g>
	<g>
		<path d="M71.07,494.917c-1.86-1.86-4.44-2.93-7.07-2.93s-5.21,1.069-7.07,2.93c-1.86,1.86-2.93,4.44-2.93,7.07
			s1.07,5.21,2.93,7.069c1.86,1.86,4.44,2.931,7.07,2.931s5.21-1.07,7.07-2.931c1.86-1.859,2.93-4.439,2.93-7.069
			S72.93,496.777,71.07,494.917z"/>
	</g>
</g>
<g>
	<g>
		<path d="M507.538,98.16l-63.917-42.5c-3.069-2.041-7.012-2.227-10.261-0.486c-3.249,1.74-5.276,5.128-5.276,8.813v8.5H256
			c-5.523,0-10,4.478-10,10c0,5.522,4.477,10,10,10h182.083c5.47,0,9.915-4.393,9.999-9.843l35.857,23.843l-35.857,23.843
			c-0.084-5.451-4.528-9.843-9.999-9.843H256c-5.523,0-10,4.478-10,10c0,5.522,4.477,10,10,10h172.083v8.5
			c0,3.686,2.027,7.073,5.276,8.813c1.48,0.794,3.104,1.187,4.724,1.187c1.936,0,3.866-0.562,5.538-1.673l63.917-42.5
			c2.788-1.854,4.463-4.979,4.463-8.327C512.001,103.139,510.326,100.013,507.538,98.16z"/>
	</g>
</g>
<g>
</g>
<g>
</g>
<g>
</g>
<g>
</g>
<g>
</g>
<g>
</g>
<g>
</g>
<g>
</g>
<g>
</g>
<g>
</g>
<g>
</g>
<g>
</g>
<g>
</g>
<g>
</g>
<g>
</g>
</svg>
