<?xml version="1.0" encoding="iso-8859-1"?>
<!-- Generator: Adobe Illustrator 19.0.0, SVG Export Plug-In . SVG Version: 6.00 Build 0)  -->
<svg version="1.1" id="Capa_1" xmlns="http://www.w3.org/2000/svg" xmlns:xlink="http://www.w3.org/1999/xlink" x="0px" y="0px"
	 viewBox="0 0 512 512" style="enable-background:new 0 0 512 512;" xml:space="preserve">
<g>
	<g>
		<path d="M385.717,54.277l-0.284-0.288c-3.883-3.926-10.214-3.961-14.142-0.078c-3.927,3.884-3.961,10.215-0.078,14.142
			l0.245,0.249c1.958,1.99,4.543,2.988,7.13,2.988c2.531,0,5.064-0.956,7.012-2.871C389.538,64.546,389.59,58.214,385.717,54.277z"
			/>
	</g>
</g>
<g>
	<g>
		<path d="M170.74,494.93c-1.86-1.86-4.44-2.93-7.07-2.93c-2.64,0-5.21,1.069-7.07,2.93c-1.87,1.86-2.93,4.44-2.93,7.07
			s1.06,5.21,2.93,7.069c1.86,1.86,4.43,2.931,7.07,2.931c2.63,0,5.21-1.07,7.07-2.931c1.86-1.859,2.93-4.439,2.93-7.069
			S172.6,496.79,170.74,494.93z"/>
	</g>
</g>
<g>
	<g>
		<path d="M457.093,497.839l-54-118C401.465,376.281,397.912,374,394,374h-56.674l59.43-76.138c0.208-0.267,0.401-0.542,0.579-0.824
			c26.325-32.352,40.806-73.099,40.806-114.897c0-35.952-10.462-70.726-30.256-100.564c-3.053-4.603-9.258-5.859-13.861-2.805
			c-4.603,3.053-5.858,9.259-2.805,13.861c17.613,26.551,26.922,57.502,26.922,89.509c0,37.608-13.167,74.259-37.078,103.199
			c-0.33,0.399-0.625,0.818-0.884,1.255L256.002,445.683L130.646,285.007c-0.124-0.174-0.255-0.345-0.391-0.512
			c-23.47-28.797-36.395-65.147-36.395-102.354C93.859,92.736,166.595,20,256,20c31.854,0,62.682,9.228,89.151,26.686
			c4.61,3.042,10.813,1.769,13.854-2.842s1.769-10.813-2.842-13.854C326.416,10.371,291.78,0,256,0
			C155.567,0,73.859,81.708,73.859,182.141c0,41.65,14.417,82.344,40.61,114.643c0.045,0.061,0.091,0.121,0.137,0.181L174.709,374
			H118c-3.912,0-7.465,2.281-9.093,5.839l-54,118c-1.417,3.096-1.161,6.699,0.679,9.564C57.425,510.268,60.596,512,64,512h61.5
			c5.523,0,10-4.478,10-10c0-5.522-4.477-10-10-10H79.574l44.847-98h65.892l57.803,74.089c1.895,2.429,4.803,3.849,7.883,3.849H256
			c3.08,0,5.988-1.419,7.883-3.847L321.715,394h65.864l44.847,98h-228.76c-5.523,0-10,4.478-10,10c0,5.522,4.477,10,10,10H448
			c3.404,0,6.575-1.732,8.415-4.597C458.254,504.538,458.51,500.935,457.093,497.839z"/>
	</g>
</g>
<g>
	<g>
		<path d="M341.129,206.796l-29.865-29.865c-10.261-10.26-26.954-10.26-37.215,0l-1.947,1.947c-1.013,1.014-2.663,1.014-3.676,0
			l-21.363-21.363c-1.014-1.014-1.014-2.663,0-3.676l1.946-1.946c4.97-4.971,7.708-11.579,7.708-18.607
			c0-7.029-2.737-13.637-7.708-18.607l-29.865-29.866c-10.261-10.26-26.955-10.258-37.214,0l-7.146,7.146
			c-23.303,23.304-23.303,61.221,0,84.524l74.673,74.674c11.652,11.651,26.958,17.478,42.263,17.478s30.611-5.826,42.263-17.478
			l7.146-7.146C351.389,233.751,351.389,217.056,341.129,206.796z M326.985,229.869l-7.146,7.146
			c-15.505,15.506-40.735,15.506-56.24,0l-74.673-74.674c-15.506-15.505-15.506-40.734,0-56.24l7.146-7.146
			c1.231-1.231,2.848-1.847,4.465-1.847s3.234,0.616,4.465,1.846l29.865,29.866c1.193,1.193,1.85,2.778,1.85,4.465
			s-0.657,3.272-1.85,4.465l-1.946,1.946c-4.268,4.269-6.619,9.944-6.619,15.98c0,6.037,2.351,11.712,6.619,15.981l21.362,21.364
			c4.269,4.268,9.944,6.619,15.98,6.619s11.712-2.351,15.98-6.619l1.947-1.947c2.462-2.463,6.468-2.463,8.93,0l29.865,29.865
			C329.447,223.401,329.447,227.407,326.985,229.869z"/>
	</g>
</g>
<g>
	<g>
		<path d="M277.431,71c-5.523,0-10,4.477-10,10s4.477,10,10,10c31.59,0,57.291,25.7,57.291,57.291c0,5.523,4.477,10,10,10
			s10-4.478,10-10C354.722,105.673,320.05,71,277.431,71z"/>
	</g>
</g>
<g>
	<g>
		<path d="M277.432,109.451c-5.523,0-10,4.477-10,10s4.477,10,10,10c10.388,0,18.84,8.452,18.84,18.84c0,5.523,4.477,10,10,10
			s10-4.477,10-10C316.272,126.874,298.849,109.451,277.432,109.451z"/>
	</g>
</g>
<g>
</g>
<g>
</g>
<g>
</g>
<g>
</g>
<g>
</g>
<g>
</g>
<g>
</g>
<g>
</g>
<g>
</g>
<g>
</g>
<g>
</g>
<g>
</g>
<g>
</g>
<g>
</g>
<g>
</g>
</svg>
