<?xml version="1.0" encoding="iso-8859-1"?>
<!-- Generator: Adobe Illustrator 19.0.0, SVG Export Plug-In . SVG Version: 6.00 Build 0)  -->
<svg version="1.1" id="Capa_1" xmlns="http://www.w3.org/2000/svg" xmlns:xlink="http://www.w3.org/1999/xlink" x="0px" y="0px"
	 viewBox="0 0 512 512" style="enable-background:new 0 0 512 512;" xml:space="preserve">
<g>
	<g>
		<path d="M511.94,344.32c-0.638-11.442-6.282-21.92-15.485-28.748c-14.895-11.051-35.556-9.898-49.129,2.742l-85.947,80.044
			c-4.022,3.746-8.633,6.675-13.603,8.72c1.086-2.897,1.826-5.977,2.148-9.197c1.795-17.969-9.606-34.235-27.11-38.678
			l-98.722-25.056c-18.959-4.812-38.903-4.45-57.675,1.047l-66.424,19.451v-8.651c0-5.523-4.477-9.999-9.999-9.999H9.999
			c-5.523,0-9.999,4.477-9.999,9.999v155.988c0,5.523,4.477,9.999,9.999,9.999h79.994c5.523,0,9.999-4.477,9.999-9.999h207.779
			c35.565,0,69.489-13.346,95.521-37.579l96.453-89.791C508.132,366.802,512.577,355.762,511.94,344.32z M79.994,367.802
			c0,0.018,0,0.037,0,0.055v124.124H19.998V355.992h19.998v67.995c0,5.523,4.477,9.999,9.999,9.999s9.999-4.477,9.999-9.999v-67.995
			h19.998V367.802z M486.118,359.973l-96.453,89.791c-22.318,20.776-51.402,32.218-81.894,32.218H99.992v-106.5l72.042-21.095
			c15.343-4.493,31.642-4.79,47.135-0.855l98.723,25.056c7.832,1.988,12.933,9.266,12.13,17.306
			c-0.828,8.29-7.718,14.545-16.041,14.582h-32.983c-0.023,0-0.045,0.003-0.068,0.003h-47.303c-5.523,0-9.999,4.477-9.999,9.999
			s4.477,9.999,9.999,9.999h80.282c0.049,0,0.097-0.003,0.146-0.003h16.533c16.541,0,32.315-6.208,44.421-17.481l85.947-80.044
			c6.516-6.068,16.433-6.622,23.583-1.316c4.418,3.278,7.126,8.308,7.433,13.8C492.28,350.926,490.145,356.225,486.118,359.973z"/>
	</g>
</g>
<g>
	<g>
		<path d="M444.389,110.901C426.782,45.617,367.203,0.02,299.507,0.02c-5.523,0-9.999,4.477-9.999,9.999s4.477,9.999,9.999,9.999
			c58.677,0,110.315,39.515,125.575,96.091c1.203,4.46,5.24,7.397,9.647,7.397c0.862,0,1.739-0.112,2.61-0.348
			C442.671,121.722,445.827,116.233,444.389,110.901z"/>
	</g>
</g>
<g>
	<g>
		<path d="M439.558,139.915c-5.523,0-9.999,4.477-9.999,9.999v0.156c0,5.523,4.477,9.999,9.999,9.999s9.999-4.477,9.999-9.999
			v-0.156C449.557,144.392,445.08,139.915,439.558,139.915z"/>
	</g>
</g>
<g>
	<g>
		<path d="M299.507,49.245c-5.523,0-9.999,4.477-9.999,9.999s4.477,9.999,9.999,9.999c44.568,0,80.827,36.258,80.827,80.827
			c0,5.523,4.477,9.999,9.999,9.999s9.999-4.477,9.999-9.999C400.332,94.476,355.102,49.245,299.507,49.245z"/>
	</g>
</g>
<g>
	<g>
		<path d="M299.507,101.144c-5.523,0-9.999,4.477-9.999,9.999s4.477,9.999,9.999,9.999c15.951,0,28.927,12.977,28.927,28.927
			c0,5.523,4.477,9.999,9.999,9.999s9.999-4.477,9.999-9.999C348.432,123.092,326.483,101.144,299.507,101.144z"/>
	</g>
</g>
<g>
	<g>
		<path d="M376.608,242.837l-42.474-42.473c-12.944-12.945-34.008-12.945-46.953,0l-2.769,2.769c-3.087,3.088-8.111,3.087-11.199,0
			l-30.382-30.382c-3.088-3.088-3.088-8.112,0-11.2l2.769-2.769c12.945-12.945,12.945-34.008,0-46.953l-42.473-42.474
			c-6.271-6.271-14.608-9.724-23.477-9.724c-8.868,0-17.206,3.454-23.476,9.724l-10.163,10.163
			c-31.495,31.495-31.495,82.742,0,114.236l106.198,106.199c15.75,15.749,36.43,23.621,57.119,23.621
			c20.683,0,41.373-7.875,57.119-23.621l10.162-10.162c6.271-6.271,9.724-14.609,9.724-23.477S382.878,249.109,376.608,242.837z
			 M362.465,275.65l-4.4,4.401l-37.288-37.287c-3.905-3.905-10.236-3.905-14.141,0c-3.905,3.905-3.905,10.236,0,14.141
			l36.461,36.461c-23.609,15.79-55.919,13.278-76.749-7.552L160.152,179.615c-23.698-23.697-23.698-62.256-0.001-85.953
			L170.315,83.5c2.574-2.574,5.955-3.861,9.335-3.861s6.761,1.287,9.335,3.861l42.473,42.473c5.148,5.148,5.148,13.523,0,18.671
			l-2.769,2.769c-0.55,0.55-1.065,1.122-1.559,1.705l-32.001-32.001c-3.905-3.905-10.236-3.905-14.141,0
			c-3.905,3.905-3.905,10.236,0,14.141l39.814,39.813c0.814,5.794,3.442,11.378,7.887,15.825l30.382,30.382
			c10.887,10.886,28.598,10.884,39.482,0l2.769-2.769c5.147-5.148,13.523-5.149,18.671,0l42.473,42.473
			C367.612,262.127,367.612,270.502,362.465,275.65z"/>
	</g>
</g>
<g>
	<g>
		<path d="M57.066,453.915c-1.86-1.86-4.44-2.93-7.069-2.93s-5.21,1.07-7.069,2.93c-1.86,1.86-2.93,4.44-2.93,7.069
			c0,2.63,1.07,5.21,2.93,7.069c1.86,1.86,4.44,2.93,7.069,2.93s5.21-1.07,7.069-2.93c1.86-1.86,2.93-4.44,2.93-7.069
			C59.995,458.354,58.925,455.775,57.066,453.915z"/>
	</g>
</g>
<g>
</g>
<g>
</g>
<g>
</g>
<g>
</g>
<g>
</g>
<g>
</g>
<g>
</g>
<g>
</g>
<g>
</g>
<g>
</g>
<g>
</g>
<g>
</g>
<g>
</g>
<g>
</g>
<g>
</g>
</svg>
