<?xml version="1.0" encoding="iso-8859-1"?>
<!-- Generator: Adobe Illustrator 19.0.0, SVG Export Plug-In . SVG Version: 6.00 Build 0)  -->
<svg version="1.1" id="Capa_1" xmlns="http://www.w3.org/2000/svg" xmlns:xlink="http://www.w3.org/1999/xlink" x="0px" y="0px"
	 viewBox="0 0 512 512" style="enable-background:new 0 0 512 512;" xml:space="preserve">
<g>
	<g>
		<path d="M494.01,221.57v-70.58c0-73.336-59.664-133-133-133h-70.58C282.831,7.125,270.235,0,256,0s-26.831,7.125-34.43,17.99
			h-70.58c-73.336,0-133,59.664-133,133v70.345c0,0.077,0.01,0.151,0.011,0.227C7.13,229.16,0,241.76,0,256
			c0,14.235,7.125,26.831,17.99,34.43v70.58c0,73.336,59.664,133,133,133h70.58C229.17,504.875,241.765,512,256,512
			c14.247,0,26.852-7.137,34.45-18.018c0.183,0.01,0.364,0.028,0.55,0.028h70.01c73.336,0,133-59.664,133-133v-70.58
			C504.875,282.831,512,270.235,512,256S504.875,229.169,494.01,221.57z M361.01,37.989L361.01,37.989
			c62.309,0.001,113,50.692,113,113.001v63.206c-0.66-0.063-1.324-0.113-1.993-0.145c-8.215-42.781-28.97-82.131-60.454-113.615
			c-31.484-31.484-70.833-52.239-113.615-60.454c-0.032-0.669-0.082-1.333-0.145-1.993H361.01z M432.148,247.495
			c-0.029,0-0.057,0-0.086,0c-5.483,0-9.951,4.422-9.998,9.916c-0.197,23.357-5.363,46.515-14.995,67.635l-34.178-34.178
			c6.734-22.715,6.734-47.018,0-69.733l59.437-59.437C447.423,189.809,456,221.92,456,256s-8.577,66.191-23.673,94.303
			l-10.269-10.269c12.858-25.42,19.763-53.811,20.005-82.455C442.11,252.056,437.67,247.541,432.148,247.495z M79.852,264.505
			c0.029,0,0.057,0,0.086,0c5.483,0,9.951-4.422,9.998-9.916c0.197-23.357,5.363-46.515,14.995-67.635l34.178,34.178
			c-6.734,22.715-6.734,47.018,0,69.733l-59.437,59.437C64.577,322.191,56,290.08,56,256c0-34.08,8.577-66.191,23.673-94.303
			l10.269,10.269c-12.858,25.42-19.763,53.811-20.005,82.455C69.89,259.944,74.33,264.459,79.852,264.505z M90.331,144.071
			c14.331-21.142,32.598-39.409,53.74-53.74l56.822,56.822c-11.24,5.68-21.782,13.201-31.16,22.58
			c-9.378,9.378-16.899,19.92-22.58,31.16L90.331,144.071z M147.153,311.107c5.68,11.24,13.201,21.782,22.58,31.16
			c9.379,9.378,19.92,16.9,31.16,22.58l-56.822,56.822c-21.143-14.33-39.409-32.597-53.74-53.74L147.153,311.107z M183.875,328.125
			c-39.77-39.77-39.77-104.479,0-144.249C203.76,163.99,229.88,154.048,256,154.048s52.24,9.942,72.125,29.828
			c39.77,39.77,39.77,104.479,0,144.249C288.355,367.895,223.645,367.895,183.875,328.125z M311.107,147.153l56.822-56.822
			c21.143,14.33,39.409,32.597,53.74,53.74l-56.822,56.822c-5.68-11.24-13.201-21.782-22.58-31.16
			C332.888,160.355,322.347,152.834,311.107,147.153z M342.267,342.267c9.378-9.378,16.899-19.92,22.58-31.16l56.822,56.822
			c-14.331,21.142-32.598,39.409-53.74,53.74l-56.822-56.822C322.347,359.167,332.889,351.645,342.267,342.267z M256,20
			c10.421,0,19.166,7.285,21.426,17.028C270.349,36.348,263.202,36,256,36c-7.202,0-14.349,0.348-21.426,1.028
			C236.834,27.285,245.579,20,256,20z M256,56c34.08,0,66.191,8.577,94.303,23.673l-59.437,59.437
			c-22.715-6.734-47.018-6.734-69.733,0l-59.437-59.437C189.809,64.577,221.92,56,256,56z M37.028,277.426
			C27.285,275.166,20,266.421,20,256c0-10.421,7.285-19.166,17.028-21.426C36.348,241.651,36,248.798,36,256
			C36,263.202,36.348,270.349,37.028,277.426z M37.989,150.99L37.989,150.99c0.001-62.309,50.692-113,113.001-113h63.206
			c-0.063,0.66-0.113,1.324-0.145,1.993c-42.781,8.215-82.131,28.97-113.615,60.454S48.197,171.27,39.982,214.052
			c-0.669,0.032-1.333,0.082-1.993,0.145V150.99z M150.99,474.011L150.99,474.011c-62.309-0.001-113-50.692-113-113.001v-63.206
			c0.66,0.063,1.324,0.113,1.993,0.145c8.215,42.781,28.97,82.131,60.454,113.615c31.484,31.484,70.833,52.239,113.615,60.454
			c0.032,0.669,0.082,1.333,0.145,1.993H150.99z M256,492c-10.421,0-19.166-7.285-21.426-17.028
			C241.651,475.652,248.798,476,256,476c7.202,0,14.349-0.348,21.426-1.028C275.166,484.715,266.421,492,256,492z M256,456
			c-34.08,0-66.191-8.577-94.303-23.673l59.437-59.436c11.357,3.367,23.112,5.052,34.867,5.052s23.509-1.685,34.867-5.052
			l59.437,59.436C322.191,447.423,290.08,456,256,456z M474.011,361.01h-0.001c0,62.309-50.691,113-113,113h-63.206
			c0.063-0.66,0.113-1.324,0.145-1.993c42.781-8.215,82.131-28.97,113.615-60.454s52.239-70.833,60.454-113.615
			c0.669-0.032,1.333-0.082,1.993-0.145V361.01z M474.972,277.426C475.652,270.349,476,263.202,476,256
			c0-7.202-0.348-14.349-1.028-21.426C484.715,236.834,492,245.579,492,256S484.715,275.166,474.972,277.426z"/>
	</g>
</g>
<g>
	<g>
		<path d="M240.934,281.495h-27.4v-7c0-3.86,3.14-7,7-7h3.4c14.888,0,27-12.112,27-27s-12.112-27-27-27h-20.4
			c-5.523,0-10,4.477-10,10s4.477,10,10,10h20.4c3.86,0,7,3.14,7,7s-3.14,7-7,7h-3.4c-14.888,0-27,12.112-27,27v17
			c0,5.523,4.477,10,10,10h37.4c5.523,0,10-4.477,10-10S246.457,281.495,240.934,281.495z"/>
	</g>
</g>
<g>
	<g>
		<path d="M308.466,210.505c-5.523,0-10,4.477-10,10v27.4h-15.632c-0.975,0-1.768-0.793-1.768-1.768v-25.632c0-5.523-4.477-10-10-10
			s-10,4.477-10,10v25.632c0,12.003,9.765,21.768,21.768,21.768h15.632v23.59c0,5.523,4.477,10,10,10s10-4.477,10-10v-33.59v-7.9
			v-29.5C318.466,214.982,313.989,210.505,308.466,210.505z"/>
	</g>
</g>
<g>
	<g>
		<path d="M438.974,222.115c-0.003-0.019-0.022-0.122-0.026-0.142c-1.031-5.414-6.236-8.932-11.658-7.916
			c-5.417,1.015-8.983,6.264-7.984,11.684c0.003,0.014,0.019,0.098,0.021,0.112c0.905,4.795,5.088,8.114,9.795,8.114
			c0.612,0,1.234-0.057,1.858-0.173C436.401,232.783,439.974,227.538,438.974,222.115z"/>
	</g>
</g>
<g>
	<g>
		<path d="M92.693,286.259c-0.003-0.014-0.019-0.098-0.021-0.112c-1.022-5.419-6.232-8.95-11.654-7.941
			c-5.421,1.011-8.994,6.256-7.994,11.679c0.004,0.019,0.023,0.122,0.027,0.142c0.912,4.786,5.09,8.09,9.789,8.09
			c0.616,0,1.241-0.057,1.869-0.174C90.126,296.928,93.692,291.679,92.693,286.259z"/>
	</g>
</g>
<g>
</g>
<g>
</g>
<g>
</g>
<g>
</g>
<g>
</g>
<g>
</g>
<g>
</g>
<g>
</g>
<g>
</g>
<g>
</g>
<g>
</g>
<g>
</g>
<g>
</g>
<g>
</g>
<g>
</g>
</svg>
