<?xml version="1.0" encoding="iso-8859-1"?>
<!-- Generator: Adobe Illustrator 19.0.0, SVG Export Plug-In . SVG Version: 6.00 Build 0)  -->
<svg version="1.1" id="Capa_1" xmlns="http://www.w3.org/2000/svg" xmlns:xlink="http://www.w3.org/1999/xlink" x="0px" y="0px"
	 viewBox="0 0 512 512" style="enable-background:new 0 0 512 512;" xml:space="preserve">
<g>
	<g>
		<path d="M361.606,466.736c-3.064-4.595-9.273-5.837-13.868-2.773l-0.092,0.062c-4.595,3.063-5.837,9.272-2.773,13.867
			c1.927,2.891,5.098,4.454,8.33,4.454c1.906,0,3.833-0.544,5.538-1.681c0.004-0.002,0.079-0.052,0.092-0.062
			C363.428,477.54,364.67,471.331,361.606,466.736z"/>
	</g>
</g>
<g>
	<g>
		<path d="M480,225.109V224c0-52.809-18.729-104.086-52.737-144.385c-33.602-39.817-80.187-66.821-131.175-76.036
			c-5.43-0.982-10.636,2.627-11.619,8.062c-0.982,5.435,2.627,10.637,8.062,11.619C389.569,40.798,460,125.221,460,224v1.009h-5.504
			c-5.176,0-10.085,1.153-14.496,3.205V224c0-101.458-82.542-184-184-184S72,122.542,72,224v4.205
			C67.59,226.153,62.68,225,57.504,225H52v-1c0-98.41,70.121-182.776,166.731-200.605c5.431-1.002,9.021-6.218,8.019-11.649
			c-1.002-5.431-6.216-9.021-11.649-8.019C109.005,23.306,32,115.945,32,224v1.1c-17.859,1.284-32,16.215-32,34.395v111
			c0,19.021,15.475,34.496,34.496,34.496h23.009c10.523,0,19.955-4.742,26.287-12.195C110.059,462.378,177.338,512,256,512
			c23.39,0,46.184-4.332,67.748-12.876c5.134-2.035,7.647-7.846,5.613-12.98c-2.035-5.135-7.848-7.649-12.98-5.613
			C297.172,488.141,276.857,492,256,492c-55.94,0-105.42-28.16-135.032-71.042h9.146c28.907,0,52.424-23.518,52.424-52.424
			c0-3.175,2.583-5.758,5.758-5.758c20.886,0,37.878-16.992,37.878-37.878v-6.061c0-20.886-16.992-37.878-37.878-37.878h-89.41
			c14.096-46.992,48.733-85.188,93.446-104.095v14.962c0,19.229,15.644,34.873,34.873,34.873H248v42.484
			c0,22.285,18.13,40.415,40.415,40.415h69.188c15.372,0,27.877-12.506,27.877-27.877v-4.789h26.368
			C417.131,293.012,420,310.176,420,328v28.063v14.442v23.86c0,10.827-8.808,19.635-19.635,19.635h-71.51
			c-4.281-13.882-17.229-24-32.497-24h-40c-18.748,0-34,15.252-34,34s15.252,34,34,34h40c15.269,0,28.217-10.118,32.497-24h71.51
			c19.423,0,35.616-14.047,38.982-32.513c4.576,2.247,9.717,3.513,15.149,3.513h23.009c19.02,0,34.495-15.475,34.495-34.496v-111
			C512,241.323,497.859,226.393,480,225.109z M72,370.496c0,7.993-6.502,14.496-14.496,14.496H34.496
			c-7.993,0-14.496-6.503-14.496-14.496v-111C20,251.503,26.502,245,34.496,245h7.35c0.052,0.001,0.103,0.008,0.155,0.008
			s0.103-0.007,0.155-0.008h15.35C65.498,245,72,251.503,72,259.496V370.496z M296.358,438h-40c-7.719,0-14-6.28-14-14
			c0-7.72,6.28-14,14-14h40c7.72,0,14,6.28,14,14C310.358,431.72,304.078,438,296.358,438z M188.296,300.958
			c9.858,0,17.878,8.02,17.878,17.878v6.061c0,9.858-8.021,17.878-17.879,17.878c-14.203,0-25.757,11.555-25.757,25.758
			c0,17.879-14.545,32.424-32.424,32.424h-20.962C98.184,378.971,92,354.196,92,328c0-9.21,0.776-18.241,2.242-27.042H188.296z
			 M375.481,256.932c-5.523,0-10,4.477-10,10v14.789c0,4.344-3.534,7.877-7.877,7.877h-69.188c-11.257,0-20.415-9.158-20.415-20.415
			v-44.276c0-10.04-8.167-18.208-18.207-18.208h-22.587c-8.201,0-14.873-6.672-14.873-14.873v-21.914
			C226.242,166.066,240.884,164,256,164c64.985,0,121.262,37.992,147.788,92.932H375.481z M420,244.626
			C389.541,184.955,327.465,144,256,144S122.459,184.955,92,244.626V224c0-90.43,73.57-164,164-164s164,73.57,164,164V244.626z
			 M492,370.504c0,7.993-6.502,14.496-14.496,14.496h-23.009c-7.993,0-14.496-6.503-14.496-14.496v-14.442v-96.558
			c0-7.993,6.502-14.496,14.496-14.496h23.009c7.993,0,14.496,6.503,14.496,14.496V370.504z"/>
	</g>
</g>
<g>
	<g>
		<path d="M256.386,0H256c-5.523,0-10,4.477-10,10s4.477,10,10,10h0.3c0.015,0,0.029,0,0.044,0c5.502,0,9.976-4.449,9.999-9.957
			C266.366,4.52,261.908,0.024,256.386,0z"/>
	</g>
</g>
<g>
</g>
<g>
</g>
<g>
</g>
<g>
</g>
<g>
</g>
<g>
</g>
<g>
</g>
<g>
</g>
<g>
</g>
<g>
</g>
<g>
</g>
<g>
</g>
<g>
</g>
<g>
</g>
<g>
</g>
</svg>
