<?xml version="1.0" encoding="iso-8859-1"?>
<!-- Generator: Adobe Illustrator 19.0.0, SVG Export Plug-In . SVG Version: 6.00 Build 0)  -->
<svg version="1.1" id="Capa_1" xmlns="http://www.w3.org/2000/svg" xmlns:xlink="http://www.w3.org/1999/xlink" x="0px" y="0px"
	 viewBox="0 0 512 512" style="enable-background:new 0 0 512 512;" xml:space="preserve">
<g>
	<g>
		<path d="M437.07,239.93c-1.86-1.86-4.44-2.93-7.07-2.93s-5.21,1.07-7.07,2.93c-1.86,1.86-2.93,4.44-2.93,7.07s1.07,5.21,2.93,7.07
			S427.37,257,430,257s5.21-1.07,7.07-2.93c1.86-1.86,2.93-4.44,2.93-7.07S438.93,241.79,437.07,239.93z"/>
	</g>
</g>
<g>
	<g>
		<path d="M430,216c5.523,0,10-4.477,10-10V30c0-16.542-13.458-30-30-30H102C85.458,0,72,13.458,72,30v452c0,16.542,13.458,30,30,30
			h308c16.542,0,30-13.458,30-30V288.5c0-5.523-4.477-10-10-10s-10,4.477-10,10V482c0,5.514-4.486,10-10,10H102
			c-5.514,0-10-4.486-10-10V30c0-5.514,4.486-10,10-10h308c5.514,0,10,4.486,10,10v176C420,211.523,424.477,216,430,216z"/>
	</g>
</g>
<g>
	<g>
		<path d="M390,54H122c-5.523,0-10,4.477-10,10v366c0,5.523,4.477,10,10,10h268c5.523,0,10-4.477,10-10V64
			C400,58.477,395.523,54,390,54z M380,420H132V74h248V420z"/>
	</g>
</g>
<g>
	<g>
		<path d="M263.2,458.93c-1.86-1.86-4.44-2.93-7.07-2.93c-2.64,0-5.21,1.07-7.07,2.93c-1.87,1.86-2.93,4.44-2.93,7.07
			s1.06,5.21,2.93,7.07c1.86,1.86,4.43,2.93,7.07,2.93c2.63,0,5.21-1.07,7.07-2.93s2.93-4.44,2.93-7.07S265.06,460.79,263.2,458.93z
			"/>
	</g>
</g>
<g>
	<g>
		<path d="M340.444,222.056l-28.528-28.527c-4.832-4.833-11.256-7.494-18.09-7.494s-13.258,2.661-18.091,7.493l-1.859,1.859
			c-0.493,0.493-1.055,0.597-1.439,0.597c-0.385,0-0.946-0.104-1.439-0.597l-20.407-20.406c-0.493-0.493-0.596-1.054-0.596-1.439
			c0-0.384,0.103-0.946,0.596-1.439l1.859-1.859c4.832-4.833,7.493-11.257,7.493-18.091c0-6.834-2.661-13.258-7.493-18.09
			l-28.528-28.528c-4.833-4.832-11.257-7.493-18.091-7.493c-6.834,0-13.258,2.661-18.09,7.493l-6.827,6.826
			c-22.434,22.435-22.434,58.938,0,81.373l71.331,71.329c11.217,11.217,25.952,16.825,40.686,16.825
			c14.735,0,29.469-5.608,40.687-16.825l6.825-6.826c4.833-4.832,7.494-11.256,7.494-18.09
			C347.937,233.314,345.276,226.889,340.444,222.056z M326.302,244.097l-6.825,6.826c-14.637,14.637-38.452,14.637-53.089,0
			l-71.329-71.329c-14.637-14.638-14.637-38.454-0.001-53.091l6.827-6.826c1.055-1.055,2.457-1.635,3.948-1.635
			c1.492,0,2.894,0.581,3.948,1.636l28.528,28.528c1.055,1.055,1.635,2.457,1.635,3.948c0,1.492-0.581,2.894-1.636,3.948
			l-1.859,1.859c-4.162,4.162-6.454,9.696-6.454,15.582s2.292,11.42,6.454,15.582l20.406,20.406
			c4.162,4.162,9.695,6.455,15.582,6.455c5.886,0,11.419-2.292,15.582-6.454l1.859-1.859c1.054-1.055,2.457-1.636,3.948-1.636
			c1.491,0,2.893,0.581,3.948,1.636l28.528,28.528c1.055,1.055,1.636,2.457,1.636,3.948
			C327.938,241.64,327.357,243.042,326.302,244.097z"/>
	</g>
</g>
<g>
	<g>
		<path d="M300,372h-46.333c-5.523,0-10,4.477-10,10s4.477,10,10,10H300c5.523,0,10-4.477,10-10S305.523,372,300,372z"/>
	</g>
</g>
<g>
	<g>
		<path d="M219.33,374.93c-1.87-1.86-4.44-2.93-7.08-2.93c-2.63,0-5.21,1.07-7.07,2.93s-2.93,4.44-2.93,7.07s1.07,5.21,2.93,7.07
			c1.86,1.86,4.44,2.93,7.07,2.93c2.64,0,5.22-1.07,7.08-2.93s2.92-4.44,2.92-7.07S221.19,376.79,219.33,374.93z"/>
	</g>
</g>
<g>
	<g>
		<path d="M324,324H188.254c-5.523,0-10,4.477-10,10s4.477,10,10,10H324c5.523,0,10-4.477,10-10S329.523,324,324,324z"/>
	</g>
</g>
<g>
</g>
<g>
</g>
<g>
</g>
<g>
</g>
<g>
</g>
<g>
</g>
<g>
</g>
<g>
</g>
<g>
</g>
<g>
</g>
<g>
</g>
<g>
</g>
<g>
</g>
<g>
</g>
<g>
</g>
</svg>
