%!PS-Adobe-3.0 EPSF-3.0
%%Creator: cairo 1.14.2 (http://cairographics.org)
%%CreationDate: Thu Jul 26 08:51:17 2018
%%Pages: 1
%%DocumentData: Clean7Bit
%%LanguageLevel: 2
%%BoundingBox: 0 21 410 389
%%EndComments
%%BeginProlog
save
50 dict begin
/q { gsave } bind def
/Q { grestore } bind def
/cm { 6 array astore concat } bind def
/w { setlinewidth } bind def
/J { setlinecap } bind def
/j { setlinejoin } bind def
/M { setmiterlimit } bind def
/d { setdash } bind def
/m { moveto } bind def
/l { lineto } bind def
/c { curveto } bind def
/h { closepath } bind def
/re { exch dup neg 3 1 roll 5 3 roll moveto 0 rlineto
      0 exch rlineto 0 rlineto closepath } bind def
/S { stroke } bind def
/f { fill } bind def
/f* { eofill } bind def
/n { newpath } bind def
/W { clip } bind def
/W* { eoclip } bind def
/BT { } bind def
/ET { } bind def
/pdfmark where { pop globaldict /?pdfmark /exec load put }
    { globaldict begin /?pdfmark /pop load def /pdfmark
    /cleartomark load def end } ifelse
/BDC { mark 3 1 roll /BDC pdfmark } bind def
/EMC { mark /EMC pdfmark } bind def
/cairo_store_point { /cairo_point_y exch def /cairo_point_x exch def } def
/Tj { show currentpoint cairo_store_point } bind def
/TJ {
  {
    dup
    type /stringtype eq
    { show } { -0.001 mul 0 cairo_font_matrix dtransform rmoveto } ifelse
  } forall
  currentpoint cairo_store_point
} bind def
/cairo_selectfont { cairo_font_matrix aload pop pop pop 0 0 6 array astore
    cairo_font exch selectfont cairo_point_x cairo_point_y moveto } bind def
/Tf { pop /cairo_font exch def /cairo_font_matrix where
      { pop cairo_selectfont } if } bind def
/Td { matrix translate cairo_font_matrix matrix concatmatrix dup
      /cairo_font_matrix exch def dup 4 get exch 5 get cairo_store_point
      /cairo_font where { pop cairo_selectfont } if } bind def
/Tm { 2 copy 8 2 roll 6 array astore /cairo_font_matrix exch def
      cairo_store_point /cairo_font where { pop cairo_selectfont } if } bind def
/g { setgray } bind def
/rg { setrgbcolor } bind def
/d1 { setcachedevice } bind def
%%EndProlog
%%BeginSetup
%%EndSetup
%%Page: 1 1
%%BeginPageSetup
%%PageBoundingBox: 0 21 410 389
%%EndPageSetup
q 0 21 410 368 rectclip q
0 g
348.391 288.346 m 346.902 289.834 344.84 290.682 342.727 290.682 c 340.625
 290.682 338.566 289.834 337.07 288.346 c 335.586 286.85 334.727 284.795
 334.727 282.682 c 334.727 280.577 335.582 278.514 337.07 277.026 c 338.566
 275.538 340.633 274.682 342.727 274.682 c 344.84 274.682 346.895 275.538
 348.391 277.026 c 349.879 278.514 350.727 280.577 350.727 282.682 c 350.727
 284.795 349.879 286.85 348.391 288.346 c h
348.391 288.346 m f
376.043 143.905 m 339.086 154.565 l 348.586 163.881 354.496 176.846 354.496
 191.17 c 354.496 245.194 l 354.496 249.612 350.914 253.194 346.496 253.194
 c 292.867 253.194 l 270.277 253.194 251.902 234.819 251.902 212.233 c 251.902
 191.17 l 251.902 176.85 257.809 163.885 267.309 154.569 c 230.34 143.905
 l 226.191 142.709 222.309 140.948 218.758 138.737 c 40.582 138.737 l 27.742
 138.737 17.172 148.631 16.09 161.194 c 228.535 161.194 l 232.953 161.194
 236.535 164.776 236.535 169.194 c 236.535 173.612 232.953 177.194 228.535
 177.194 c 217.285 177.194 l 217.285 187.276 l 217.285 198.487 213.258 209.338
 205.941 217.834 c 198.629 226.33 188.496 231.928 177.41 233.592 c 156.785
 236.69 l 163.141 241.127 168.145 247.127 171.391 253.995 c 174.355 252.467
 177.715 251.6 181.273 251.6 c 193.219 251.6 202.938 261.319 202.938 273.264
 c 202.938 293.405 l 202.938 305.35 193.219 315.069 181.273 315.069 c 179.141
 315.069 177.078 314.752 175.129 314.174 c 171.957 335.725 153.348 352.319
 130.934 352.319 c 108.52 352.319 89.91 335.725 86.738 314.174 c 84.789 
314.752 82.727 315.069 80.594 315.069 c 68.645 315.069 58.93 305.35 58.93
 293.405 c 58.93 273.264 l 58.93 261.319 68.645 251.6 80.594 251.6 c 84.152
 251.6 87.508 252.467 90.477 253.995 c 93.723 247.12 98.727 241.12 105.078
 236.69 c 84.457 233.592 l 73.371 231.928 63.238 226.33 55.922 217.834 c
 48.609 209.342 44.578 198.487 44.578 187.276 c 44.578 177.194 l 31.668 
177.194 l 31.668 351.506 l 31.668 362.803 40.859 371.995 52.156 371.995 
c 314.242 371.995 l 325.539 371.995 334.73 362.803 334.73 351.506 c 334.73
 310.057 l 334.73 305.639 338.312 302.057 342.73 302.057 c 347.148 302.057
 350.73 305.639 350.73 310.057 c 350.73 351.506 l 350.73 371.627 334.363
 387.995 314.242 387.995 c 52.156 387.995 l 32.035 387.995 15.668 371.627
 15.668 351.506 c 15.668 177.194 l 8 177.194 l 3.582 177.194 0 173.612 0
 169.194 c 0 163.319 l 0 140.94 18.207 122.737 40.582 122.737 c 203.191 
122.737 l 199.098 115.772 196.781 107.725 196.781 99.299 c 196.781 29.604
 l 196.781 25.186 200.363 21.604 204.781 21.604 c 401.602 21.604 l 406.02
 21.604 409.602 25.186 409.602 29.604 c 409.602 99.299 l 409.602 119.866
 395.801 138.209 376.043 143.905 c h
175.609 275.666 m 175.609 293.405 l 175.609 296.53 178.152 299.069 181.273
 299.069 c 184.398 299.069 186.938 296.53 186.938 293.405 c 186.938 273.264
 l 186.938 270.139 184.398 267.6 181.273 267.6 c 178.152 267.6 175.609 270.139
 175.609 273.264 c h
86.258 292.799 m 86.258 273.264 l 86.258 270.139 83.715 267.6 80.594 267.6
 c 77.469 267.6 74.93 270.139 74.93 273.264 c 74.93 293.405 l 74.93 296.53
 77.469 299.069 80.594 299.069 c 83.715 299.069 86.258 296.53 86.258 293.405
 c h
102.258 307.643 m 102.258 323.455 115.121 336.319 130.934 336.319 c 144.23
 336.319 155.441 327.221 158.672 314.92 c 150.781 309.479 l 146.922 306.823
 142.41 305.416 137.727 305.416 c 102.258 305.416 l h
102.254 272.764 m 102.254 273.264 l 102.258 273.264 l 102.258 289.416 l
 137.727 289.416 l 145.566 289.416 153.125 291.745 159.609 296.139 c 159.609
 275.666 l 159.609 272.983 157.426 270.799 154.742 270.799 c 141.602 270.799
 l 137.184 270.799 133.602 267.217 133.602 262.799 c 133.602 258.381 137.184
 254.799 141.602 254.799 c 153.055 254.799 l 150.938 252.268 148.367 250.088
 145.41 248.413 c 136.492 243.35 125.41 243.342 116.527 248.37 c 116.512
 248.381 116.461 248.409 116.445 248.416 c 107.695 253.373 102.254 262.702
 102.254 272.764 c h
60.582 187.276 m 60.582 202.663 71.621 215.487 86.836 217.772 c 114.387
 221.909 l 118.309 222.498 121.121 225.838 121.191 229.674 c 124.395 228.975
 127.664 228.62 130.934 228.62 c 134.203 228.62 137.469 228.975 140.676 
229.67 c 140.742 225.838 143.559 222.498 147.477 221.909 c 175.031 217.772
 l 190.242 215.487 201.285 202.663 201.285 187.276 c 201.285 177.194 l 60.582
 177.194 l h
267.902 212.233 m 267.902 225.995 279.102 237.194 292.867 237.194 c 338.496
 237.194 l 338.496 191.17 l 338.496 171.709 322.664 155.877 303.199 155.877
 c 283.738 155.877 267.902 171.709 267.902 191.17 c h
212.781 37.604 m 212.781 54.135 l 290.398 54.135 l 294.816 54.135 298.398
 57.717 298.398 62.135 c 298.398 66.553 294.816 70.135 290.398 70.135 c 
212.781 70.135 l 212.781 99.299 l 212.781 112.78 221.824 124.799 234.773
 128.534 c 278.07 141.022 l 279.957 141.569 281.484 142.745 282.496 144.256
 c 288.832 141.448 295.836 139.877 303.199 139.877 c 310.559 139.877 317.555
 141.448 323.891 144.248 c 324.902 142.741 326.426 141.565 328.309 141.022
 c 371.605 128.534 l 384.555 124.799 393.598 112.78 393.598 99.299 c 393.598
 37.604 l h
212.781 37.604 m f
329.121 67.791 m 327.633 69.28 325.574 70.135 323.465 70.135 c 321.359 
70.135 319.297 69.28 317.809 67.791 c 316.32 66.303 315.465 64.241 315.465
 62.135 c 315.465 60.034 316.32 57.967 317.809 56.483 c 319.297 54.987 321.359
 54.135 323.465 54.135 c 325.566 54.135 327.633 54.987 329.121 56.483 c 
330.605 57.967 331.465 60.034 331.465 62.135 c 331.465 64.241 330.609 66.303
 329.121 67.791 c h
329.121 67.791 m f
Q Q
showpage
%%Trailer
end restore
%%EOF
