%!PS-Adobe-3.0 EPSF-3.0
%%Creator: cairo 1.14.2 (http://cairographics.org)
%%CreationDate: Thu Jul 26 08:51:17 2018
%%Pages: 1
%%DocumentData: Clean7Bit
%%LanguageLevel: 2
%%BoundingBox: 0 -1 410 410
%%EndComments
%%BeginProlog
save
50 dict begin
/q { gsave } bind def
/Q { grestore } bind def
/cm { 6 array astore concat } bind def
/w { setlinewidth } bind def
/J { setlinecap } bind def
/j { setlinejoin } bind def
/M { setmiterlimit } bind def
/d { setdash } bind def
/m { moveto } bind def
/l { lineto } bind def
/c { curveto } bind def
/h { closepath } bind def
/re { exch dup neg 3 1 roll 5 3 roll moveto 0 rlineto
      0 exch rlineto 0 rlineto closepath } bind def
/S { stroke } bind def
/f { fill } bind def
/f* { eofill } bind def
/n { newpath } bind def
/W { clip } bind def
/W* { eoclip } bind def
/BT { } bind def
/ET { } bind def
/pdfmark where { pop globaldict /?pdfmark /exec load put }
    { globaldict begin /?pdfmark /pop load def /pdfmark
    /cleartomark load def end } ifelse
/BDC { mark 3 1 roll /BDC pdfmark } bind def
/EMC { mark /EMC pdfmark } bind def
/cairo_store_point { /cairo_point_y exch def /cairo_point_x exch def } def
/Tj { show currentpoint cairo_store_point } bind def
/TJ {
  {
    dup
    type /stringtype eq
    { show } { -0.001 mul 0 cairo_font_matrix dtransform rmoveto } ifelse
  } forall
  currentpoint cairo_store_point
} bind def
/cairo_selectfont { cairo_font_matrix aload pop pop pop 0 0 6 array astore
    cairo_font exch selectfont cairo_point_x cairo_point_y moveto } bind def
/Tf { pop /cairo_font exch def /cairo_font_matrix where
      { pop cairo_selectfont } if } bind def
/Td { matrix translate cairo_font_matrix matrix concatmatrix dup
      /cairo_font_matrix exch def dup 4 get exch 5 get cairo_store_point
      /cairo_font where { pop cairo_selectfont } if } bind def
/Tm { 2 copy 8 2 roll 6 array astore /cairo_font_matrix exch def
      cairo_store_point /cairo_font where { pop cairo_selectfont } if } bind def
/g { setgray } bind def
/rg { setrgbcolor } bind def
/d1 { setcachedevice } bind def
%%EndProlog
%%BeginSetup
%%EndSetup
%%Page: 1 1
%%BeginPageSetup
%%PageBoundingBox: 0 -1 410 410
%%EndPageSetup
q 0 -1 410 411 rectclip q
0 g
132.695 162.327 m 131.207 163.816 129.141 164.671 127.039 164.671 c 124.926
 164.671 122.871 163.816 121.383 162.327 c 119.895 160.839 119.039 158.777
 119.039 156.671 c 119.039 154.57 119.895 152.503 121.383 151.015 c 122.871
 149.523 124.926 148.671 127.039 148.671 c 129.141 148.671 131.207 149.523
 132.695 151.015 c 134.18 152.503 135.039 154.57 135.039 156.671 c 135.039
 158.777 134.184 160.839 132.695 162.327 c h
132.695 162.327 m f
376.57 66.034 m 365.754 66.034 355.586 70.245 347.938 77.894 c 347.535 
78.296 l 355.16 85.921 l 370.102 100.863 370.102 125.171 355.16 140.116 
c 299.652 195.62 l 292.414 202.859 282.793 206.847 272.555 206.847 c 262.32
 206.847 252.695 202.859 245.457 195.62 c 232.801 182.964 l 229.887 180.05
 226.016 178.448 221.898 178.448 c 217.781 178.448 213.91 180.05 210.996
 182.964 c 139.73 254.23 l 136.816 257.144 135.211 261.015 135.211 265.132
 c 135.211 269.249 136.816 273.12 139.73 276.034 c 152.387 288.691 l 159.625
 295.929 163.613 305.554 163.613 315.788 c 163.613 326.027 159.625 335.648
 152.387 342.886 c 96.879 398.394 l 81.938 413.335 57.625 413.335 42.684
 398.394 c 29.402 385.113 l -9.781 345.929 -9.781 282.171 29.402 242.988
 c 94.57 177.82 l 97.695 174.698 102.758 174.698 105.887 177.82 c 109.008
 180.945 109.008 186.011 105.887 189.136 c 40.719 254.304 l 24.758 270.261
 15.969 291.48 15.969 314.05 c 15.969 334.14 22.938 353.152 35.719 368.343
 c 94.57 309.491 l 96.133 307.929 98.18 307.148 100.227 307.148 c 102.273
 307.148 104.324 307.929 105.887 309.491 c 109.008 312.613 109.008 317.679
 105.887 320.804 c 46.805 379.886 l 54 387.081 l 62.703 395.784 76.863 395.784
 85.566 387.081 c 141.074 331.573 l 149.777 322.87 149.777 308.71 141.074
 300.007 c 128.418 287.347 l 122.48 281.413 119.215 273.523 119.215 265.132
 c 119.215 256.741 122.48 248.851 128.414 242.917 c 199.684 171.652 l 205.617
 165.714 213.508 162.448 221.898 162.448 c 227.453 162.448 232.789 163.89
 237.48 166.577 c 296.207 107.855 l 297.77 106.292 299.816 105.511 301.863
 105.511 c 303.91 105.511 305.957 106.292 307.52 107.855 c 310.645 110.98
 310.645 116.042 307.52 119.171 c 249.574 177.113 l 256.77 184.308 l 260.988
 188.527 266.594 190.847 272.555 190.847 c 278.52 190.847 284.125 188.527
 288.34 184.308 c 343.848 128.8 l 352.547 120.097 352.547 105.937 343.848
 97.234 c 330.562 83.952 l 297.617 51.007 244.012 51.007 211.066 83.952 
c 154.695 140.327 l 151.57 143.448 146.508 143.448 143.379 140.327 c 140.254
 137.202 140.254 132.136 143.379 129.011 c 199.754 72.636 l 218.734 53.655
 243.969 43.202 270.816 43.202 c 294.973 43.202 317.828 51.671 335.996 67.202
 c 336.621 66.577 l 347.293 55.909 361.477 50.03 376.57 50.03 c 385.953 
50.03 393.586 42.398 393.586 33.015 c 393.586 23.632 385.953 15.999 376.57
 15.999 c 89.57 15.999 l 85.156 15.999 81.57 12.417 81.57 7.999 c 81.57 
3.581 85.156 -0.001 89.57 -0.001 c 376.57 -0.001 l 394.773 -0.001 409.586
 14.812 409.586 33.015 c 409.586 51.222 394.773 66.034 376.57 66.034 c h
376.57 66.034 m f
56.824 13.659 m 55.34 15.148 53.273 16.003 51.172 16.003 c 49.066 16.003
 47.004 15.148 45.516 13.659 c 44.027 12.167 43.172 10.105 43.172 8.003 
c 43.172 5.898 44.027 3.835 45.516 2.347 c 47.004 0.859 49.066 0.003 51.172
 0.003 c 53.273 0.003 55.34 0.859 56.824 2.347 c 58.312 3.835 59.172 5.898
 59.172 8.003 c 59.172 10.105 58.312 12.171 56.824 13.659 c h
56.824 13.659 m f
401.586 313.214 m 255.914 313.214 l 251.535 313.214 247.98 309.698 247.914
 305.339 c 219.227 324.413 l 247.914 343.491 l 247.98 339.132 251.535 335.616
 255.914 335.616 c 401.586 335.616 l 406.004 335.616 409.586 339.198 409.586
 343.616 c 409.586 348.034 406.004 351.616 401.586 351.616 c 263.914 351.616
 l 263.914 358.417 l 263.914 361.366 262.293 364.073 259.691 365.468 c 257.094
 366.863 253.938 366.71 251.484 365.077 c 200.348 331.077 l 198.117 329.593
 196.777 327.093 196.777 324.413 c 196.777 321.738 198.117 319.234 200.348
 317.753 c 251.484 283.753 l 252.82 282.863 254.367 282.413 255.914 282.413
 c 257.211 282.413 258.508 282.73 259.691 283.363 c 262.293 284.753 263.914
 287.464 263.914 290.413 c 263.914 297.214 l 401.586 297.214 l 406.004 297.214
 409.586 300.796 409.586 305.214 c 409.586 309.632 406.004 313.214 401.586
 313.214 c h
401.586 313.214 m f
Q Q
showpage
%%Trailer
end restore
%%EOF
