%!PS-Adobe-3.0 EPSF-3.0
%%Creator: cairo 1.14.2 (http://cairographics.org)
%%CreationDate: Thu Jul 26 08:51:17 2018
%%Pages: 1
%%DocumentData: Clean7Bit
%%LanguageLevel: 2
%%BoundingBox: 61 -1 349 410
%%EndComments
%%BeginProlog
save
50 dict begin
/q { gsave } bind def
/Q { grestore } bind def
/cm { 6 array astore concat } bind def
/w { setlinewidth } bind def
/J { setlinecap } bind def
/j { setlinejoin } bind def
/M { setmiterlimit } bind def
/d { setdash } bind def
/m { moveto } bind def
/l { lineto } bind def
/c { curveto } bind def
/h { closepath } bind def
/re { exch dup neg 3 1 roll 5 3 roll moveto 0 rlineto
      0 exch rlineto 0 rlineto closepath } bind def
/S { stroke } bind def
/f { fill } bind def
/f* { eofill } bind def
/n { newpath } bind def
/W { clip } bind def
/W* { eoclip } bind def
/BT { } bind def
/ET { } bind def
/pdfmark where { pop globaldict /?pdfmark /exec load put }
    { globaldict begin /?pdfmark /pop load def /pdfmark
    /cleartomark load def end } ifelse
/BDC { mark 3 1 roll /BDC pdfmark } bind def
/EMC { mark /EMC pdfmark } bind def
/cairo_store_point { /cairo_point_y exch def /cairo_point_x exch def } def
/Tj { show currentpoint cairo_store_point } bind def
/TJ {
  {
    dup
    type /stringtype eq
    { show } { -0.001 mul 0 cairo_font_matrix dtransform rmoveto } ifelse
  } forall
  currentpoint cairo_store_point
} bind def
/cairo_selectfont { cairo_font_matrix aload pop pop pop 0 0 6 array astore
    cairo_font exch selectfont cairo_point_x cairo_point_y moveto } bind def
/Tf { pop /cairo_font exch def /cairo_font_matrix where
      { pop cairo_selectfont } if } bind def
/Td { matrix translate cairo_font_matrix matrix concatmatrix dup
      /cairo_font_matrix exch def dup 4 get exch 5 get cairo_store_point
      /cairo_font where { pop cairo_selectfont } if } bind def
/Tm { 2 copy 8 2 roll 6 array astore /cairo_font_matrix exch def
      cairo_store_point /cairo_font where { pop cairo_selectfont } if } bind def
/g { setgray } bind def
/rg { setrgbcolor } bind def
/d1 { setcachedevice } bind def
%%EndProlog
%%BeginSetup
%%EndSetup
%%Page: 1 1
%%BeginPageSetup
%%PageBoundingBox: 61 -1 349 410
%%EndPageSetup
q 61 -1 288 411 rectclip q
0 g
337.105 199.506 m 337.047 199.663 336.98 199.819 336.906 199.971 c 333.281
 208.455 328.785 216.659 323.535 224.362 c 318.68 232.717 313.543 241.178
 308.578 249.366 c 278.059 299.635 249.234 347.12 261.461 399.791 c 262.133
 402.682 261.148 405.709 258.902 407.651 c 256.656 409.592 253.52 410.131
 250.754 409.049 c 211.648 393.748 188.105 362.049 177.555 344.514 c 169.371
 330.916 163.551 317.069 160.445 304.37 c 149.793 319.819 137.539 329.358
 127.676 335.096 c 111.449 344.541 97.922 346.092 97.355 346.155 c 94.516
 346.459 91.738 345.237 90.051 342.944 c 88.363 340.651 88.02 337.631 89.152
 335.022 c 89.391 334.475 112.371 279.975 83.586 220.561 c 80.398 215.549
 77.531 210.381 75.062 205.19 c 74.918 204.92 74.789 204.647 74.676 204.37
 c 65.73 185.248 61.195 164.807 61.195 143.604 c 61.199 64.42 125.617 -0.002
 204.801 -0.002 c 230.008 -0.002 254.809 6.627 276.52 19.166 c 280.344 21.373
 281.656 26.268 279.445 30.092 c 277.234 33.92 272.344 35.233 268.52 33.022
 c 249.234 21.885 227.203 15.998 204.801 15.998 c 134.441 15.998 77.199 
73.241 77.199 143.604 c 77.199 162.592 81.285 180.885 89.352 197.979 c 89.375
 198.03 89.402 198.084 89.426 198.139 c 91.695 202.928 94.348 207.702 97.312
 212.33 c 97.48 212.588 97.633 212.858 97.766 213.135 c 120.867 260.455 
114.57 304.444 108.719 326.553 c 112.184 325.194 116.129 323.354 120.285
 320.881 c 138.137 310.264 151.379 293.53 159.652 271.135 c 161.137 267.108
 165.535 264.971 169.617 266.295 c 173.699 267.612 176.012 271.92 174.863
 276.053 c 171.738 287.264 175.598 310.233 191.262 336.264 c 199.484 349.924
 216.402 373.112 243.281 387.909 c 237.805 335.116 266.789 287.37 294.898
 241.061 c 299.879 232.858 305.027 224.377 309.848 216.073 c 309.945 215.901
 310.055 215.737 310.164 215.573 c 314.93 208.608 319 201.19 322.266 193.514
 c 322.277 193.487 322.293 193.455 322.305 193.424 c 329.004 177.647 332.402
 160.881 332.402 143.604 c 332.402 120.26 326.043 97.432 314.02 77.58 c 
311.727 73.799 312.934 68.881 316.715 66.592 c 320.496 64.303 325.41 65.51
 327.703 69.291 c 341.242 91.639 348.402 117.338 348.402 143.604 c 348.402
 162.979 344.602 181.788 337.105 199.506 c h
337.105 199.506 m f
305.633 52.67 m 302.508 55.791 297.441 55.791 294.32 52.67 c 294.238 52.592
 l 291.086 49.495 291.039 44.428 294.137 41.276 c 295.703 39.682 297.773
 38.881 299.844 38.881 c 301.867 38.881 303.895 39.643 305.449 41.174 c 
305.633 41.354 l 308.758 44.479 308.758 49.545 305.633 52.67 c h
305.633 52.67 m f
172.855 102.678 m 171.367 104.174 169.305 105.026 167.203 105.026 c 165.098
 105.026 163.031 104.174 161.547 102.678 c 160.059 101.194 159.203 99.127
 159.203 97.026 c 159.203 94.92 160.059 92.866 161.547 91.37 c 163.031 89.881
 165.098 89.026 167.203 89.026 c 169.305 89.026 171.371 89.881 172.855 91.37
 c 174.344 92.858 175.203 94.92 175.203 97.026 c 175.203 99.135 174.344 
101.194 172.855 102.678 c h
172.855 102.678 m f
273.918 96.159 m 247.715 122.362 l 239.016 131.061 224.859 131.061 216.16
 122.362 c 214.453 120.655 l 213.672 119.873 212.766 119.76 212.293 119.76
 c 211.82 119.76 210.91 119.873 210.133 120.655 c 191.391 139.397 l 190.199
 140.588 190.199 142.526 191.387 143.713 c 193.098 145.424 l 201.797 154.123
 201.797 168.28 193.098 176.979 c 166.895 203.182 l 158.195 211.881 144.039
 211.885 135.336 203.182 c 129.066 196.913 l 108.926 176.768 108.926 143.991
 129.066 123.846 c 136.48 116.436 l 139.605 113.311 144.668 113.311 147.797
 116.436 c 150.918 119.557 150.918 124.623 147.797 127.748 c 140.383 135.163
 l 133.645 141.897 129.938 150.854 129.938 160.381 c 129.938 169.905 133.645
 178.862 140.383 185.6 c 146.652 191.87 l 149.113 194.33 153.121 194.33 
155.582 191.87 c 181.785 165.666 l 184.246 163.205 184.246 159.198 181.785
 156.737 c 180.074 155.03 l 172.648 147.6 172.648 135.51 180.074 128.08 
c 198.82 109.338 l 206.246 101.909 218.336 101.909 225.766 109.338 c 227.477
 111.045 l 229.938 113.506 233.941 113.506 236.402 111.045 c 262.605 84.842
 l 265.066 82.381 265.066 78.373 262.605 75.913 c 256.336 69.647 l 249.598
 62.909 240.645 59.198 231.117 59.198 c 221.59 59.198 212.633 62.909 205.898
 69.647 c 194.73 80.815 l 191.605 83.94 186.539 83.94 183.414 80.815 c 180.289
 77.69 180.289 72.627 183.414 69.502 c 194.586 58.33 l 204.656 48.26 217.887
 43.225 231.117 43.225 c 244.348 43.225 257.578 48.26 267.648 58.33 c 273.918
 64.6 l 282.621 73.303 282.621 87.455 273.918 96.159 c h
273.918 96.159 m f
218.582 215.077 m 214.164 215.077 210.582 211.495 210.582 207.077 c 210.582
 202.659 214.164 199.077 218.582 199.077 c 246.723 199.077 269.621 176.182
 269.621 148.038 c 269.621 143.62 273.203 140.038 277.621 140.038 c 282.035
 140.038 285.621 143.62 285.621 148.038 c 285.621 185.002 255.547 215.077
 218.582 215.077 c h
218.582 215.077 m f
218.582 181.338 m 214.164 181.338 210.582 177.756 210.582 173.338 c 210.582
 168.924 214.164 165.338 218.582 165.338 c 228.121 165.338 235.883 157.577
 235.883 148.038 c 235.883 143.62 239.465 140.038 243.883 140.038 c 248.301
 140.038 251.883 143.62 251.883 148.038 c 251.883 166.401 236.945 181.338
 218.582 181.338 c h
218.582 181.338 m f
Q Q
showpage
%%Trailer
end restore
%%EOF
