%!PS-Adobe-3.0 EPSF-3.0
%%Creator: cairo 1.14.2 (http://cairographics.org)
%%CreationDate: Thu Jul 26 08:51:17 2018
%%Pages: 1
%%DocumentData: Clean7Bit
%%LanguageLevel: 2
%%BoundingBox: 0 -1 410 410
%%EndComments
%%BeginProlog
save
50 dict begin
/q { gsave } bind def
/Q { grestore } bind def
/cm { 6 array astore concat } bind def
/w { setlinewidth } bind def
/J { setlinecap } bind def
/j { setlinejoin } bind def
/M { setmiterlimit } bind def
/d { setdash } bind def
/m { moveto } bind def
/l { lineto } bind def
/c { curveto } bind def
/h { closepath } bind def
/re { exch dup neg 3 1 roll 5 3 roll moveto 0 rlineto
      0 exch rlineto 0 rlineto closepath } bind def
/S { stroke } bind def
/f { fill } bind def
/f* { eofill } bind def
/n { newpath } bind def
/W { clip } bind def
/W* { eoclip } bind def
/BT { } bind def
/ET { } bind def
/pdfmark where { pop globaldict /?pdfmark /exec load put }
    { globaldict begin /?pdfmark /pop load def /pdfmark
    /cleartomark load def end } ifelse
/BDC { mark 3 1 roll /BDC pdfmark } bind def
/EMC { mark /EMC pdfmark } bind def
/cairo_store_point { /cairo_point_y exch def /cairo_point_x exch def } def
/Tj { show currentpoint cairo_store_point } bind def
/TJ {
  {
    dup
    type /stringtype eq
    { show } { -0.001 mul 0 cairo_font_matrix dtransform rmoveto } ifelse
  } forall
  currentpoint cairo_store_point
} bind def
/cairo_selectfont { cairo_font_matrix aload pop pop pop 0 0 6 array astore
    cairo_font exch selectfont cairo_point_x cairo_point_y moveto } bind def
/Tf { pop /cairo_font exch def /cairo_font_matrix where
      { pop cairo_selectfont } if } bind def
/Td { matrix translate cairo_font_matrix matrix concatmatrix dup
      /cairo_font_matrix exch def dup 4 get exch 5 get cairo_store_point
      /cairo_font where { pop cairo_selectfont } if } bind def
/Tm { 2 copy 8 2 roll 6 array astore /cairo_font_matrix exch def
      cairo_store_point /cairo_font where { pop cairo_selectfont } if } bind def
/g { setgray } bind def
/rg { setrgbcolor } bind def
/d1 { setcachedevice } bind def
%%EndProlog
%%BeginSetup
%%EndSetup
%%Page: 1 1
%%BeginPageSetup
%%PageBoundingBox: 0 -1 410 410
%%EndPageSetup
q 0 -1 410 411 rectclip q
0 g
349.641 71.323 m 346.516 74.448 341.426 74.42 338.301 71.299 c 335.176 
68.174 335.176 63.108 338.301 59.983 c 339.863 58.42 341.91 57.639 343.957
 57.639 c 346.004 57.639 348.055 58.42 349.613 59.983 c 349.664 60.034 l
 352.789 63.159 352.766 68.198 349.641 71.323 c h
349.641 71.323 m f
409.191 217.745 m 406.062 267.495 384.902 314.327 349.613 349.616 c 310.934
 388.295 259.504 409.6 204.801 409.6 c 152.656 409.6 103.488 390.245 65.5
 354.932 c 56.805 362.897 l 54.465 365.041 51.082 365.6 48.176 364.319 c
 45.273 363.041 43.402 360.17 43.402 356.998 c 43.402 297.198 l 43.402 292.78
 46.984 289.198 51.402 289.198 c 111.199 289.198 l 114.391 289.198 117.277
 291.096 118.543 294.026 c 119.809 296.959 119.211 300.362 117.023 302.686
 c 102.941 317.631 l 162.535 371.491 254.859 369.713 312.285 312.284 c 371.555
 253.018 371.555 156.58 312.285 97.315 c 283.574 68.604 245.402 52.791 204.801
 52.791 c 164.199 52.791 126.023 68.604 97.316 97.315 c 68.605 126.026 52.793
 164.198 52.793 204.799 c 52.793 209.217 49.211 212.799 44.793 212.799 c
 8 212.799 l 3.582 212.799 0 209.217 0 204.799 c 0 150.096 21.305 98.666
 59.984 59.983 c 95.035 24.932 141.543 3.795 190.945 0.467 c 195.566 0.155
 200.18 -0.002 204.785 -0.002 c 248.934 -0.002 292.008 14.217 327.371 40.698
 c 330.906 43.346 331.625 48.358 328.98 51.897 c 326.328 55.432 321.316 
56.151 317.781 53.502 c 243.23 -2.318 137.266 5.33 71.297 71.299 c 37.527
 105.065 18.129 149.37 16.164 196.799 c 36.977 196.799 l 38.926 154.924 
56.16 115.838 86 85.998 c 151.508 20.495 258.094 20.495 323.598 85.998 c
 389.105 151.506 389.105 258.092 323.598 323.6 c 258.094 389.104 151.508
 389.104 86 323.6 c 82.941 320.541 82.867 315.604 85.836 312.455 c 92.672
 305.198 l 59.402 305.198 l 59.402 338.827 l 60.238 338.057 l 63.395 335.166
 68.27 335.272 71.297 338.299 c 106.957 373.959 154.371 393.6 204.801 393.6
 c 255.23 393.6 302.641 373.959 338.301 338.299 c 404.895 271.709 412.086
 165.139 355.031 90.409 c 352.348 86.897 353.023 81.877 356.535 79.198 c
 360.047 76.514 365.066 77.19 367.75 80.702 c 397.578 119.772 412.297 168.44
 409.191 217.745 c h
409.191 217.745 m f
145.113 178.401 m 120.902 178.401 l 121.957 179.366 123.023 180.366 124.094
 181.393 c 139.23 195.967 146.586 208.319 146.586 219.155 c 146.586 235.932
 135.316 247.202 118.543 247.202 c 103.078 247.202 90.5 234.62 90.5 219.155
 c 90.5 214.737 94.082 211.155 98.5 211.155 c 102.914 211.155 106.5 214.737
 106.5 219.155 c 106.5 225.795 111.902 231.202 118.543 231.202 c 130.586
 231.202 130.586 222.135 130.586 219.155 c 130.586 208.022 109.117 187.756
 93.871 176.924 c 91.031 174.909 89.82 171.288 90.875 167.971 c 91.934 164.655
 95.016 162.401 98.5 162.401 c 145.113 162.401 l 149.531 162.401 153.113
 165.983 153.113 170.401 c 153.113 174.819 149.531 178.401 145.113 178.401
 c h
145.113 178.401 m f
203.762 203.6 m 198.301 203.6 l 198.301 205.866 l 198.301 210.284 194.719
 213.866 190.301 213.866 c 185.883 213.866 182.301 210.284 182.301 205.866
 c 182.301 203.6 l 171.262 203.6 l 189.262 235.245 l 191.445 239.084 190.105
 243.967 186.266 246.155 c 182.426 248.338 177.539 246.995 175.355 243.155
 c 150.555 199.557 l 149.145 197.077 149.16 194.041 150.594 191.577 c 152.027
 189.116 154.66 187.6 157.508 187.6 c 182.301 187.6 l 182.301 170.401 l 
182.301 165.983 185.883 162.401 190.301 162.401 c 194.719 162.401 198.301
 165.983 198.301 170.401 c 198.301 187.6 l 203.762 187.6 l 208.18 187.6 
211.762 191.182 211.762 195.6 c 211.762 200.018 208.18 203.6 203.762 203.6
 c h
203.762 203.6 m f
254.043 246.666 m 249.918 248.252 245.289 246.198 243.703 242.073 c 217.234
 173.272 l 215.648 169.147 217.703 164.522 221.828 162.932 c 222.773 162.569
 223.742 162.397 224.699 162.397 c 227.914 162.397 230.945 164.346 232.168
 167.526 c 258.637 236.327 l 260.223 240.448 258.164 245.077 254.043 246.666
 c h
254.043 246.666 m f
317.672 243.764 m 316.176 245.916 313.723 247.198 311.102 247.198 c 277.5
 247.198 l 273.082 247.198 269.5 243.616 269.5 239.198 c 269.5 234.78 273.082
 231.198 277.5 231.198 c 299.59 231.198 l 278.004 173.19 l 276.461 169.049
 278.57 164.444 282.711 162.901 c 283.629 162.561 284.574 162.397 285.5 
162.397 c 288.746 162.397 291.801 164.389 293 167.608 c 318.598 236.409 
l 319.512 238.866 319.164 241.612 317.672 243.764 c h
317.672 243.764 m f
Q Q
showpage
%%Trailer
end restore
%%EOF
