%!PS-Adobe-3.0 EPSF-3.0
%%Creator: cairo 1.14.2 (http://cairographics.org)
%%CreationDate: Thu Jul 26 08:51:17 2018
%%Pages: 1
%%DocumentData: Clean7Bit
%%LanguageLevel: 2
%%BoundingBox: 0 -1 410 410
%%EndComments
%%BeginProlog
save
50 dict begin
/q { gsave } bind def
/Q { grestore } bind def
/cm { 6 array astore concat } bind def
/w { setlinewidth } bind def
/J { setlinecap } bind def
/j { setlinejoin } bind def
/M { setmiterlimit } bind def
/d { setdash } bind def
/m { moveto } bind def
/l { lineto } bind def
/c { curveto } bind def
/h { closepath } bind def
/re { exch dup neg 3 1 roll 5 3 roll moveto 0 rlineto
      0 exch rlineto 0 rlineto closepath } bind def
/S { stroke } bind def
/f { fill } bind def
/f* { eofill } bind def
/n { newpath } bind def
/W { clip } bind def
/W* { eoclip } bind def
/BT { } bind def
/ET { } bind def
/pdfmark where { pop globaldict /?pdfmark /exec load put }
    { globaldict begin /?pdfmark /pop load def /pdfmark
    /cleartomark load def end } ifelse
/BDC { mark 3 1 roll /BDC pdfmark } bind def
/EMC { mark /EMC pdfmark } bind def
/cairo_store_point { /cairo_point_y exch def /cairo_point_x exch def } def
/Tj { show currentpoint cairo_store_point } bind def
/TJ {
  {
    dup
    type /stringtype eq
    { show } { -0.001 mul 0 cairo_font_matrix dtransform rmoveto } ifelse
  } forall
  currentpoint cairo_store_point
} bind def
/cairo_selectfont { cairo_font_matrix aload pop pop pop 0 0 6 array astore
    cairo_font exch selectfont cairo_point_x cairo_point_y moveto } bind def
/Tf { pop /cairo_font exch def /cairo_font_matrix where
      { pop cairo_selectfont } if } bind def
/Td { matrix translate cairo_font_matrix matrix concatmatrix dup
      /cairo_font_matrix exch def dup 4 get exch 5 get cairo_store_point
      /cairo_font where { pop cairo_selectfont } if } bind def
/Tm { 2 copy 8 2 roll 6 array astore /cairo_font_matrix exch def
      cairo_store_point /cairo_font where { pop cairo_selectfont } if } bind def
/g { setgray } bind def
/rg { setrgbcolor } bind def
/d1 { setcachedevice } bind def
%%EndProlog
%%BeginSetup
%%EndSetup
%%Page: 1 1
%%BeginPageSetup
%%PageBoundingBox: 0 -1 410 410
%%EndPageSetup
q 0 -1 410 411 rectclip q
0 g
210.457 283.952 m 208.969 285.44 206.902 286.295 204.801 286.295 c 202.695
 286.295 200.633 285.44 199.145 283.952 c 197.656 282.455 196.801 280.401
 196.801 278.295 c 196.801 276.19 197.656 274.127 199.145 272.639 c 200.633
 271.143 202.695 270.288 204.801 270.288 c 206.902 270.288 208.969 271.143
 210.457 272.639 c 211.941 274.127 212.801 276.186 212.801 278.295 c 212.801
 280.401 211.945 282.463 210.457 283.952 c h
210.457 283.952 m f
291.387 238.87 m 246.578 246.08 l 246.578 252.936 l 253.328 259.127 258.559
 266.764 261.914 275.213 c 283.441 275.885 300.754 293.592 300.754 315.28
 c 300.754 335.651 285.484 352.506 265.793 355.041 c 262.387 385.686 236.34
 409.6 204.801 409.6 c 173.262 409.6 147.211 385.686 143.805 355.041 c 124.113
 352.506 108.848 335.651 108.848 315.28 c 108.848 293.592 126.156 275.885
 147.68 275.213 c 151.039 266.756 156.273 259.12 163.02 252.932 c 163.02
 246.08 l 118.211 238.87 l 93.289 234.858 75.199 213.623 75.199 188.381 
c 75.199 163.526 l 75.199 159.108 78.781 155.526 83.199 155.526 c 196.902
 155.526 l 196.902 135.202 l 71.848 135.202 l 55.168 135.202 41.602 121.631
 41.602 104.952 c 41.602 98.545 l 18.043 94.709 0 74.225 0 49.6 c 0 22.252
 22.25 -0.002 49.602 -0.002 c 76.949 -0.002 99.199 22.252 99.199 49.6 c 
99.199 74.225 81.156 94.709 57.602 98.545 c 57.602 104.952 l 57.602 112.807
 63.992 119.202 71.848 119.202 c 196.902 119.202 l 196.902 98.565 l 173.293
 94.768 155.199 74.26 155.199 49.6 c 155.199 22.252 177.449 -0.002 204.801
 -0.002 c 232.148 -0.002 254.398 22.252 254.398 49.6 c 254.398 74.19 236.41
 94.647 212.902 98.526 c 212.902 119.202 l 244.465 119.202 l 248.883 119.202
 252.465 122.784 252.465 127.202 c 252.465 131.62 248.883 135.202 244.465
 135.202 c 212.902 135.202 l 212.902 155.526 l 326.398 155.526 l 330.816
 155.526 334.398 159.108 334.398 163.526 c 334.398 188.377 l 334.398 213.623
 316.309 234.858 291.387 238.87 c h
266.184 297.022 m 266.184 338.741 l 276.816 336.237 284.754 326.666 284.754
 315.28 c 284.754 303.897 276.812 294.327 266.184 291.823 c h
143.418 335.659 m 143.418 291.823 l 132.785 294.327 124.848 303.897 124.848
 315.28 c 124.848 326.666 132.785 336.237 143.418 338.741 c h
83.199 49.6 m 83.199 31.073 68.129 15.998 49.602 15.998 c 31.074 15.998
 16 31.073 16 49.6 c 16 68.127 31.074 83.202 49.602 83.202 c 68.129 83.202
 83.199 68.127 83.199 49.6 c h
204.801 393.6 m 226.742 393.6 245.098 377.944 249.281 357.217 c 235.754
 347.893 l 229.531 343.604 222.242 341.334 214.684 341.334 c 159.418 341.334
 l 159.418 348.217 l 159.418 373.241 179.777 393.6 204.801 393.6 c h
159.418 297.448 m 159.418 325.334 l 214.684 325.334 l 225.504 325.334 235.93
 328.58 244.836 334.717 c 250.184 338.405 l 250.184 297.448 l 250.184 297.233
 250.176 297.018 250.172 296.803 c 250.055 290.991 245.297 286.291 239.457
 286.291 c 230.75 286.291 l 226.332 286.291 222.75 282.709 222.75 278.291
 c 222.75 273.873 226.332 270.291 230.75 270.291 c 239.457 270.291 l 239.945
 270.291 240.434 270.307 240.918 270.334 c 237.363 265.729 232.891 261.795
 227.668 258.838 c 213.582 250.842 196.07 250.83 182.012 258.791 c 182 258.799
 181.934 258.834 181.922 258.842 c 168.039 266.705 159.418 281.498 159.418
 297.448 c h
238.398 49.6 m 238.398 31.073 223.328 15.998 204.801 15.998 c 186.273 15.998
 171.199 31.073 171.199 49.6 c 171.199 68.127 186.273 83.202 204.801 83.202
 c 223.328 83.202 238.398 68.127 238.398 49.6 c h
318.398 171.526 m 91.199 171.526 l 91.199 188.377 l 91.199 205.725 103.629
 220.319 120.758 223.073 c 172.293 231.366 l 176.172 231.991 179.023 235.338
 179.023 239.264 c 179.023 242.393 l 187.18 238.698 195.988 236.842 204.801
 236.842 c 213.613 236.842 222.422 238.698 230.578 242.389 c 230.578 239.264
 l 230.578 235.338 233.43 231.991 237.309 231.366 c 288.844 223.073 l 305.969
 220.319 318.398 205.725 318.398 188.381 c h
318.398 171.526 m f
368 98.545 m 368 104.952 l 368 121.631 354.43 135.202 337.754 135.202 c
 305.602 135.202 l 301.184 135.202 297.602 131.62 297.602 127.202 c 297.602
 122.784 301.184 119.202 305.602 119.202 c 337.754 119.202 l 345.609 119.202
 352 112.807 352 104.952 c 352 98.545 l 328.441 94.709 310.398 74.225 310.398
 49.6 c 310.398 22.252 332.652 -0.002 360 -0.002 c 387.348 -0.002 409.602
 22.252 409.602 49.6 c 409.602 74.225 391.559 94.709 368 98.545 c h
360 15.998 m 341.473 15.998 326.398 31.073 326.398 49.6 c 326.398 68.127
 341.473 83.202 360 83.202 c 378.527 83.202 393.602 68.127 393.602 49.6 
c 393.602 31.073 378.527 15.998 360 15.998 c h
360 15.998 m f
281.121 132.858 m 279.641 134.346 277.574 135.202 275.465 135.202 c 273.359
 135.202 271.297 134.346 269.809 132.858 c 268.32 131.366 267.473 129.303
 267.473 127.202 c 267.473 125.096 268.32 123.034 269.809 121.545 c 271.305
 120.057 273.359 119.202 275.465 119.202 c 277.574 119.202 279.633 120.057
 281.121 121.545 c 282.613 123.034 283.465 125.096 283.465 127.202 c 283.465
 129.303 282.613 131.37 281.121 132.858 c h
281.121 132.858 m f
Q Q
showpage
%%Trailer
end restore
%%EOF
