%!PS-Adobe-3.0 EPSF-3.0
%%Creator: cairo 1.14.2 (http://cairographics.org)
%%CreationDate: Thu Jul 26 08:51:17 2018
%%Pages: 1
%%DocumentData: Clean7Bit
%%LanguageLevel: 2
%%BoundingBox: 0 -1 410 410
%%EndComments
%%BeginProlog
save
50 dict begin
/q { gsave } bind def
/Q { grestore } bind def
/cm { 6 array astore concat } bind def
/w { setlinewidth } bind def
/J { setlinecap } bind def
/j { setlinejoin } bind def
/M { setmiterlimit } bind def
/d { setdash } bind def
/m { moveto } bind def
/l { lineto } bind def
/c { curveto } bind def
/h { closepath } bind def
/re { exch dup neg 3 1 roll 5 3 roll moveto 0 rlineto
      0 exch rlineto 0 rlineto closepath } bind def
/S { stroke } bind def
/f { fill } bind def
/f* { eofill } bind def
/n { newpath } bind def
/W { clip } bind def
/W* { eoclip } bind def
/BT { } bind def
/ET { } bind def
/pdfmark where { pop globaldict /?pdfmark /exec load put }
    { globaldict begin /?pdfmark /pop load def /pdfmark
    /cleartomark load def end } ifelse
/BDC { mark 3 1 roll /BDC pdfmark } bind def
/EMC { mark /EMC pdfmark } bind def
/cairo_store_point { /cairo_point_y exch def /cairo_point_x exch def } def
/Tj { show currentpoint cairo_store_point } bind def
/TJ {
  {
    dup
    type /stringtype eq
    { show } { -0.001 mul 0 cairo_font_matrix dtransform rmoveto } ifelse
  } forall
  currentpoint cairo_store_point
} bind def
/cairo_selectfont { cairo_font_matrix aload pop pop pop 0 0 6 array astore
    cairo_font exch selectfont cairo_point_x cairo_point_y moveto } bind def
/Tf { pop /cairo_font exch def /cairo_font_matrix where
      { pop cairo_selectfont } if } bind def
/Td { matrix translate cairo_font_matrix matrix concatmatrix dup
      /cairo_font_matrix exch def dup 4 get exch 5 get cairo_store_point
      /cairo_font where { pop cairo_selectfont } if } bind def
/Tm { 2 copy 8 2 roll 6 array astore /cairo_font_matrix exch def
      cairo_store_point /cairo_font where { pop cairo_selectfont } if } bind def
/g { setgray } bind def
/rg { setrgbcolor } bind def
/d1 { setcachedevice } bind def
%%EndProlog
%%BeginSetup
%%EndSetup
%%Page: 1 1
%%BeginPageSetup
%%PageBoundingBox: 0 -1 410 410
%%EndPageSetup
q 0 -1 410 411 rectclip q
0 g
266.441 250.44 m 264.957 251.928 262.891 252.788 260.785 252.788 c 258.684
 252.788 256.617 251.932 255.129 250.44 c 253.641 248.955 252.785 246.889
 252.785 244.784 c 252.785 242.678 253.641 240.616 255.129 239.127 c 256.617
 237.639 258.68 236.784 260.785 236.784 c 262.891 236.784 264.953 237.639
 266.441 239.127 c 267.93 240.616 268.789 242.678 268.789 244.784 c 268.789
 246.897 267.93 248.955 266.441 250.44 c h
266.441 250.44 m f
399.59 405.08 m 399.5 405.151 399.406 405.213 399.316 405.276 c 395.426
 407.998 390.695 409.6 385.598 409.6 c 161.578 409.6 l 156.797 409.6 152.348
 408.19 148.602 405.776 c 148.305 405.6 148.016 405.405 147.738 405.194 
c 141.598 400.838 137.574 393.682 137.574 385.6 c 137.574 260.788 l 137.574
 247.553 148.344 236.784 161.578 236.784 c 220.781 236.784 l 225.203 236.784
 228.785 240.366 228.785 244.788 c 228.785 249.202 225.203 252.788 220.781
 252.788 c 169.426 252.788 l 235.09 329.506 l 268.906 305.104 l 270.305 
304.096 271.945 303.592 273.59 303.592 c 275.227 303.592 276.863 304.092
 278.262 305.096 c 312.125 329.463 l 377.75 252.788 l 295.992 252.788 l 
291.574 252.788 287.992 249.205 287.992 244.788 c 287.992 240.366 291.57
 236.784 295.992 236.784 c 385.598 236.784 l 398.836 236.784 409.602 247.553
 409.602 260.788 c 409.602 385.596 l 409.602 393.612 405.645 400.721 399.59
 405.08 c h
153.762 259.092 m 153.645 259.639 153.578 260.205 153.578 260.788 c 153.578
 385.596 l 153.578 386.455 153.715 387.276 153.965 388.053 c 222.07 338.901
 l h
273.598 321.452 m 173.625 393.6 l 373.879 393.6 l h
393.598 260.788 m 393.598 260.205 393.531 259.639 393.414 259.092 c 325.16
 338.838 l 393.273 387.842 l 393.48 387.127 393.598 386.377 393.598 385.6
 c h
393.598 260.788 m f
358.395 59.905 m 357.195 59.905 356.059 59.643 355.039 59.17 c 351.133 
59.17 l 346.715 59.17 343.133 55.588 343.133 51.166 c 343.133 46.752 346.711
 43.166 351.133 43.166 c 358.395 43.166 l 362.812 43.166 366.398 46.748 
366.398 51.166 c 366.398 51.905 l 366.395 56.323 362.812 59.905 358.395 
59.905 c h
358.395 59.905 m f
358.395 99.909 m 353.977 99.909 350.395 96.327 350.395 91.909 c 350.395
 83.909 l 350.395 79.491 353.977 75.905 358.395 75.905 c 362.812 75.905 
366.395 79.491 366.395 83.909 c 366.395 91.909 l 366.395 96.327 362.812 
99.909 358.395 99.909 c h
358.395 99.909 m f
319.129 59.17 m 311.129 59.17 l 306.711 59.17 303.129 55.588 303.129 51.166
 c 303.129 46.752 306.707 43.166 311.129 43.166 c 319.129 43.166 l 323.547
 43.166 327.129 46.748 327.129 51.166 c 327.129 55.584 323.547 59.17 319.129
 59.17 c h
319.129 59.17 m f
358.395 219.92 m 353.977 219.92 350.395 216.338 350.395 211.92 c 350.395
 203.92 l 350.395 199.502 353.977 195.916 358.395 195.916 c 362.812 195.916
 366.395 199.498 366.395 203.92 c 366.395 211.92 l 366.395 216.338 362.812
 219.92 358.395 219.92 c h
358.395 219.92 m f
358.395 179.916 m 353.977 179.916 350.395 176.334 350.395 171.916 c 350.395
 163.913 l 350.395 159.498 353.977 155.913 358.395 155.913 c 362.812 155.913
 366.395 159.495 366.395 163.913 c 366.395 171.916 l 366.395 176.334 362.812
 179.916 358.395 179.916 c h
358.395 179.916 m f
358.395 139.913 m 353.977 139.913 350.395 136.33 350.395 131.913 c 350.395
 123.913 l 350.395 119.495 353.977 115.909 358.395 115.909 c 362.812 115.909
 366.395 119.495 366.395 123.913 c 366.395 131.913 l 366.395 136.33 362.812
 139.913 358.395 139.913 c h
358.395 139.913 m f
59.168 366.397 m 51.168 366.397 l 46.75 366.397 43.168 362.815 43.168 358.397
 c 43.168 353.975 46.75 350.393 51.168 350.393 c 59.168 350.393 l 63.586
 350.393 67.168 353.975 67.168 358.397 c 67.168 362.815 63.586 366.397 59.168
 366.397 c h
59.168 366.397 m f
99.172 366.397 m 91.172 366.397 l 86.754 366.397 83.172 362.815 83.172 
358.397 c 83.172 353.975 86.754 350.393 91.172 350.393 c 99.172 350.393 
l 103.59 350.393 107.172 353.975 107.172 358.397 c 107.172 362.815 103.59
 366.397 99.172 366.397 c h
99.172 366.397 m f
51.168 334.393 m 46.75 334.393 43.168 330.811 43.168 326.393 c 43.168 318.393
 l 43.168 313.975 46.75 310.393 51.168 310.393 c 55.586 310.393 59.168 313.975
 59.168 318.393 c 59.168 326.393 l 59.168 330.811 55.586 334.393 51.168 
334.393 c h
51.168 334.393 m f
51.168 294.389 m 46.75 294.389 43.168 290.807 43.168 286.389 c 43.168 278.389
 l 43.168 273.971 46.75 270.389 51.168 270.389 c 55.586 270.389 59.168 273.971
 59.168 278.389 c 59.168 286.389 l 59.168 290.807 55.586 294.389 51.168 
294.389 c h
51.168 294.389 m f
88.484 85.315 m 86.996 86.803 84.93 87.659 82.828 87.659 c 80.715 87.659
 78.656 86.803 77.16 85.315 c 75.672 83.827 74.824 81.764 74.824 79.659 
c 74.824 77.553 75.672 75.491 77.16 74.002 c 78.656 72.514 80.723 71.659
 82.828 71.659 c 84.93 71.659 86.988 72.514 88.484 74.002 c 89.973 75.491
 90.828 77.553 90.828 79.659 c 90.828 81.764 89.973 83.827 88.484 85.315
 c h
88.484 85.315 m f
249.035 76.85 m 206.879 119.006 l 194.781 131.104 175.098 131.104 162.996
 119.006 c 160.25 116.26 l 156.438 112.444 150.227 112.444 146.414 116.26
 c 116.258 146.413 l 114.41 148.26 113.395 150.717 113.395 153.33 c 113.395
 155.944 114.41 158.401 116.262 160.248 c 119.008 162.995 l 131.105 175.096
 131.105 194.78 119.008 206.877 c 76.852 249.034 l 64.754 261.131 45.066
 261.131 32.969 249.034 c 22.883 238.948 l -7.629 208.44 -7.629 158.795 
22.883 128.288 c 50.383 100.788 l 53.504 97.663 58.57 97.663 61.695 100.788
 c 64.82 103.913 64.82 108.979 61.695 112.104 c 34.195 139.604 l 9.926 163.873
 9.926 203.362 34.195 227.635 c 44.281 237.721 l 50.141 243.58 59.676 243.58
 65.535 237.721 c 107.691 195.565 l 113.551 189.705 113.551 180.17 107.691
 174.311 c 104.945 171.565 l 103.934 170.557 103.027 169.475 102.211 168.338
 c 68.914 201.635 l 65.789 204.76 60.723 204.76 57.598 201.635 c 54.473 
198.514 54.473 193.448 57.598 190.323 c 97.566 150.354 l 98.227 144.592 
100.781 139.26 104.945 135.1 c 135.098 104.944 l 145.152 94.893 161.512 
94.893 171.566 104.948 c 174.312 107.694 l 180.172 113.553 189.703 113.553
 195.562 107.694 c 237.719 65.538 l 240.559 62.702 242.121 58.924 242.121
 54.913 c 242.121 50.901 240.559 47.127 237.719 44.288 c 231.992 38.561 
l 193.621 76.928 l 190.5 80.053 185.434 80.053 182.309 76.928 c 179.184 
73.803 179.184 68.737 182.309 65.612 c 220.121 27.799 l 195.801 10.166 161.504
 12.295 139.602 34.202 c 118.883 54.92 l 115.758 58.041 110.691 58.041 107.566
 54.92 c 104.441 51.795 104.441 46.729 107.566 43.604 c 128.285 22.885 l
 143.539 7.627 163.578 -0.002 183.617 -0.002 c 203.656 -0.002 223.691 7.627
 238.949 22.881 c 249.035 32.967 l 254.895 38.83 258.121 46.62 258.121 54.909
 c 258.121 63.198 254.895 70.991 249.035 76.85 c h
249.035 76.85 m f
Q Q
showpage
%%Trailer
end restore
%%EOF
