%!PS-Adobe-3.0 EPSF-3.0
%%Creator: cairo 1.14.2 (http://cairographics.org)
%%CreationDate: Thu Jul 26 08:51:17 2018
%%Pages: 1
%%DocumentData: Clean7Bit
%%LanguageLevel: 2
%%BoundingBox: 16 -1 394 410
%%EndComments
%%BeginProlog
save
50 dict begin
/q { gsave } bind def
/Q { grestore } bind def
/cm { 6 array astore concat } bind def
/w { setlinewidth } bind def
/J { setlinecap } bind def
/j { setlinejoin } bind def
/M { setmiterlimit } bind def
/d { setdash } bind def
/m { moveto } bind def
/l { lineto } bind def
/c { curveto } bind def
/h { closepath } bind def
/re { exch dup neg 3 1 roll 5 3 roll moveto 0 rlineto
      0 exch rlineto 0 rlineto closepath } bind def
/S { stroke } bind def
/f { fill } bind def
/f* { eofill } bind def
/n { newpath } bind def
/W { clip } bind def
/W* { eoclip } bind def
/BT { } bind def
/ET { } bind def
/pdfmark where { pop globaldict /?pdfmark /exec load put }
    { globaldict begin /?pdfmark /pop load def /pdfmark
    /cleartomark load def end } ifelse
/BDC { mark 3 1 roll /BDC pdfmark } bind def
/EMC { mark /EMC pdfmark } bind def
/cairo_store_point { /cairo_point_y exch def /cairo_point_x exch def } def
/Tj { show currentpoint cairo_store_point } bind def
/TJ {
  {
    dup
    type /stringtype eq
    { show } { -0.001 mul 0 cairo_font_matrix dtransform rmoveto } ifelse
  } forall
  currentpoint cairo_store_point
} bind def
/cairo_selectfont { cairo_font_matrix aload pop pop pop 0 0 6 array astore
    cairo_font exch selectfont cairo_point_x cairo_point_y moveto } bind def
/Tf { pop /cairo_font exch def /cairo_font_matrix where
      { pop cairo_selectfont } if } bind def
/Td { matrix translate cairo_font_matrix matrix concatmatrix dup
      /cairo_font_matrix exch def dup 4 get exch 5 get cairo_store_point
      /cairo_font where { pop cairo_selectfont } if } bind def
/Tm { 2 copy 8 2 roll 6 array astore /cairo_font_matrix exch def
      cairo_store_point /cairo_font where { pop cairo_selectfont } if } bind def
/g { setgray } bind def
/rg { setrgbcolor } bind def
/d1 { setcachedevice } bind def
%%EndProlog
%%BeginSetup
%%EndSetup
%%Page: 1 1
%%BeginPageSetup
%%PageBoundingBox: 16 -1 394 410
%%EndPageSetup
q 16 -1 378 411 rectclip q
0 g
358.312 315.182 m 155.73 315.182 l 155.074 315.213 154.418 315.233 153.758
 315.233 c 101.754 315.233 l 78.152 315.233 58.949 296.03 58.949 272.428
 c 58.949 74.807 l 58.949 51.205 78.152 32.002 101.754 32.002 c 119.684 
32.002 l 118.902 23.049 111.371 16.002 102.219 16.002 c 46.25 16.002 l 38.512
 16.002 32.219 22.295 32.219 30.034 c 32.219 100.788 l 32.219 105.205 28.637
 108.788 24.219 108.788 c 19.797 108.788 16.215 105.205 16.215 100.788 c
 16.215 30.034 l 16.215 13.475 29.691 -0.002 46.25 -0.002 c 102.219 -0.002
 l 120.199 -0.002 134.914 14.221 135.719 32.002 c 358.309 32.002 l 377.648
 32.002 393.383 47.737 393.383 67.077 c 393.383 280.112 l 393.383 299.448
 377.652 315.182 358.312 315.182 c h
180.562 74.807 m 180.562 60.03 168.539 48.002 153.758 48.002 c 101.754 
48.002 l 101.754 48.006 l 86.973 48.006 74.949 60.03 74.949 74.807 c 74.949
 272.428 l 74.949 287.209 86.973 299.233 101.754 299.233 c 155.332 299.182
 l 169.383 298.362 180.562 286.678 180.562 272.428 c h
358.312 48.006 m 187.098 48.006 l 193.012 55.346 196.562 64.67 196.562 
74.807 c 196.562 272.428 l 196.562 282.545 193.027 291.846 187.137 299.182
 c 358.312 299.182 l 368.828 299.182 377.383 290.627 377.383 280.112 c 377.383
 67.077 l 377.383 56.561 368.828 48.006 358.312 48.006 c h
358.312 48.006 m f
353.379 283.178 m 220.566 283.178 l 216.145 283.178 212.566 279.596 212.566
 275.178 c 212.566 204.772 l 212.566 200.354 216.145 196.772 220.566 196.772
 c 353.379 196.772 l 357.801 196.772 361.379 200.354 361.379 204.772 c 361.379
 275.178 l 361.379 279.596 357.797 283.178 353.379 283.178 c h
345.379 212.772 m 228.566 212.772 l 228.566 267.178 l 345.379 267.178 l
 h
345.379 212.772 m f
235.766 165.62 m 220.566 165.62 l 216.145 165.62 212.566 162.034 212.566
 157.616 c 212.566 153.198 216.145 149.616 220.566 149.616 c 235.766 149.616
 l 240.188 149.616 243.77 153.198 243.77 157.616 c 243.77 162.034 240.188
 165.62 235.766 165.62 c h
235.766 165.62 m f
294.574 165.62 m 279.371 165.62 l 274.953 165.62 271.371 162.034 271.371
 157.616 c 271.371 153.198 274.953 149.616 279.371 149.616 c 294.574 149.616
 l 298.992 149.616 302.574 153.198 302.574 157.616 c 302.574 162.034 298.992
 165.62 294.574 165.62 c h
294.574 165.62 m f
353.379 165.62 m 338.176 165.62 l 333.758 165.62 330.176 162.034 330.176
 157.616 c 330.176 153.198 333.758 149.616 338.176 149.616 c 353.379 149.616
 l 357.797 149.616 361.379 153.198 361.379 157.616 c 361.379 162.034 357.797
 165.62 353.379 165.62 c h
353.379 165.62 m f
235.766 126.342 m 220.566 126.342 l 216.145 126.342 212.566 122.76 212.566
 118.342 c 212.566 113.924 216.145 110.338 220.566 110.338 c 235.766 110.338
 l 240.188 110.338 243.77 113.924 243.77 118.342 c 243.77 122.76 240.188
 126.342 235.766 126.342 c h
235.766 126.342 m f
294.574 126.342 m 279.371 126.342 l 274.953 126.342 271.371 122.76 271.371
 118.342 c 271.371 113.924 274.953 110.338 279.371 110.338 c 294.574 110.338
 l 298.992 110.338 302.574 113.924 302.574 118.342 c 302.574 122.76 298.992
 126.342 294.574 126.342 c h
294.574 126.342 m f
353.379 126.342 m 338.176 126.342 l 333.758 126.342 330.176 122.76 330.176
 118.342 c 330.176 113.924 333.758 110.338 338.176 110.338 c 353.379 110.338
 l 357.797 110.338 361.379 113.924 361.379 118.342 c 361.379 122.76 357.797
 126.342 353.379 126.342 c h
353.379 126.342 m f
235.766 87.065 m 220.566 87.065 l 216.145 87.065 212.566 83.483 212.566
 79.065 c 212.566 74.647 216.145 71.065 220.566 71.065 c 235.766 71.065 
l 240.188 71.065 243.77 74.647 243.77 79.065 c 243.77 83.483 240.188 87.065
 235.766 87.065 c h
235.766 87.065 m f
294.574 87.065 m 279.371 87.065 l 274.953 87.065 271.371 83.483 271.371
 79.065 c 271.371 74.647 274.953 71.065 279.371 71.065 c 294.574 71.065 
l 298.992 71.065 302.574 74.647 302.574 79.065 c 302.574 83.483 298.992 
87.065 294.574 87.065 c h
294.574 87.065 m f
353.379 87.065 m 338.176 87.065 l 333.758 87.065 330.176 83.483 330.176
 79.065 c 330.176 74.647 333.758 71.065 338.176 71.065 c 353.379 71.065 
l 357.797 71.065 361.379 74.647 361.379 79.065 c 361.379 83.483 357.797 
87.065 353.379 87.065 c h
353.379 87.065 m f
330.879 360.647 m 319.152 372.377 303.559 378.834 286.973 378.834 c 270.387
 378.834 254.793 372.377 243.066 360.647 c 239.941 357.526 239.941 352.459
 243.066 349.334 c 246.188 346.209 251.254 346.209 254.379 349.334 c 263.086
 358.038 274.66 362.834 286.969 362.834 c 299.281 362.834 310.855 358.038
 319.562 349.334 c 321.125 347.772 323.172 346.991 325.223 346.991 c 327.27
 346.991 329.316 347.772 330.879 349.334 c 334.004 352.459 334.004 357.522
 330.879 360.647 c h
330.879 360.647 m f
352.664 382.432 m 316.441 418.655 257.504 418.655 221.281 382.432 c 218.156
 379.311 218.156 374.245 221.281 371.12 c 224.406 367.995 229.473 367.995
 232.598 371.12 c 262.578 401.104 311.367 401.1 341.348 371.12 c 342.91 
369.557 344.961 368.776 347.008 368.776 c 349.055 368.776 351.102 369.557
 352.664 371.12 c 355.789 374.241 355.789 379.307 352.664 382.432 c h
352.664 382.432 m f
309.594 339.362 m 297.121 351.834 276.824 351.834 264.352 339.362 c 261.227
 336.237 261.227 331.17 264.352 328.045 c 267.477 324.924 272.543 324.924
 275.668 328.045 c 281.902 334.28 292.047 334.28 298.281 328.045 c 299.844
 326.487 301.891 325.702 303.938 325.702 c 305.984 325.702 308.035 326.487
 309.594 328.045 c 312.719 331.17 312.719 336.237 309.594 339.362 c h
309.594 339.362 m f
38.516 247.975 m 24.219 247.975 l 19.797 247.975 16.215 244.393 16.215 
239.975 c 16.215 163.588 l 16.215 159.17 19.797 155.588 24.219 155.588 c
 28.637 155.588 32.219 159.17 32.219 163.588 c 32.219 231.975 l 38.516 231.975
 l 42.934 231.975 46.516 235.557 46.516 239.975 c 46.516 244.393 42.934 
247.975 38.516 247.975 c h
38.516 247.975 m f
29.875 137.237 m 28.387 138.725 26.32 139.58 24.219 139.58 c 22.113 139.58
 20.047 138.729 18.559 137.237 c 17.07 135.752 16.215 133.686 16.215 131.58
 c 16.215 129.479 17.07 127.413 18.559 125.924 c 20.047 124.436 22.113 123.58
 24.219 123.58 c 26.32 123.58 28.387 124.436 29.875 125.924 c 31.363 127.413
 32.219 129.475 32.219 131.58 c 32.219 133.686 31.363 135.752 29.875 137.237
 c h
29.875 137.237 m f
257.426 245.635 m 255.938 247.123 253.875 247.979 251.77 247.979 c 249.664
 247.979 247.602 247.123 246.113 245.635 c 244.625 244.147 243.77 242.08
 243.77 239.979 c 243.77 237.866 244.625 235.807 246.113 234.323 c 247.602
 232.83 249.664 231.975 251.77 231.975 c 253.871 231.975 255.938 232.83 
257.426 234.323 c 258.914 235.811 259.77 237.866 259.77 239.979 c 259.77
 242.08 258.914 244.147 257.426 245.635 c h
257.426 245.635 m f
292.629 245.635 m 291.141 247.123 289.078 247.979 286.973 247.979 c 284.867
 247.979 282.805 247.123 281.316 245.635 c 279.828 244.147 278.973 242.08
 278.973 239.979 c 278.973 237.873 279.828 235.807 281.316 234.323 c 282.805
 232.83 284.867 231.975 286.973 231.975 c 289.074 231.975 291.141 232.83
 292.629 234.323 c 294.117 235.811 294.973 237.873 294.973 239.979 c 294.973
 242.08 294.117 244.147 292.629 245.635 c h
292.629 245.635 m f
327.832 245.635 m 326.344 247.123 324.281 247.979 322.176 247.979 c 320.07
 247.979 318.008 247.123 316.52 245.635 c 315.031 244.147 314.176 242.08
 314.176 239.979 c 314.176 237.873 315.031 235.807 316.52 234.323 c 318.008
 232.83 320.07 231.975 322.176 231.975 c 324.281 231.975 326.344 232.83 
327.832 234.323 c 329.32 235.811 330.176 237.873 330.176 239.979 c 330.176
 242.08 329.32 244.147 327.832 245.635 c h
327.832 245.635 m f
153.359 195.487 m 148.938 195.487 145.359 191.905 145.359 187.487 c 145.359
 118.342 l 145.359 113.924 148.938 110.338 153.359 110.338 c 157.777 110.338
 161.359 113.924 161.359 118.342 c 161.359 187.487 l 161.359 191.905 157.777
 195.487 153.359 195.487 c h
153.359 195.487 m f
159.016 227.03 m 157.527 228.518 155.465 229.377 153.359 229.377 c 151.254
 229.377 149.191 228.522 147.703 227.03 c 146.215 225.545 145.359 223.479
 145.359 221.373 c 145.359 219.264 146.215 217.205 147.703 215.717 c 149.191
 214.229 151.254 213.373 153.359 213.373 c 155.461 213.373 157.527 214.229
 159.016 215.717 c 160.504 217.205 161.359 219.264 161.359 221.373 c 161.359
 223.479 160.504 225.545 159.016 227.03 c h
159.016 227.03 m f
Q Q
showpage
%%Trailer
end restore
%%EOF
