%!PS-Adobe-3.0 EPSF-3.0
%%Creator: cairo 1.14.2 (http://cairographics.org)
%%CreationDate: Thu Jul 26 08:51:17 2018
%%Pages: 1
%%DocumentData: Clean7Bit
%%LanguageLevel: 2
%%BoundingBox: 10 -1 399 410
%%EndComments
%%BeginProlog
save
50 dict begin
/q { gsave } bind def
/Q { grestore } bind def
/cm { 6 array astore concat } bind def
/w { setlinewidth } bind def
/J { setlinecap } bind def
/j { setlinejoin } bind def
/M { setmiterlimit } bind def
/d { setdash } bind def
/m { moveto } bind def
/l { lineto } bind def
/c { curveto } bind def
/h { closepath } bind def
/re { exch dup neg 3 1 roll 5 3 roll moveto 0 rlineto
      0 exch rlineto 0 rlineto closepath } bind def
/S { stroke } bind def
/f { fill } bind def
/f* { eofill } bind def
/n { newpath } bind def
/W { clip } bind def
/W* { eoclip } bind def
/BT { } bind def
/ET { } bind def
/pdfmark where { pop globaldict /?pdfmark /exec load put }
    { globaldict begin /?pdfmark /pop load def /pdfmark
    /cleartomark load def end } ifelse
/BDC { mark 3 1 roll /BDC pdfmark } bind def
/EMC { mark /EMC pdfmark } bind def
/cairo_store_point { /cairo_point_y exch def /cairo_point_x exch def } def
/Tj { show currentpoint cairo_store_point } bind def
/TJ {
  {
    dup
    type /stringtype eq
    { show } { -0.001 mul 0 cairo_font_matrix dtransform rmoveto } ifelse
  } forall
  currentpoint cairo_store_point
} bind def
/cairo_selectfont { cairo_font_matrix aload pop pop pop 0 0 6 array astore
    cairo_font exch selectfont cairo_point_x cairo_point_y moveto } bind def
/Tf { pop /cairo_font exch def /cairo_font_matrix where
      { pop cairo_selectfont } if } bind def
/Td { matrix translate cairo_font_matrix matrix concatmatrix dup
      /cairo_font_matrix exch def dup 4 get exch 5 get cairo_store_point
      /cairo_font where { pop cairo_selectfont } if } bind def
/Tm { 2 copy 8 2 roll 6 array astore /cairo_font_matrix exch def
      cairo_store_point /cairo_font where { pop cairo_selectfont } if } bind def
/g { setgray } bind def
/rg { setrgbcolor } bind def
/d1 { setcachedevice } bind def
%%EndProlog
%%BeginSetup
%%EndSetup
%%Page: 1 1
%%BeginPageSetup
%%PageBoundingBox: 10 -1 399 410
%%EndPageSetup
q 10 -1 389 411 rectclip q
0 g
122.684 320.901 m 121.195 322.389 119.133 323.245 117.031 323.245 c 114.926
 323.245 112.863 322.389 111.375 320.901 c 109.891 319.413 109.035 317.35
 109.035 315.248 c 109.035 313.143 109.891 311.08 111.375 309.596 c 112.863
 308.108 114.926 307.252 117.031 307.252 c 119.133 307.252 121.195 308.108
 122.684 309.596 c 124.172 311.08 125.027 313.143 125.027 315.248 c 125.027
 317.358 124.172 319.413 122.684 320.901 c h
122.684 320.901 m f
171.508 13.858 m 170.02 15.346 167.957 16.202 165.855 16.202 c 163.75 16.202
 161.688 15.346 160.199 13.858 c 158.711 12.373 157.855 10.311 157.855 8.205
 c 157.855 6.096 158.711 4.041 160.199 2.553 c 161.688 1.057 163.75 0.209
 165.855 0.209 c 167.957 0.209 170.02 1.057 171.508 2.553 c 172.996 4.041
 173.852 6.104 173.852 8.205 c 173.852 10.311 172.996 12.366 171.508 13.858
 c h
171.508 13.858 m f
221.082 154.58 m 219.594 156.069 217.531 156.924 215.43 156.924 c 213.324
 156.924 211.262 156.073 209.777 154.58 c 208.289 153.096 207.434 151.034
 207.434 148.928 c 207.434 146.827 208.289 144.764 209.777 143.276 c 211.262
 141.791 213.328 140.932 215.43 140.932 c 217.531 140.932 219.594 141.788
 221.082 143.276 c 222.57 144.764 223.426 146.827 223.426 148.928 c 223.426
 151.03 222.57 153.096 221.082 154.58 c h
221.082 154.58 m f
279.773 313.987 m 276.652 317.108 271.59 317.108 268.465 313.987 c 262.438
 307.959 l 257.707 313.1 250.93 316.33 243.41 316.33 c 187.453 316.33 l 
173.191 316.33 161.586 304.729 161.586 290.467 c 161.586 234.506 l 161.586
 220.245 173.191 208.643 187.453 208.643 c 243.41 208.643 l 257.672 208.643
 269.273 220.245 269.273 234.506 c 269.273 290.467 l 269.273 291.022 269.25
 291.573 269.215 292.12 c 279.773 302.678 l 282.895 305.799 282.895 310.866
 279.773 313.987 c h
253.281 234.506 m 253.281 229.061 248.852 224.631 243.41 224.631 c 187.449
 224.631 l 182.008 224.631 177.578 229.061 177.578 234.506 c 177.578 290.463
 l 177.578 295.909 182.008 300.334 187.449 300.334 c 243.41 300.334 l 246.523
 300.334 249.297 298.885 251.105 296.627 c 215.43 260.952 l 203.5 272.881
 l 200.375 276.002 195.312 276.006 192.191 272.881 c 189.066 269.76 189.066
 264.698 192.191 261.573 c 209.773 243.991 l 211.273 242.491 213.309 241.647
 215.43 241.647 c 217.551 241.647 219.586 242.491 221.086 243.991 c 253.281
 276.186 l h
253.281 234.506 m f
397.133 314.655 m 392.328 327.854 377.68 334.686 364.48 329.881 c 321.828
 314.358 l 321.828 381.182 l 321.828 396.854 309.078 409.6 293.41 409.6 
c 137.449 409.6 l 121.781 409.6 109.035 396.854 109.035 381.182 c 109.035
 344.034 l 109.035 339.62 112.613 336.038 117.031 336.038 c 121.445 336.038
 125.027 339.62 125.027 344.034 c 125.027 361.623 l 305.836 361.623 l 305.836
 271.166 l 289.516 266.873 l 275.938 263.358 267.754 249.452 271.27 235.873
 c 272.91 229.541 276.832 224.194 282.348 220.729 c 279.207 215.022 278.371
 208.444 280.012 202.112 c 281.703 195.584 285.797 190.315 291.098 186.979
 c 287.953 181.272 287.113 174.686 288.754 168.35 c 290.457 161.772 294.621
 156.252 300.477 152.807 c 302.188 151.799 303.984 151.018 305.836 150.44
 c 305.836 143.788 l 305.836 136.936 300.262 131.362 293.41 131.362 c 137.449
 131.362 l 130.598 131.362 125.023 136.936 125.023 143.788 c 125.023 166.522
 l 261.805 166.522 l 266.223 166.522 269.801 170.1 269.801 174.514 c 269.801
 178.932 266.223 182.51 261.805 182.51 c 125.027 182.51 l 125.027 215.905
 l 150.555 251.549 l 157.699 261.522 156.586 275.053 147.914 283.725 c 138.184
 293.455 122.355 293.455 112.625 283.725 c 78.418 249.522 l 66.266 237.366
 59.57 221.205 59.57 204.018 c 59.57 118.987 l 11.621 11.248 l 9.828 7.213
 11.641 2.487 15.676 0.694 c 16.734 0.221 17.836 -0.002 18.926 -0.002 c 
21.984 -0.002 24.906 1.768 26.234 4.748 c 74.871 114.034 l 75.328 115.057
 75.562 116.166 75.562 117.288 c 75.562 204.018 l 75.562 216.936 80.594 
229.08 89.727 238.213 c 123.93 272.416 l 127.426 275.913 133.109 275.913
 136.605 272.42 c 139.719 269.303 140.121 264.444 137.555 260.862 c 110.527
 223.127 l 109.516 221.713 109.039 220.084 109.039 218.467 c 109.039 218.471
 109.035 218.471 109.035 218.471 c 109.035 143.788 l 109.035 128.12 121.781
 115.37 137.449 115.37 c 258.57 115.37 l 244.746 107.432 230.59 100.022 
216.246 93.229 c 190.418 80.995 l 188.652 80.159 187.254 78.702 186.484 
76.905 c 171.027 40.694 l 169.297 36.635 171.184 31.936 175.242 30.202 c
 176.266 29.764 177.332 29.557 178.379 29.557 c 181.484 29.557 184.438 31.377
 185.734 34.416 c 200.004 67.838 l 223.09 78.776 l 245.867 89.565 268.191
 101.877 289.492 115.37 c 293.41 115.37 l 309.078 115.37 321.828 128.12 
321.828 143.788 c 321.828 150.651 l 338.148 154.944 l 344.723 156.647 350.242
 160.811 353.691 166.666 c 357.137 172.522 358.094 179.366 356.391 185.94
 c 354.754 192.276 350.828 197.623 345.312 201.088 c 348.453 206.791 349.289
 213.373 347.648 219.705 c 345.957 226.229 341.867 231.502 336.562 234.838
 c 339.707 240.545 340.547 247.131 338.906 253.467 c 337.852 257.541 335.848
 261.209 333.086 264.233 c 381.906 282.002 l 395.105 286.807 401.938 301.455
 397.133 314.655 c h
305.836 377.616 m 125.027 377.616 l 125.027 381.182 l 125.027 388.034 130.602
 393.608 137.449 393.608 c 293.41 393.608 l 300.262 393.608 305.836 388.034
 305.836 381.182 c h
286.75 239.881 m 285.445 244.924 288.484 250.088 293.555 251.397 c 311.918
 256.229 l 312.707 256.436 313.508 256.538 314.301 256.538 c 315.965 256.538
 317.605 256.092 319.074 255.229 c 321.246 253.948 322.793 251.901 323.426
 249.455 c 324.059 247.014 323.699 244.475 322.422 242.299 c 321.145 240.127
 319.094 238.58 316.625 237.944 c 298.262 233.112 l 295.82 232.479 293.277
 232.834 291.102 234.112 c 288.93 235.393 287.383 237.44 286.75 239.881 
c h
295.492 206.123 m 294.859 208.565 295.219 211.104 296.496 213.28 c 297.777
 215.452 299.824 216.998 302.297 217.635 c 320.66 222.467 l 325.703 223.772
 330.863 220.733 332.168 215.694 c 332.801 213.252 332.445 210.713 331.164
 208.538 c 329.887 206.366 327.836 204.819 325.363 204.178 c 307 199.346
 l 301.961 198.041 296.801 201.08 295.492 206.123 c h
336.562 187.702 m 338.734 186.424 340.281 184.373 340.91 181.932 c 341.543
 179.491 341.188 176.948 339.91 174.776 c 338.629 172.6 336.582 171.057 
334.109 170.416 c 315.746 165.584 l 313.305 164.952 310.762 165.307 308.59
 166.588 c 306.414 167.87 304.871 169.916 304.238 172.358 c 303.605 174.799
 303.961 177.342 305.242 179.514 c 306.52 181.69 308.57 183.233 311.039 
183.873 c 329.402 188.705 l 330.195 188.909 330.992 189.01 331.789 189.01
 c 333.453 189.01 335.09 188.569 336.562 187.702 c h
376.438 297.03 m 321.828 277.151 l 321.828 297.338 l 369.949 314.854 l 
374.863 316.643 380.316 314.096 382.105 309.186 c 383.895 304.268 381.352
 298.815 376.438 297.03 c h
376.438 297.03 m f
Q Q
showpage
%%Trailer
end restore
%%EOF
