%!PS-Adobe-3.0 EPSF-3.0
%%Creator: cairo 1.14.2 (http://cairographics.org)
%%CreationDate: Thu Jul 26 08:51:17 2018
%%Pages: 1
%%DocumentData: Clean7Bit
%%LanguageLevel: 2
%%BoundingBox: 0 -1 410 410
%%EndComments
%%BeginProlog
save
50 dict begin
/q { gsave } bind def
/Q { grestore } bind def
/cm { 6 array astore concat } bind def
/w { setlinewidth } bind def
/J { setlinecap } bind def
/j { setlinejoin } bind def
/M { setmiterlimit } bind def
/d { setdash } bind def
/m { moveto } bind def
/l { lineto } bind def
/c { curveto } bind def
/h { closepath } bind def
/re { exch dup neg 3 1 roll 5 3 roll moveto 0 rlineto
      0 exch rlineto 0 rlineto closepath } bind def
/S { stroke } bind def
/f { fill } bind def
/f* { eofill } bind def
/n { newpath } bind def
/W { clip } bind def
/W* { eoclip } bind def
/BT { } bind def
/ET { } bind def
/pdfmark where { pop globaldict /?pdfmark /exec load put }
    { globaldict begin /?pdfmark /pop load def /pdfmark
    /cleartomark load def end } ifelse
/BDC { mark 3 1 roll /BDC pdfmark } bind def
/EMC { mark /EMC pdfmark } bind def
/cairo_store_point { /cairo_point_y exch def /cairo_point_x exch def } def
/Tj { show currentpoint cairo_store_point } bind def
/TJ {
  {
    dup
    type /stringtype eq
    { show } { -0.001 mul 0 cairo_font_matrix dtransform rmoveto } ifelse
  } forall
  currentpoint cairo_store_point
} bind def
/cairo_selectfont { cairo_font_matrix aload pop pop pop 0 0 6 array astore
    cairo_font exch selectfont cairo_point_x cairo_point_y moveto } bind def
/Tf { pop /cairo_font exch def /cairo_font_matrix where
      { pop cairo_selectfont } if } bind def
/Td { matrix translate cairo_font_matrix matrix concatmatrix dup
      /cairo_font_matrix exch def dup 4 get exch 5 get cairo_store_point
      /cairo_font where { pop cairo_selectfont } if } bind def
/Tm { 2 copy 8 2 roll 6 array astore /cairo_font_matrix exch def
      cairo_store_point /cairo_font where { pop cairo_selectfont } if } bind def
/g { setgray } bind def
/rg { setrgbcolor } bind def
/d1 { setcachedevice } bind def
%%EndProlog
%%BeginSetup
%%EndSetup
%%Page: 1 1
%%BeginPageSetup
%%PageBoundingBox: 0 -1 410 410
%%EndPageSetup
q 0 -1 410 411 rectclip q
0 g
354.914 65.503 m 390.227 103.491 409.578 152.659 409.578 204.8 c 409.578
 259.503 388.277 310.933 349.598 349.616 c 310.914 388.296 259.484 409.601
 204.781 409.601 c 150.074 409.601 98.645 388.296 59.965 349.616 c 56.84
 346.491 56.84 341.429 59.965 338.304 c 63.09 335.179 68.152 335.179 71.277
 338.304 c 106.938 373.964 154.348 393.601 204.781 393.601 c 255.211 393.601
 302.621 373.964 338.281 338.304 c 411.895 264.691 411.895 144.913 338.281
 71.3 c 335.254 68.273 335.148 63.398 338.039 60.241 c 338.805 59.402 l 
305.18 59.402 l 305.18 92.671 l 312.438 85.835 l 315.586 82.87 320.52 82.945
 323.578 86.003 c 355.312 117.734 372.789 159.925 372.789 204.8 c 372.789
 249.679 355.312 291.866 323.578 323.601 c 295.125 352.054 257.387 369.363
 217.309 372.343 c 177.66 375.292 138.195 364.116 106.195 340.87 c 102.621
 338.277 101.828 333.273 104.422 329.698 c 107.02 326.124 112.023 325.331
 115.598 327.925 c 176.359 372.058 259.07 365.48 312.266 312.284 c 340.977
 283.573 356.789 245.402 356.789 204.8 c 356.789 166.796 342.934 130.917
 317.617 102.941 c 302.664 117.023 l 300.344 119.21 296.941 119.808 294.008
 118.546 c 291.078 117.28 289.18 114.394 289.18 111.198 c 289.18 51.402 
l 289.18 46.984 292.762 43.402 297.18 43.402 c 356.98 43.402 l 360.152 43.402
 363.023 45.277 364.301 48.179 c 365.578 51.081 365.02 54.464 362.879 56.804
 c h
354.914 65.503 m f
97.32 323.675 m 94.191 326.777 89.129 326.749 86.016 323.632 c 85.996 323.616
 85.949 323.566 85.934 323.55 c 82.844 320.409 82.895 315.378 86.023 312.277
 c 87.578 310.738 89.609 309.968 91.645 309.968 c 93.703 309.968 95.762 
310.753 97.328 312.32 c 97.344 312.335 97.395 312.386 97.41 312.402 c 100.496
 315.546 100.449 320.573 97.32 323.675 c h
97.32 323.675 m f
255.316 75.831 m 213.867 117.284 l 201.918 129.234 182.477 129.234 170.527
 117.284 c 161.074 107.831 l 159.281 106.042 156.898 105.054 154.367 105.054
 c 151.832 105.054 149.449 106.038 147.656 107.831 c 107.816 147.671 l 104.117
 151.37 104.117 157.39 107.816 161.089 c 117.27 170.542 l 129.219 182.491
 129.219 201.933 117.27 213.882 c 75.816 255.335 l 70.031 261.12 62.336 
264.308 54.148 264.308 c 45.965 264.308 38.27 261.124 32.48 255.335 c 22.559
 245.417 l -7.492 215.363 -7.492 166.464 22.559 136.409 c 62.672 96.296 
l 65.797 93.175 70.863 93.175 73.988 96.296 c 77.113 99.421 77.113 104.488
 73.988 107.613 c 33.875 147.726 l 10.059 171.538 10.059 210.288 33.875 
234.105 c 43.793 244.023 l 46.559 246.788 50.234 248.312 54.148 248.312 
c 58.059 248.312 61.738 246.788 64.504 244.023 c 105.957 202.57 l 111.664
 196.859 111.664 187.57 105.957 181.859 c 96.605 172.511 l 64.648 204.468
 l 61.523 207.589 56.461 207.589 53.336 204.468 c 50.211 201.343 50.211 
196.277 53.336 193.152 c 88.762 157.722 l 88.91 157.577 89.066 157.441 89.223
 157.308 c 88.367 149.843 90.789 142.073 96.5 136.359 c 136.34 96.519 l 
141.156 91.706 147.555 89.054 154.363 89.054 c 161.172 89.054 167.574 91.706
 172.387 96.519 c 181.84 105.972 l 187.551 111.683 196.84 111.683 202.551
 105.972 c 244.004 64.519 l 246.77 61.753 248.293 58.077 248.293 54.163 
c 248.293 50.253 246.77 46.573 244.004 43.808 c 234.656 34.46 l 199.918 
69.198 l 196.793 72.323 191.727 72.323 188.605 69.198 c 185.48 66.073 185.48
 61.011 188.605 57.886 c 221.996 24.491 l 212.68 18.956 202.016 15.999 190.898
 15.999 c 174.582 15.999 159.246 22.355 147.707 33.89 c 117.191 64.409 l
 114.066 67.534 109 67.534 105.875 64.409 c 102.75 61.284 102.75 56.222 
105.875 53.097 c 136.395 22.577 l 150.953 8.019 170.309 -0.001 190.898 -0.001
 c 211.484 -0.001 230.84 8.019 245.398 22.577 c 255.316 32.495 l 261.105
 38.28 264.293 45.976 264.293 54.163 c 264.293 62.347 261.105 70.042 255.316
 75.831 c h
255.316 75.831 m f
97.652 83.952 m 96.164 85.441 94.102 86.288 91.996 86.288 c 89.883 86.288
 87.82 85.441 86.332 83.952 c 84.844 82.456 83.996 80.394 83.996 78.288 
c 83.996 76.187 84.844 74.128 86.332 72.632 c 87.828 71.144 89.883 70.296
 91.996 70.296 c 94.102 70.296 96.164 71.144 97.652 72.632 c 99.141 74.12
 99.996 76.187 99.996 78.288 c 99.996 80.402 99.141 82.456 97.652 83.952
 c h
97.652 83.952 m f
266.039 212.8 m 230.777 212.8 l 228.133 221.374 221.355 228.155 212.777
 230.8 c 212.777 307.202 l 212.777 311.62 209.199 315.202 204.777 315.202
 c 200.359 315.202 196.777 311.62 196.777 307.202 c 196.777 230.8 l 185.672
 227.374 177.578 217.015 177.578 204.8 c 177.578 189.804 189.781 177.601
 204.777 177.601 c 216.996 177.601 227.352 185.695 230.777 196.8 c 266.039
 196.8 l 270.457 196.8 274.039 200.382 274.039 204.8 c 274.039 209.218 270.457
 212.8 266.039 212.8 c h
204.781 193.601 m 198.605 193.601 193.578 198.624 193.578 204.8 c 193.578
 210.976 198.605 215.999 204.781 215.999 c 210.957 215.999 215.98 210.976
 215.98 204.8 c 215.98 198.624 210.957 193.601 204.781 193.601 c h
204.781 193.601 m f
Q Q
showpage
%%Trailer
end restore
%%EOF
