%!PS-Adobe-3.0 EPSF-3.0
%%Creator: cairo 1.14.2 (http://cairographics.org)
%%CreationDate: Thu Jul 26 08:51:17 2018
%%Pages: 1
%%DocumentData: Clean7Bit
%%LanguageLevel: 2
%%BoundingBox: 0 -1 410 410
%%EndComments
%%BeginProlog
save
50 dict begin
/q { gsave } bind def
/Q { grestore } bind def
/cm { 6 array astore concat } bind def
/w { setlinewidth } bind def
/J { setlinecap } bind def
/j { setlinejoin } bind def
/M { setmiterlimit } bind def
/d { setdash } bind def
/m { moveto } bind def
/l { lineto } bind def
/c { curveto } bind def
/h { closepath } bind def
/re { exch dup neg 3 1 roll 5 3 roll moveto 0 rlineto
      0 exch rlineto 0 rlineto closepath } bind def
/S { stroke } bind def
/f { fill } bind def
/f* { eofill } bind def
/n { newpath } bind def
/W { clip } bind def
/W* { eoclip } bind def
/BT { } bind def
/ET { } bind def
/pdfmark where { pop globaldict /?pdfmark /exec load put }
    { globaldict begin /?pdfmark /pop load def /pdfmark
    /cleartomark load def end } ifelse
/BDC { mark 3 1 roll /BDC pdfmark } bind def
/EMC { mark /EMC pdfmark } bind def
/cairo_store_point { /cairo_point_y exch def /cairo_point_x exch def } def
/Tj { show currentpoint cairo_store_point } bind def
/TJ {
  {
    dup
    type /stringtype eq
    { show } { -0.001 mul 0 cairo_font_matrix dtransform rmoveto } ifelse
  } forall
  currentpoint cairo_store_point
} bind def
/cairo_selectfont { cairo_font_matrix aload pop pop pop 0 0 6 array astore
    cairo_font exch selectfont cairo_point_x cairo_point_y moveto } bind def
/Tf { pop /cairo_font exch def /cairo_font_matrix where
      { pop cairo_selectfont } if } bind def
/Td { matrix translate cairo_font_matrix matrix concatmatrix dup
      /cairo_font_matrix exch def dup 4 get exch 5 get cairo_store_point
      /cairo_font where { pop cairo_selectfont } if } bind def
/Tm { 2 copy 8 2 roll 6 array astore /cairo_font_matrix exch def
      cairo_store_point /cairo_font where { pop cairo_selectfont } if } bind def
/g { setgray } bind def
/rg { setrgbcolor } bind def
/d1 { setcachedevice } bind def
%%EndProlog
%%BeginSetup
%%EndSetup
%%Page: 1 1
%%BeginPageSetup
%%PageBoundingBox: 0 -1 410 410
%%EndPageSetup
q 0 -1 410 411 rectclip q
0 g
129.465 165.589 m 127.977 167.073 125.91 167.925 123.809 167.925 c 121.703
 167.925 119.641 167.073 118.152 165.589 c 116.664 164.093 115.809 162.034
 115.809 159.925 c 115.809 157.82 116.664 155.765 118.152 154.269 c 119.641
 152.78 121.703 151.925 123.809 151.925 c 125.91 151.925 127.977 152.78 
129.465 154.269 c 130.953 155.765 131.809 157.82 131.809 159.925 c 131.809
 162.034 130.953 164.093 129.465 165.589 c h
129.465 165.589 m f
376.586 66.042 m 365.77 66.042 355.602 70.253 347.953 77.902 c 347.551 
78.3 l 355.176 85.925 l 362.414 93.163 366.398 102.788 366.398 113.023 c
 366.398 123.257 362.414 132.882 355.176 140.12 c 299.672 195.624 l 292.434
 202.863 282.809 206.847 272.574 206.847 c 262.34 206.847 252.715 202.863
 245.477 195.624 c 232.82 182.964 l 229.906 180.054 226.035 178.448 221.918
 178.448 c 217.801 178.448 213.93 180.054 211.02 182.968 c 139.754 254.23
 l 133.742 260.241 133.742 270.019 139.754 276.03 c 152.41 288.691 l 159.648
 295.925 163.637 305.55 163.637 315.784 c 163.637 326.023 159.648 335.644
 152.41 342.882 c 96.906 398.386 l 81.965 413.327 57.656 413.327 42.711 
398.386 c 29.434 385.109 l 10.453 366.124 0 340.89 0 314.046 c 0 287.202
 10.453 261.968 29.434 242.988 c 96.469 175.948 l 99.594 172.827 104.66 
172.823 107.785 175.948 c 110.91 179.073 110.91 184.14 107.785 187.265 c
 40.746 254.3 l 24.789 270.261 16 291.476 16 314.046 c 16 334.132 22.965
 353.144 35.75 368.335 c 94.598 309.488 l 96.16 307.925 98.207 307.144 100.254
 307.144 c 102.301 307.144 104.352 307.925 105.91 309.488 c 109.035 312.609
 109.035 317.675 105.91 320.8 c 46.832 379.878 l 54.027 387.073 l 62.73 
395.777 76.891 395.777 85.594 387.073 c 141.098 331.57 l 145.316 327.355
 147.637 321.749 147.637 315.788 c 147.637 309.823 145.316 304.218 141.098
 300.003 c 128.441 287.347 l 122.508 281.413 119.238 273.523 119.238 265.132
 c 119.238 256.738 122.508 248.847 128.441 242.913 c 199.707 171.652 l 205.641
 165.718 213.527 162.448 221.922 162.448 c 227.477 162.448 232.809 163.89
 237.504 166.581 c 296.227 107.859 l 297.789 106.296 299.836 105.515 301.883
 105.515 c 303.93 105.515 305.977 106.296 307.539 107.859 c 310.664 110.984
 310.664 116.05 307.539 119.175 c 249.598 177.116 l 256.793 184.308 l 261.008
 188.527 266.613 190.847 272.578 190.847 c 278.539 190.847 284.145 188.527
 288.359 184.308 c 343.863 128.804 l 348.078 124.589 350.402 118.984 350.402
 113.023 c 350.402 107.062 348.078 101.456 343.863 97.238 c 330.582 83.956
 l 330.582 83.956 330.582 83.956 330.578 83.956 c 297.633 51.015 244.031
 51.015 211.09 83.956 c 152.719 142.327 l 149.598 145.452 144.531 145.452
 141.406 142.327 c 138.281 139.206 138.281 134.14 141.406 131.015 c 199.777
 72.644 l 219.367 53.054 245.102 43.257 270.836 43.257 c 294.07 43.257 317.301
 51.241 336.016 67.21 c 336.641 66.585 l 347.312 55.917 361.496 50.038 376.586
 50.038 c 385.969 50.038 393.602 42.405 393.602 33.023 c 393.602 23.64 385.969
 16.007 376.586 16.007 c 89.602 16.007 l 85.18 16.007 81.602 12.425 81.602
 8.007 c 81.602 3.593 85.18 0.007 89.602 0.007 c 376.586 0.007 l 394.789
 0.007 409.602 14.82 409.602 33.023 c 409.602 51.23 394.789 66.042 376.586
 66.042 c h
376.586 66.042 m f
56.855 13.667 m 55.367 15.155 53.305 16.011 51.199 16.011 c 49.098 16.011
 47.031 15.155 45.543 13.667 c 44.055 12.179 43.199 10.116 43.199 8.011 
c 43.199 5.905 44.055 3.843 45.543 2.355 c 47.031 0.866 49.098 0.011 51.199
 0.011 c 53.305 0.011 55.367 0.866 56.855 2.355 c 58.344 3.843 59.199 5.905
 59.199 8.011 c 59.199 10.116 58.344 12.179 56.855 13.667 c h
56.855 13.667 m f
406.031 331.073 m 354.898 365.073 l 352.441 366.706 349.289 366.855 346.688
 365.46 c 344.09 364.07 342.469 361.359 342.469 358.409 c 342.469 351.613
 l 204.801 351.613 l 200.383 351.613 196.801 348.03 196.801 343.613 c 196.801
 339.195 200.383 335.613 204.801 335.613 c 350.465 335.613 l 354.844 335.613
 358.398 339.124 358.465 343.488 c 387.152 324.409 l 358.465 305.335 l 358.398
 309.698 354.844 313.21 350.465 313.21 c 204.801 313.21 l 200.383 313.21
 196.801 309.628 196.801 305.21 c 196.801 300.792 200.383 297.21 204.801
 297.21 c 342.465 297.21 l 342.465 290.409 l 342.465 287.464 344.09 284.753
 346.688 283.363 c 347.871 282.726 349.172 282.409 350.465 282.409 c 352.016
 282.409 353.559 282.863 354.898 283.749 c 406.031 317.749 l 408.262 319.234
 409.602 321.734 409.602 324.409 c 409.602 327.089 408.262 329.589 406.031
 331.073 c h
406.031 331.073 m f
Q Q
showpage
%%Trailer
end restore
%%EOF
