%!PS-Adobe-3.0 EPSF-3.0
%%Creator: cairo 1.14.2 (http://cairographics.org)
%%CreationDate: Thu Jul 26 08:51:17 2018
%%Pages: 1
%%DocumentData: Clean7Bit
%%LanguageLevel: 2
%%BoundingBox: 0 -1 410 410
%%EndComments
%%BeginProlog
save
50 dict begin
/q { gsave } bind def
/Q { grestore } bind def
/cm { 6 array astore concat } bind def
/w { setlinewidth } bind def
/J { setlinecap } bind def
/j { setlinejoin } bind def
/M { setmiterlimit } bind def
/d { setdash } bind def
/m { moveto } bind def
/l { lineto } bind def
/c { curveto } bind def
/h { closepath } bind def
/re { exch dup neg 3 1 roll 5 3 roll moveto 0 rlineto
      0 exch rlineto 0 rlineto closepath } bind def
/S { stroke } bind def
/f { fill } bind def
/f* { eofill } bind def
/n { newpath } bind def
/W { clip } bind def
/W* { eoclip } bind def
/BT { } bind def
/ET { } bind def
/pdfmark where { pop globaldict /?pdfmark /exec load put }
    { globaldict begin /?pdfmark /pop load def /pdfmark
    /cleartomark load def end } ifelse
/BDC { mark 3 1 roll /BDC pdfmark } bind def
/EMC { mark /EMC pdfmark } bind def
/cairo_store_point { /cairo_point_y exch def /cairo_point_x exch def } def
/Tj { show currentpoint cairo_store_point } bind def
/TJ {
  {
    dup
    type /stringtype eq
    { show } { -0.001 mul 0 cairo_font_matrix dtransform rmoveto } ifelse
  } forall
  currentpoint cairo_store_point
} bind def
/cairo_selectfont { cairo_font_matrix aload pop pop pop 0 0 6 array astore
    cairo_font exch selectfont cairo_point_x cairo_point_y moveto } bind def
/Tf { pop /cairo_font exch def /cairo_font_matrix where
      { pop cairo_selectfont } if } bind def
/Td { matrix translate cairo_font_matrix matrix concatmatrix dup
      /cairo_font_matrix exch def dup 4 get exch 5 get cairo_store_point
      /cairo_font where { pop cairo_selectfont } if } bind def
/Tm { 2 copy 8 2 roll 6 array astore /cairo_font_matrix exch def
      cairo_store_point /cairo_font where { pop cairo_selectfont } if } bind def
/g { setgray } bind def
/rg { setrgbcolor } bind def
/d1 { setcachedevice } bind def
%%EndProlog
%%BeginSetup
%%EndSetup
%%Page: 1 1
%%BeginPageSetup
%%PageBoundingBox: 0 -1 410 410
%%EndPageSetup
q 0 -1 410 411 rectclip q
0 g
90.133 60.799 m 65.602 60.799 l 61.184 60.799 57.602 57.217 57.602 52.799
 c 57.602 48.381 61.184 44.799 65.602 44.799 c 90.133 44.799 l 94.551 44.799
 98.133 48.381 98.133 52.799 c 98.133 57.217 94.551 60.799 90.133 60.799
 c h
90.133 60.799 m f
124.473 58.455 m 122.984 59.944 120.918 60.799 118.816 60.799 c 116.703
 60.799 114.648 59.944 113.16 58.455 c 111.672 56.967 110.816 54.905 110.816
 52.799 c 110.816 50.698 111.672 48.631 113.16 47.143 c 114.648 45.659 116.703
 44.799 118.816 44.799 c 120.922 44.799 122.984 45.655 124.473 47.143 c 
125.961 48.631 126.816 50.698 126.816 52.799 c 126.816 54.905 125.961 56.967
 124.473 58.455 c h
124.473 58.455 m f
155.273 261.6 m 153.785 263.088 151.727 263.944 149.617 263.944 c 147.512
 263.944 145.449 263.088 143.961 261.6 c 142.473 260.112 141.617 258.049
 141.617 255.944 c 141.617 253.838 142.473 251.776 143.961 250.288 c 145.457
 248.799 147.512 247.944 149.617 247.944 c 151.73 247.944 153.785 248.799
 155.273 250.288 c 156.77 251.776 157.625 253.838 157.625 255.944 c 157.625
 258.049 156.77 260.112 155.273 261.6 c h
155.273 261.6 m f
218.121 261.6 m 216.633 263.088 214.566 263.944 212.465 263.944 c 210.359
 263.944 208.297 263.088 206.809 261.6 c 205.32 260.112 204.465 258.049 
204.465 255.944 c 204.465 253.838 205.32 251.776 206.809 250.288 c 208.297
 248.799 210.359 247.944 212.465 247.944 c 214.566 247.944 216.633 248.799
 218.121 250.288 c 219.605 251.776 220.465 253.838 220.465 255.944 c 220.465
 258.049 219.609 260.112 218.121 261.6 c h
218.121 261.6 m f
373.199 153.6 m 209.199 153.6 l 189.129 153.6 172.801 137.272 172.801 117.202
 c 172.801 15.998 l 16 15.998 l 16 87.639 l 16 113.983 33.676 137.479 58.988
 144.784 c 122.043 162.971 l 112.992 122.549 l 112.281 119.37 113.566 116.08
 116.242 114.225 c 117.609 113.276 119.203 112.799 120.801 112.799 c 122.32
 112.799 123.844 113.233 125.176 114.104 c 149.883 130.245 l 153.582 132.663
 154.621 137.62 152.203 141.319 c 149.789 145.018 144.832 146.057 141.129
 143.639 c 132.906 138.268 l 140.27 171.139 l 152.953 164.416 166.996 161.053
 181.043 161.053 c 195.898 161.053 210.754 164.811 223.996 172.33 c 241.375
 182.174 254.406 197.748 261.262 215.901 c 276.207 215.901 l 291.082 215.901
 303.18 227.998 303.18 242.87 c 303.18 277.166 l 303.18 285.061 299.773 
292.174 294.352 297.112 c 293.824 359.229 243.176 409.6 180.98 409.6 c 118.895
 409.6 68.312 359.401 67.617 297.428 c 61.984 292.483 58.418 285.237 58.418
 277.166 c 58.418 242.87 l 58.418 227.998 70.52 215.897 85.391 215.897 c
 100.82 215.897 l 105.961 202.288 114.582 190.131 125.914 180.741 c 54.555
 160.155 l 38.703 155.58 25.078 146.198 15.16 133.01 c 5.242 119.827 0 104.139
 0 87.639 c 0 7.998 l 0 3.58 3.582 -0.002 8 -0.002 c 401.602 -0.002 l 406.02
 -0.002 409.602 3.58 409.602 7.998 c 409.602 117.202 l 409.602 137.272 393.27
 153.6 373.199 153.6 c h
287.184 277.166 m 287.184 242.87 l 287.184 236.819 282.262 231.897 276.211
 231.897 c 265.566 231.897 l 266.305 236.381 266.691 240.952 266.691 245.573
 c 266.691 288.139 l 276.211 288.139 l 282.262 288.139 287.184 283.217 287.184
 277.166 c h
85.391 231.897 m 79.34 231.897 74.418 236.823 74.418 242.87 c 74.418 277.17
 l 74.418 283.221 79.34 288.139 85.391 288.139 c 95.398 288.139 l 95.395
 288.092 95.391 288.049 95.391 287.998 c 95.391 245.573 l 95.391 240.952
 95.777 236.381 96.516 231.897 c h
95.711 304.139 m 85.391 304.139 l 84.898 304.139 84.41 304.127 83.926 304.1
 c 87.988 354.131 129.965 393.6 180.98 393.6 c 232.008 393.6 273.988 354.116
 278.039 304.073 c 277.434 304.112 276.828 304.139 276.211 304.139 c 266.453
 304.139 l 266.367 304.487 266.262 304.827 266.133 305.155 c 262.043 348.577
 225.41 382.666 180.969 382.666 c 136.18 382.666 99.324 348.045 95.711 304.139
 c h
111.414 297.053 m 111.414 335.436 142.617 366.666 180.969 366.666 c 211.348
 366.666 237.234 347.069 246.688 319.842 c 227.34 306.506 l 217.371 299.635
 205.699 295.998 193.586 295.998 c 111.34 295.998 l 111.383 296.346 111.414
 296.694 111.414 297.053 c h
111.391 245.573 m 111.391 279.998 l 193.586 279.998 l 208.957 279.998 223.77
 284.612 236.422 293.334 c 250.273 302.881 l 250.434 300.959 250.52 299.014
 250.52 297.053 c 250.52 296.487 250.578 295.936 250.691 295.405 c 250.691
 245.573 l 250.691 235.178 248.301 225.112 243.934 216.034 c 211.664 216.034
 l 208.93 224.78 200.758 231.143 191.125 231.143 c 180.902 231.143 l 169.043
 231.143 159.391 221.495 159.391 209.631 c 159.391 197.772 169.043 188.12
 180.902 188.12 c 191.125 188.12 l 199.539 188.12 206.836 192.979 210.367
 200.034 c 233.227 200.034 l 228.367 194.616 222.617 189.932 216.105 186.248
 c 194.504 173.987 167.66 173.971 145.992 186.241 c 145.973 186.252 l 124.641
 198.33 111.391 221.061 111.391 245.573 c h
196.637 209.631 m 196.637 206.592 194.164 204.123 191.125 204.123 c 180.902
 204.123 l 177.863 204.123 175.391 206.592 175.391 209.631 c 175.391 212.67
 177.863 215.143 180.902 215.143 c 191.125 215.143 l 194.164 215.143 196.637
 212.67 196.637 209.631 c h
393.602 15.998 m 374.398 15.998 l 374.398 50.932 l 374.398 55.35 370.816
 58.932 366.398 58.932 c 361.98 58.932 358.398 55.35 358.398 50.932 c 358.398
 15.998 l 188.801 15.998 l 188.801 117.202 l 188.801 128.448 197.953 137.6
 209.199 137.6 c 373.199 137.6 l 384.449 137.6 393.602 128.448 393.602 117.202
 c h
393.602 15.998 m f
291.199 103.6 m 276.422 103.6 264.398 91.577 264.398 76.799 c 264.398 62.022
 276.422 49.998 291.199 49.998 c 305.977 49.998 318 62.022 318 76.799 c 
318 91.577 305.977 103.6 291.199 103.6 c h
291.199 65.998 m 285.246 65.998 280.398 70.846 280.398 76.799 c 280.398
 82.756 285.246 87.6 291.199 87.6 c 297.156 87.6 302 82.756 302 76.799 c
 302 70.846 297.156 65.998 291.199 65.998 c h
291.199 65.998 m f
407.258 234.311 m 394.594 246.975 377.762 253.948 359.852 253.948 c 341.945
 253.948 325.109 246.975 312.449 234.311 c 309.324 231.19 309.324 226.123
 312.449 222.998 c 314.012 221.436 316.059 220.655 318.105 220.655 c 320.156
 220.655 322.203 221.436 323.766 222.998 c 333.402 232.639 346.219 237.948
 359.852 237.948 c 373.484 237.948 386.305 232.639 395.941 222.998 c 399.066
 219.873 404.133 219.873 407.258 222.998 c 410.379 226.123 410.379 231.186
 407.258 234.311 c h
407.258 234.311 m f
384.766 211.819 m 371.027 225.553 348.68 225.553 334.941 211.819 c 331.82
 208.694 331.82 203.631 334.941 200.506 c 338.066 197.381 343.133 197.381
 346.258 200.506 c 353.754 208.002 365.953 208.002 373.449 200.506 c 375.012
 198.944 377.059 198.163 379.105 198.163 c 381.156 198.163 383.203 198.944
 384.766 200.506 c 387.887 203.631 387.887 208.694 384.766 211.819 c h
384.766 211.819 m f
365.512 190.721 m 364.023 192.217 361.961 193.065 359.855 193.065 c 357.742
 193.065 355.688 192.217 354.199 190.721 c 352.703 189.233 351.855 187.174
 351.855 185.065 c 351.855 182.959 352.703 180.905 354.199 179.409 c 355.688
 177.92 357.742 177.065 359.855 177.065 c 361.961 177.065 364.023 177.92
 365.512 179.409 c 367 180.905 367.855 182.959 367.855 185.065 c 367.855
 187.174 367 189.233 365.512 190.721 c h
365.512 190.721 m f
372.055 87.256 m 370.566 88.745 368.504 89.6 366.398 89.6 c 364.297 89.6
 362.23 88.745 360.742 87.256 c 359.258 85.768 358.398 83.705 358.398 81.6
 c 358.398 79.495 359.254 77.432 360.742 75.944 c 362.23 74.455 364.297 
73.6 366.398 73.6 c 368.504 73.6 370.566 74.455 372.055 75.944 c 373.543
 77.432 374.398 79.495 374.398 81.6 c 374.398 83.705 373.543 85.768 372.055
 87.256 c h
372.055 87.256 m f
Q Q
showpage
%%Trailer
end restore
%%EOF
