%!PS-Adobe-3.0 EPSF-3.0
%%Creator: cairo 1.14.2 (http://cairographics.org)
%%CreationDate: Thu Jul 26 08:51:17 2018
%%Pages: 1
%%DocumentData: Clean7Bit
%%LanguageLevel: 2
%%BoundingBox: 21 -1 389 410
%%EndComments
%%BeginProlog
save
50 dict begin
/q { gsave } bind def
/Q { grestore } bind def
/cm { 6 array astore concat } bind def
/w { setlinewidth } bind def
/J { setlinecap } bind def
/j { setlinejoin } bind def
/M { setmiterlimit } bind def
/d { setdash } bind def
/m { moveto } bind def
/l { lineto } bind def
/c { curveto } bind def
/h { closepath } bind def
/re { exch dup neg 3 1 roll 5 3 roll moveto 0 rlineto
      0 exch rlineto 0 rlineto closepath } bind def
/S { stroke } bind def
/f { fill } bind def
/f* { eofill } bind def
/n { newpath } bind def
/W { clip } bind def
/W* { eoclip } bind def
/BT { } bind def
/ET { } bind def
/pdfmark where { pop globaldict /?pdfmark /exec load put }
    { globaldict begin /?pdfmark /pop load def /pdfmark
    /cleartomark load def end } ifelse
/BDC { mark 3 1 roll /BDC pdfmark } bind def
/EMC { mark /EMC pdfmark } bind def
/cairo_store_point { /cairo_point_y exch def /cairo_point_x exch def } def
/Tj { show currentpoint cairo_store_point } bind def
/TJ {
  {
    dup
    type /stringtype eq
    { show } { -0.001 mul 0 cairo_font_matrix dtransform rmoveto } ifelse
  } forall
  currentpoint cairo_store_point
} bind def
/cairo_selectfont { cairo_font_matrix aload pop pop pop 0 0 6 array astore
    cairo_font exch selectfont cairo_point_x cairo_point_y moveto } bind def
/Tf { pop /cairo_font exch def /cairo_font_matrix where
      { pop cairo_selectfont } if } bind def
/Td { matrix translate cairo_font_matrix matrix concatmatrix dup
      /cairo_font_matrix exch def dup 4 get exch 5 get cairo_store_point
      /cairo_font where { pop cairo_selectfont } if } bind def
/Tm { 2 copy 8 2 roll 6 array astore /cairo_font_matrix exch def
      cairo_store_point /cairo_font where { pop cairo_selectfont } if } bind def
/g { setgray } bind def
/rg { setrgbcolor } bind def
/d1 { setcachedevice } bind def
%%EndProlog
%%BeginSetup
%%EndSetup
%%Page: 1 1
%%BeginPageSetup
%%PageBoundingBox: 21 -1 389 410
%%EndPageSetup
q 21 -1 368 411 rectclip q
0 g
313.293 306.684 m 180.633 306.684 l 176.215 306.684 172.633 303.102 172.633
 298.684 c 172.633 294.266 176.215 290.68 180.633 290.68 c 313.293 290.68
 l 345.676 290.68 372.02 264.336 372.02 231.957 c 372.02 218.406 l 372.02
 210.758 365.797 204.535 358.145 204.535 c 301.52 204.535 l 293.871 204.535
 287.648 210.758 287.648 218.406 c 287.648 222.016 l 287.648 222.52 287.629
 223.02 287.609 223.52 c 342.414 223.52 l 346.832 223.52 350.414 227.102
 350.414 231.52 c 350.414 235.938 346.832 239.52 342.414 239.52 c 282.832
 239.52 l 276.875 249.527 265.977 256.266 253.527 256.34 c 253.492 256.34
 253.457 256.344 253.422 256.344 c 253.402 256.344 253.387 256.344 253.371
 256.344 c 253.352 256.344 253.336 256.344 253.316 256.344 c 156.281 256.344
 l 156.266 256.344 156.246 256.344 156.23 256.344 c 156.211 256.344 156.195
 256.344 156.18 256.344 c 156.141 256.344 156.109 256.34 156.074 256.34 
c 137.238 256.227 121.953 240.875 121.953 222.012 c 121.953 218.406 l 121.953
 210.758 115.73 204.535 108.078 204.535 c 51.453 204.535 l 43.805 204.535
 37.578 210.758 37.578 218.406 c 37.578 223.52 l 95.547 223.52 l 99.965 
223.52 103.547 227.102 103.547 231.52 c 103.547 235.938 99.965 239.52 95.547
 239.52 c 38.086 239.52 l 41.809 268.34 66.488 290.68 96.305 290.68 c 117.055
 290.68 l 121.473 290.68 125.059 294.266 125.059 298.68 c 125.059 303.098
 121.473 306.684 117.055 306.684 c 96.305 306.684 l 55.102 306.684 21.578
 273.16 21.578 231.957 c 21.578 218.406 l 21.578 201.934 34.98 188.531 51.453
 188.531 c 108.078 188.531 l 113.086 188.531 117.805 189.777 121.957 191.965
 c 121.957 183.781 l 74.938 160.387 l 55.352 150.637 43.184 130.992 43.184
 109.109 c 43.184 8 l 43.184 3.582 46.766 0 51.184 0 c 269.352 0 l 273.77
 0 277.352 3.582 277.352 8 c 277.352 12.418 273.77 16 269.352 16 c 59.184
 16 l 59.184 109.113 l 59.184 124.879 67.953 139.035 82.066 146.059 c 133.523
 171.664 l 136.238 173.016 137.957 175.789 137.957 178.828 c 137.957 222.125
 l 137.957 222.133 137.957 222.141 137.957 222.148 c 138.031 232.176 146.191
 240.313 156.23 240.344 c 166.25 240.313 174.398 232.152 174.398 222.125
 c 174.398 197.137 l 174.398 192.719 177.98 189.137 182.398 189.137 c 227.203
 189.137 l 231.621 189.137 235.203 192.719 235.203 197.137 c 235.203 222.125
 l 235.203 232.152 243.348 240.313 253.371 240.344 c 263.406 240.313 271.57
 232.176 271.645 222.148 c 271.645 222.141 271.641 222.133 271.641 222.125
 c 271.641 178.672 l 271.641 175.633 273.367 172.855 276.09 171.504 c 327.477
 146.035 l 341.629 139.02 350.418 124.852 350.418 109.059 c 350.418 16 l
 333.215 16 l 328.797 16 325.215 12.418 325.215 8 c 325.215 3.582 328.797
 0 333.215 0 c 358.418 0 l 362.836 0 366.422 3.582 366.422 8 c 366.422 109.059
 l 366.422 130.977 354.219 150.637 334.582 160.371 c 287.645 183.637 l 287.645
 191.965 l 291.793 189.777 296.512 188.531 301.523 188.531 c 358.148 188.531
 l 374.621 188.531 388.023 201.934 388.023 218.406 c 388.023 231.957 l 388.02
 273.16 354.5 306.684 313.293 306.684 c h
219.199 222.125 m 219.199 205.141 l 190.398 205.141 l 190.398 222.125 l
 190.398 228.816 188.457 235.063 185.125 240.344 c 224.477 240.344 l 221.141
 235.063 219.199 228.816 219.199 222.125 c h
219.199 222.125 m f
154.188 304.34 m 152.699 305.828 150.633 306.684 148.527 306.684 c 146.414
 306.684 144.359 305.828 142.871 304.34 c 141.375 302.852 140.527 300.789
 140.527 298.684 c 140.527 296.578 141.375 294.512 142.871 293.027 c 144.359
 291.539 146.414 290.68 148.527 290.68 c 150.633 290.68 152.691 291.535 
154.188 293.027 c 155.672 294.512 156.531 296.578 156.531 298.684 c 156.531
 300.789 155.672 302.852 154.188 304.34 c h
154.188 304.34 m f
308.066 13.66 m 306.578 15.145 304.516 16.004 302.41 16.004 c 300.305 16.004
 298.242 15.148 296.754 13.66 c 295.266 12.168 294.41 10.105 294.41 8 c 
294.41 5.898 295.266 3.832 296.754 2.344 c 298.242 0.859 300.305 0 302.41
 0 c 304.516 0 306.578 0.855 308.066 2.344 c 309.555 3.832 310.41 5.898 
310.41 8 c 310.41 10.105 309.555 12.168 308.066 13.66 c h
308.066 13.66 m f
145.105 59.207 m 120.895 59.207 l 121.945 60.172 123.016 61.172 124.082
 62.203 c 139.223 76.777 146.578 89.129 146.578 99.969 c 146.578 116.742
 135.309 128.016 118.531 128.016 c 103.066 128.016 90.484 115.434 90.484
 99.969 c 90.484 95.547 94.066 91.965 98.484 91.965 c 102.902 91.965 106.488
 95.551 106.488 99.969 c 106.488 106.609 111.891 112.012 118.531 112.012
 c 130.578 112.012 130.578 102.945 130.578 99.969 c 130.578 88.828 109.105
 68.563 93.859 57.73 c 91.02 55.715 89.805 52.094 90.863 48.777 c 91.922
 45.461 95.004 43.203 98.488 43.203 c 145.105 43.203 l 149.527 43.203 153.109
 46.789 153.109 51.207 c 153.105 55.625 149.523 59.207 145.105 59.207 c 
h
145.105 59.207 m f
203.762 84.41 m 198.301 84.41 l 198.301 86.676 l 198.301 91.094 194.715
 94.676 190.297 94.676 c 185.879 94.676 182.297 91.094 182.297 86.676 c 
182.297 84.41 l 171.258 84.41 l 189.262 116.059 l 191.445 119.898 190.102
 124.785 186.262 126.969 c 182.422 129.152 177.535 127.813 175.352 123.969
 c 150.547 80.367 l 149.137 77.891 149.152 74.848 150.586 72.387 c 152.02
 69.926 154.652 68.406 157.504 68.406 c 182.297 68.406 l 182.297 51.207 
l 182.297 46.789 185.879 43.207 190.297 43.207 c 194.719 43.207 198.301 
46.789 198.301 51.207 c 198.301 68.406 l 203.762 68.406 l 208.18 68.406 
211.762 71.992 211.762 76.41 c 211.762 80.828 208.18 84.41 203.762 84.41
 c h
203.762 84.41 m f
254.047 127.48 m 249.922 129.066 245.293 127.012 243.707 122.887 c 217.234
 54.078 l 215.648 49.953 217.707 45.324 221.828 43.738 c 222.773 43.375 
223.746 43.203 224.699 43.203 c 227.914 43.203 230.945 45.152 232.168 48.332
 c 258.641 117.141 l 260.227 121.266 258.172 125.895 254.047 127.48 c h
254.047 127.48 m f
317.684 124.578 m 316.188 126.73 313.734 128.016 311.113 128.016 c 277.508
 128.016 l 273.09 128.016 269.508 124.434 269.508 120.016 c 269.508 115.598
 273.09 112.012 277.508 112.012 c 299.598 112.012 l 278.012 53.996 l 276.469
 49.855 278.578 45.25 282.719 43.707 c 283.637 43.367 284.582 43.203 285.508
 43.203 c 288.754 43.203 291.809 45.195 293.008 48.418 c 318.609 117.227
 l 319.523 119.68 319.176 122.43 317.684 124.578 c h
317.684 124.578 m f
250.008 355.563 m 237.934 367.641 221.879 374.289 204.801 374.289 c 187.723
 374.289 171.668 367.641 159.594 355.563 c 156.469 352.441 156.469 347.375
 159.594 344.246 c 162.719 341.125 167.781 341.125 170.906 344.246 c 179.961
 353.301 191.996 358.289 204.801 358.289 c 217.605 358.289 229.641 353.301
 238.695 344.246 c 240.258 342.688 242.305 341.906 244.352 341.906 c 246.398
 341.906 248.445 342.688 250.008 344.246 c 253.133 347.371 253.133 352.438
 250.008 355.563 c h
250.008 355.563 m f
275.008 380.566 m 236.297 419.281 173.305 419.281 134.59 380.566 c 131.465
 377.441 131.465 372.375 134.59 369.25 c 136.152 367.688 138.199 366.906
 140.246 366.906 c 142.293 366.906 144.344 367.688 145.906 369.25 c 178.379
 401.727 231.223 401.727 263.695 369.25 c 266.82 366.129 271.883 366.129
 275.012 369.25 c 278.133 372.375 278.133 377.441 275.008 380.566 c h
275.008 380.566 m f
228.699 334.254 m 215.52 347.43 194.078 347.43 180.902 334.254 c 177.777
 331.129 177.777 326.063 180.902 322.938 c 184.027 319.813 189.09 319.813
 192.219 322.938 c 199.156 329.875 210.445 329.875 217.383 322.938 c 218.945
 321.375 220.992 320.594 223.039 320.594 c 225.09 320.594 227.137 321.375
 228.699 322.938 c 231.82 326.063 231.82 331.129 228.699 334.254 c h
228.699 334.254 m f
Q Q
showpage
%%Trailer
end restore
%%EOF
