%!PS-Adobe-3.0 EPSF-3.0
%%Creator: cairo 1.14.2 (http://cairographics.org)
%%CreationDate: Thu Jul 26 08:51:17 2018
%%Pages: 1
%%DocumentData: Clean7Bit
%%LanguageLevel: 2
%%BoundingBox: 24 -1 386 410
%%EndComments
%%BeginProlog
save
50 dict begin
/q { gsave } bind def
/Q { grestore } bind def
/cm { 6 array astore concat } bind def
/w { setlinewidth } bind def
/J { setlinecap } bind def
/j { setlinejoin } bind def
/M { setmiterlimit } bind def
/d { setdash } bind def
/m { moveto } bind def
/l { lineto } bind def
/c { curveto } bind def
/h { closepath } bind def
/re { exch dup neg 3 1 roll 5 3 roll moveto 0 rlineto
      0 exch rlineto 0 rlineto closepath } bind def
/S { stroke } bind def
/f { fill } bind def
/f* { eofill } bind def
/n { newpath } bind def
/W { clip } bind def
/W* { eoclip } bind def
/BT { } bind def
/ET { } bind def
/pdfmark where { pop globaldict /?pdfmark /exec load put }
    { globaldict begin /?pdfmark /pop load def /pdfmark
    /cleartomark load def end } ifelse
/BDC { mark 3 1 roll /BDC pdfmark } bind def
/EMC { mark /EMC pdfmark } bind def
/cairo_store_point { /cairo_point_y exch def /cairo_point_x exch def } def
/Tj { show currentpoint cairo_store_point } bind def
/TJ {
  {
    dup
    type /stringtype eq
    { show } { -0.001 mul 0 cairo_font_matrix dtransform rmoveto } ifelse
  } forall
  currentpoint cairo_store_point
} bind def
/cairo_selectfont { cairo_font_matrix aload pop pop pop 0 0 6 array astore
    cairo_font exch selectfont cairo_point_x cairo_point_y moveto } bind def
/Tf { pop /cairo_font exch def /cairo_font_matrix where
      { pop cairo_selectfont } if } bind def
/Td { matrix translate cairo_font_matrix matrix concatmatrix dup
      /cairo_font_matrix exch def dup 4 get exch 5 get cairo_store_point
      /cairo_font where { pop cairo_selectfont } if } bind def
/Tm { 2 copy 8 2 roll 6 array astore /cairo_font_matrix exch def
      cairo_store_point /cairo_font where { pop cairo_selectfont } if } bind def
/g { setgray } bind def
/rg { setrgbcolor } bind def
/d1 { setcachedevice } bind def
%%EndProlog
%%BeginSetup
%%EndSetup
%%Page: 1 1
%%BeginPageSetup
%%PageBoundingBox: 24 -1 386 410
%%EndPageSetup
q 24 -1 362 411 rectclip q
0 g
371.129 109.784 m 361.66 122.366 348.66 131.327 333.531 135.69 c 301.91
 144.811 l 301.91 216.705 l 313.625 219.643 322.328 230.256 322.328 242.87
 c 322.328 277.166 l 322.328 282.788 320.598 288.01 317.648 292.338 c 318.258
 293.467 318.605 294.76 318.605 296.131 c 318.605 358.698 267.742 409.6 
205.223 409.6 c 142.703 409.6 91.84 358.698 91.84 296.131 c 91.84 294.877
 92.137 293.698 92.652 292.639 c 89.57 288.256 87.754 282.924 87.754 277.17
 c 87.754 242.87 l 87.754 230.26 96.457 219.643 108.172 216.705 c 108.172
 196.123 l 108.172 191.705 111.754 188.123 116.172 188.123 c 120.59 188.123
 124.172 191.705 124.172 196.123 c 124.172 215.897 l 127.543 215.897 l 131.746
 203.26 139.047 191.799 148.812 182.635 c 148.809 182.561 148.801 182.491
 148.801 182.416 c 148.801 156.67 l 76.07 135.69 l 60.941 131.327 47.938
 122.37 38.473 109.784 c 29.004 97.202 24 82.225 24 66.479 c 24 7.998 l 
24 3.58 27.582 -0.002 32 -0.002 c 377.602 -0.002 l 382.02 -0.002 385.602
 3.58 385.602 7.998 c 385.602 66.479 l 385.602 82.225 380.598 97.202 371.129
 109.784 c h
306.328 277.166 m 306.328 242.87 l 306.328 236.819 301.406 231.897 295.359
 231.897 c 286.641 231.897 l 286.641 288.139 l 295.359 288.139 l 301.406
 288.139 306.328 283.217 306.328 277.166 c h
123.441 231.897 m 114.723 231.897 l 108.676 231.897 103.754 236.823 103.754
 242.87 c 103.754 277.17 l 103.754 283.221 108.676 288.139 114.727 288.139
 c 117.477 288.139 l 117.488 288.139 117.5 288.139 117.512 288.139 c 117.523
 288.139 117.535 288.139 117.547 288.139 c 123.441 288.139 l h
110.953 303.87 m 109.988 303.737 109.035 303.553 108.105 303.315 c 111.793
 353.717 153.941 393.6 205.223 393.6 c 256.539 393.6 298.707 353.666 302.344
 303.217 c 301.297 303.498 300.223 303.717 299.129 303.873 c 288.621 346.963
 250.035 377.6 205.039 377.6 c 160.047 377.6 121.461 346.963 110.953 303.87
 c h
285.91 215.897 m 285.91 149.428 l 260.801 156.67 l 260.801 182.19 l 270.797
 191.42 278.266 203.049 282.539 215.897 c h
131.441 304.139 m 127.617 304.139 l 137.758 337.94 168.914 361.6 205.043
 361.6 c 241.168 361.6 272.324 337.94 282.461 304.139 c 278.641 304.139 
l 274.223 304.139 270.641 300.557 270.641 296.139 c 270.641 290.674 l 261.441
 290.721 252.355 292.295 243.742 295.299 c 248.805 297.424 l 252.879 299.131
 254.793 303.823 253.086 307.897 c 251.375 311.971 246.688 313.885 242.609
 312.178 c 227.062 305.651 l 199.086 293.913 169.648 287.506 139.441 286.541
 c 139.441 296.139 l 139.441 300.557 135.859 304.139 131.441 304.139 c h
139.441 241.139 m 139.441 270.534 l 168.219 271.397 196.344 276.913 223.289
 286.971 c 237.781 278.983 254.059 274.745 270.641 274.674 c 270.641 241.139
 l 270.641 232.377 268.84 223.858 265.508 216.034 c 231.027 216.034 l 228.297
 224.78 220.121 231.143 210.488 231.143 c 200.266 231.143 l 188.406 231.143
 178.754 221.495 178.754 209.631 c 178.754 197.772 188.406 188.123 200.266
 188.123 c 210.488 188.123 l 218.902 188.123 226.199 192.979 229.73 200.034
 c 255.734 200.034 l 250.852 194.174 244.902 189.143 238.07 185.272 c 217.723
 173.721 192.438 173.705 172.039 185.256 c 172.004 185.276 l 151.918 196.651
 139.441 218.057 139.441 241.139 c h
216 209.631 m 216 206.592 213.527 204.123 210.488 204.123 c 200.266 204.123
 l 197.227 204.123 194.754 206.592 194.754 209.631 c 194.754 212.67 197.227
 215.143 200.266 215.143 c 210.488 215.143 l 213.527 215.143 216 212.67 
216 209.631 c h
91.199 15.998 m 91.199 71.202 l 91.199 75.62 87.617 79.202 83.199 79.202
 c 78.781 79.202 75.199 75.62 75.199 71.202 c 75.199 15.998 l 40 15.998 
l 40 66.479 l 40 91.299 56.656 113.44 80.504 120.319 c 152.117 140.975 l
 194.492 15.998 l h
369.602 15.998 m 334.398 15.998 l 334.398 71.202 l 334.398 75.62 330.816
 79.202 326.398 79.202 c 321.98 79.202 318.398 75.62 318.398 71.202 c 318.398
 15.998 l 215.59 15.998 l 240.031 88.077 l 241.449 92.26 239.207 96.803 
235.023 98.225 c 230.84 99.639 226.297 97.401 224.875 93.213 c 205.039 34.713
 l 164.859 153.221 l 164.84 153.272 164.816 153.319 164.801 153.37 c 164.801
 170.983 l 177.246 164.073 191.145 160.612 205.043 160.612 c 218.762 160.612
 232.48 163.991 244.801 170.721 c 244.801 150.655 l 244.801 147.088 247.156
 143.955 250.582 142.967 c 329.094 120.319 l 352.945 113.44 369.602 91.299
 369.602 66.479 c h
369.602 15.998 m f
179.273 261.6 m 177.785 263.088 175.719 263.944 173.617 263.944 c 171.512
 263.944 169.449 263.088 167.961 261.6 c 166.473 260.112 165.617 258.049
 165.617 255.944 c 165.617 253.838 166.473 251.776 167.961 250.288 c 169.449
 248.799 171.512 247.944 173.617 247.944 c 175.73 247.944 177.785 248.799
 179.273 250.288 c 180.77 251.776 181.617 253.838 181.617 255.944 c 181.617
 258.049 180.77 260.112 179.273 261.6 c h
179.273 261.6 m f
242.121 261.6 m 240.633 263.088 238.566 263.944 236.465 263.944 c 234.359
 263.944 232.297 263.088 230.809 261.6 c 229.32 260.112 228.465 258.049 
228.465 255.944 c 228.465 253.838 229.32 251.776 230.809 250.288 c 232.297
 248.799 234.359 247.944 236.465 247.944 c 238.566 247.944 240.633 248.799
 242.121 250.288 c 243.605 251.776 244.465 253.838 244.465 255.944 c 244.465
 258.049 243.609 260.112 242.121 261.6 c h
242.121 261.6 m f
248.062 125.655 m 246.574 127.143 244.512 127.998 242.406 127.998 c 240.305
 127.998 238.238 127.143 236.754 125.655 c 235.266 124.166 234.406 122.104
 234.406 119.998 c 234.406 117.897 235.266 115.83 236.754 114.346 c 238.238
 112.858 240.305 111.998 242.406 111.998 c 244.512 111.998 246.574 112.858
 248.062 114.346 c 249.551 115.83 250.406 117.897 250.406 119.998 c 250.406
 122.104 249.551 124.166 248.062 125.655 c h
248.062 125.655 m f
121.832 174.205 m 120.344 175.694 118.281 176.553 116.176 176.553 c 114.062
 176.553 112 175.698 110.52 174.205 c 109.023 172.721 108.176 170.655 108.176
 168.553 c 108.176 166.448 109.023 164.385 110.52 162.897 c 112.008 161.409
 114.066 160.553 116.176 160.553 c 118.281 160.553 120.344 161.409 121.832
 162.897 c 123.32 164.385 124.168 166.448 124.168 168.553 c 124.168 170.655
 123.32 172.721 121.832 174.205 c h
121.832 174.205 m f
Q Q
showpage
%%Trailer
end restore
%%EOF
