%!PS-Adobe-3.0 EPSF-3.0
%%Creator: cairo 1.14.2 (http://cairographics.org)
%%CreationDate: Thu Jul 26 08:51:17 2018
%%Pages: 1
%%DocumentData: Clean7Bit
%%LanguageLevel: 2
%%BoundingBox: 0 -1 410 410
%%EndComments
%%BeginProlog
save
50 dict begin
/q { gsave } bind def
/Q { grestore } bind def
/cm { 6 array astore concat } bind def
/w { setlinewidth } bind def
/J { setlinecap } bind def
/j { setlinejoin } bind def
/M { setmiterlimit } bind def
/d { setdash } bind def
/m { moveto } bind def
/l { lineto } bind def
/c { curveto } bind def
/h { closepath } bind def
/re { exch dup neg 3 1 roll 5 3 roll moveto 0 rlineto
      0 exch rlineto 0 rlineto closepath } bind def
/S { stroke } bind def
/f { fill } bind def
/f* { eofill } bind def
/n { newpath } bind def
/W { clip } bind def
/W* { eoclip } bind def
/BT { } bind def
/ET { } bind def
/pdfmark where { pop globaldict /?pdfmark /exec load put }
    { globaldict begin /?pdfmark /pop load def /pdfmark
    /cleartomark load def end } ifelse
/BDC { mark 3 1 roll /BDC pdfmark } bind def
/EMC { mark /EMC pdfmark } bind def
/cairo_store_point { /cairo_point_y exch def /cairo_point_x exch def } def
/Tj { show currentpoint cairo_store_point } bind def
/TJ {
  {
    dup
    type /stringtype eq
    { show } { -0.001 mul 0 cairo_font_matrix dtransform rmoveto } ifelse
  } forall
  currentpoint cairo_store_point
} bind def
/cairo_selectfont { cairo_font_matrix aload pop pop pop 0 0 6 array astore
    cairo_font exch selectfont cairo_point_x cairo_point_y moveto } bind def
/Tf { pop /cairo_font exch def /cairo_font_matrix where
      { pop cairo_selectfont } if } bind def
/Td { matrix translate cairo_font_matrix matrix concatmatrix dup
      /cairo_font_matrix exch def dup 4 get exch 5 get cairo_store_point
      /cairo_font where { pop cairo_selectfont } if } bind def
/Tm { 2 copy 8 2 roll 6 array astore /cairo_font_matrix exch def
      cairo_store_point /cairo_font where { pop cairo_selectfont } if } bind def
/g { setgray } bind def
/rg { setrgbcolor } bind def
/d1 { setcachedevice } bind def
%%EndProlog
%%BeginSetup
%%EndSetup
%%Page: 1 1
%%BeginPageSetup
%%PageBoundingBox: 0 -1 410 410
%%EndPageSetup
q 0 -1 410 411 rectclip q
0 g
210.457 154.72 m 208.969 156.216 206.902 157.064 204.801 157.064 c 202.695
 157.064 200.633 156.216 199.145 154.72 c 197.656 153.232 196.801 151.177
 196.801 149.064 c 196.801 146.962 197.656 144.896 199.145 143.408 c 200.633
 141.923 202.695 141.064 204.801 141.064 c 206.902 141.064 208.969 141.92
 210.457 143.408 c 211.941 144.896 212.801 146.962 212.801 149.064 c 212.801
 151.177 211.945 153.232 210.457 154.72 c h
210.457 154.72 m f
349.613 349.615 m 310.934 388.298 259.504 409.599 204.801 409.599 c 164.629
 409.599 125.734 397.97 92.32 375.974 c 59.758 354.537 34.086 324.474 18.078
 289.041 c 16.258 285.017 18.047 280.275 22.074 278.459 c 26.098 276.638
 30.84 278.427 32.656 282.455 c 38.027 294.334 44.543 305.47 52.039 315.763
 c 64.906 307.74 79.137 302.498 94.055 300.267 c 94.047 299.763 94.035 299.255
 94.035 298.748 c 94.035 269.603 l 94.035 265.185 97.617 261.603 102.035
 261.603 c 106.453 261.603 110.035 265.185 110.035 269.603 c 110.035 298.748
 l 110.035 298.845 110.039 298.947 110.039 299.045 c 110.234 299.045 110.43
 299.033 110.629 299.033 c 196.801 299.033 l 196.801 212.802 l 150.398 212.802
 l 145.98 212.802 142.398 209.22 142.398 204.802 c 142.398 200.388 145.98
 196.802 150.398 196.802 c 196.801 196.802 l 196.801 176.802 l 196.801 172.388
 200.383 168.802 204.801 168.802 c 209.219 168.802 212.801 172.388 212.801
 176.802 c 212.801 196.802 l 299.562 196.802 l 299.562 110.771 l 299.562
 110.701 299.562 110.63 299.562 110.564 c 299.363 110.564 299.168 110.572
 298.969 110.572 c 260 110.572 l 255.582 110.572 252 106.99 252 102.572 
c 252 98.158 255.582 94.572 260 94.572 c 298.172 94.572 l 293.215 65.912
 275.34 41.619 250.773 27.931 c 255.34 32.498 l 267.289 44.447 267.289 63.888
 255.34 75.837 c 213.887 117.291 l 208.098 123.076 200.402 126.263 192.219
 126.263 c 184.031 126.263 176.336 123.076 170.547 117.291 c 161.094 107.837
 l 157.395 104.134 151.375 104.138 147.676 107.837 c 107.836 147.677 l 106.043
 149.47 105.055 151.853 105.055 154.388 c 105.055 156.92 106.043 159.302
 107.836 161.095 c 117.289 170.548 l 129.238 182.498 129.238 201.939 117.289
 213.888 c 75.836 255.341 l 70.047 261.13 62.352 264.318 54.168 264.318 
c 45.98 264.318 38.285 261.13 32.496 255.341 c 22.578 245.423 l 8.023 230.865
 0.004 211.509 0.004 190.92 c 0.004 170.33 8.02 150.974 22.578 136.416 c
 58.961 100.033 l 62.086 96.912 67.152 96.912 70.277 100.033 c 73.398 103.158
 73.398 108.224 70.277 111.349 c 33.895 147.732 l 10.078 171.545 10.078 
210.295 33.895 234.107 c 43.812 244.025 l 46.578 246.795 50.254 248.318 
54.168 248.318 c 58.078 248.318 61.754 246.795 64.52 244.025 c 105.973 202.576
 l 111.684 196.865 111.684 187.572 105.973 181.865 c 96.625 172.513 l 66.332
 202.81 l 63.207 205.931 58.141 205.931 55.016 202.81 c 51.891 199.685 51.891
 194.619 55.016 191.494 c 89.223 157.287 l 89.117 156.33 89.055 155.365 
89.055 154.384 c 89.055 147.576 91.707 141.177 96.52 136.365 c 136.363 96.521
 l 146.301 86.587 162.469 86.584 172.41 96.521 c 181.863 105.974 l 184.629
 108.74 188.305 110.263 192.219 110.263 c 196.129 110.263 199.805 108.74
 202.57 105.974 c 244.023 64.521 l 249.734 58.81 249.734 49.521 244.027 
43.81 c 234.676 34.462 l 199.938 69.201 l 196.812 72.326 191.75 72.326 188.625
 69.201 c 185.5 66.076 185.5 61.009 188.625 57.888 c 222.02 24.494 l 212.754
 18.994 202.16 16.041 191.109 16.009 c 190.723 16.009 l 174.48 16.06 159.219
 22.4 147.727 33.892 c 114.809 66.81 l 111.684 69.935 106.621 69.935 103.496
 66.81 c 100.371 63.685 100.371 58.623 103.496 55.498 c 136.41 22.58 l 150.809
 8.177 169.902 0.185 190.238 0.009 c 190.266 0.009 190.285 0.009 190.309
 0.009 c 190.531 0.009 l 190.66 0.005 190.785 0.002 190.914 0.002 c 191.043
 0.002 191.172 0.005 191.301 0.009 c 204.797 0.009 l 259.5 0.009 310.93 
21.31 349.613 59.994 c 388.293 98.673 409.598 150.103 409.598 204.806 c 
409.598 259.509 388.293 310.935 349.613 349.615 c h
95.422 316.248 m 83.633 318.138 72.363 322.228 62.07 328.373 c 79.691 348.67
 101.418 364.939 125.656 376.154 c 109.977 360.123 99.109 339.369 95.422
 316.248 c h
196.801 315.033 m 111.441 315.033 l 118.738 356.986 153.715 389.552 196.801
 393.17 c h
357.484 315.716 m 378.711 286.572 391.809 251.15 393.418 212.802 c 315.566
 212.802 l 315.566 298.744 l 315.566 299.255 315.555 299.759 315.547 300.267
 c 330.434 302.49 344.637 307.716 357.484 315.716 c h
347.461 328.334 m 337.188 322.212 325.941 318.134 314.176 316.248 c 310.488
 339.396 299.598 360.173 283.887 376.212 c 308.348 364.88 330 348.474 347.461
 328.334 c h
212.801 393.17 m 255.887 389.548 290.863 356.982 298.16 315.033 c 212.801
 315.033 l h
212.801 212.802 m 212.801 299.033 l 298.973 299.033 l 299.168 299.033 299.363
 299.041 299.562 299.045 c 299.562 298.943 299.566 298.845 299.566 298.744
 c 299.566 212.802 l h
284.043 33.462 m 299.691 49.502 310.527 70.248 314.191 93.353 c 325.949
 91.466 337.191 87.388 347.461 81.267 c 330.035 61.173 308.441 44.795 284.043
 33.462 c h
357.48 93.888 m 344.637 101.884 330.434 107.111 315.547 109.334 c 315.551
 109.814 315.562 110.291 315.562 110.767 c 315.562 196.802 l 393.414 196.802
 l 391.809 158.455 378.711 123.033 357.48 93.888 c h
357.48 93.888 m f
92.477 89.134 m 90.992 90.63 88.926 91.478 86.824 91.478 c 84.711 91.478
 82.652 90.63 81.168 89.134 c 79.672 87.646 78.824 85.584 78.824 83.478 
c 78.824 81.377 79.672 79.31 81.168 77.826 c 82.652 76.337 84.711 75.478
 86.824 75.478 c 88.926 75.478 90.992 76.334 92.477 77.826 c 93.965 79.31
 94.824 81.377 94.824 83.478 c 94.824 85.584 93.965 87.646 92.477 89.134
 c h
92.477 89.134 m f
Q Q
showpage
%%Trailer
end restore
%%EOF
