%!PS-Adobe-3.0 EPSF-3.0
%%Creator: cairo 1.14.2 (http://cairographics.org)
%%CreationDate: Thu Jul 26 08:51:17 2018
%%Pages: 1
%%DocumentData: Clean7Bit
%%LanguageLevel: 2
%%BoundingBox: 0 21 410 389
%%EndComments
%%BeginProlog
save
50 dict begin
/q { gsave } bind def
/Q { grestore } bind def
/cm { 6 array astore concat } bind def
/w { setlinewidth } bind def
/J { setlinecap } bind def
/j { setlinejoin } bind def
/M { setmiterlimit } bind def
/d { setdash } bind def
/m { moveto } bind def
/l { lineto } bind def
/c { curveto } bind def
/h { closepath } bind def
/re { exch dup neg 3 1 roll 5 3 roll moveto 0 rlineto
      0 exch rlineto 0 rlineto closepath } bind def
/S { stroke } bind def
/f { fill } bind def
/f* { eofill } bind def
/n { newpath } bind def
/W { clip } bind def
/W* { eoclip } bind def
/BT { } bind def
/ET { } bind def
/pdfmark where { pop globaldict /?pdfmark /exec load put }
    { globaldict begin /?pdfmark /pop load def /pdfmark
    /cleartomark load def end } ifelse
/BDC { mark 3 1 roll /BDC pdfmark } bind def
/EMC { mark /EMC pdfmark } bind def
/cairo_store_point { /cairo_point_y exch def /cairo_point_x exch def } def
/Tj { show currentpoint cairo_store_point } bind def
/TJ {
  {
    dup
    type /stringtype eq
    { show } { -0.001 mul 0 cairo_font_matrix dtransform rmoveto } ifelse
  } forall
  currentpoint cairo_store_point
} bind def
/cairo_selectfont { cairo_font_matrix aload pop pop pop 0 0 6 array astore
    cairo_font exch selectfont cairo_point_x cairo_point_y moveto } bind def
/Tf { pop /cairo_font exch def /cairo_font_matrix where
      { pop cairo_selectfont } if } bind def
/Td { matrix translate cairo_font_matrix matrix concatmatrix dup
      /cairo_font_matrix exch def dup 4 get exch 5 get cairo_store_point
      /cairo_font where { pop cairo_selectfont } if } bind def
/Tm { 2 copy 8 2 roll 6 array astore /cairo_font_matrix exch def
      cairo_store_point /cairo_font where { pop cairo_selectfont } if } bind def
/g { setgray } bind def
/rg { setrgbcolor } bind def
/d1 { setcachedevice } bind def
%%EndProlog
%%BeginSetup
%%EndSetup
%%Page: 1 1
%%BeginPageSetup
%%PageBoundingBox: 0 21 410 389
%%EndPageSetup
q 0 21 410 368 rectclip q
0 g
80.77 230.038 m 56.02 230.038 35.879 209.901 35.879 185.147 c 35.879 175.526
 l 35.879 164.998 39.531 155.311 45.621 147.651 c 22.348 139.936 l 8.98 
135.506 0 123.069 0 108.987 c 0 29.6 l 0 25.182 3.582 21.6 8 21.6 c 70.398
 21.6 l 74.816 21.6 78.398 25.182 78.398 29.6 c 78.398 34.018 74.816 37.6
 70.398 37.6 c 16 37.6 l 16 108.987 l 16 116.159 20.574 122.495 27.383 124.748
 c 60.223 135.631 l 66.383 132.444 73.367 130.635 80.77 130.635 c 105.523
 130.635 125.66 150.772 125.66 175.526 c 125.66 185.147 l 125.66 209.901
 105.523 230.038 80.77 230.038 c h
109.66 177.198 m 88.801 177.198 l 84.383 177.198 80.801 173.616 80.801 
169.198 c 80.801 164.78 84.383 161.198 88.801 161.198 c 105.844 161.198 
l 100.855 152.506 91.488 146.635 80.77 146.635 c 75.406 146.635 70.387 148.108
 66.078 150.663 c 65.645 151.002 65.18 151.295 64.688 151.538 c 56.969 156.729
 51.879 165.541 51.879 175.526 c 51.879 185.147 l 51.879 201.077 64.84 214.038
 80.77 214.038 c 96.699 214.038 109.66 201.077 109.66 185.147 c h
109.66 177.198 m f
284.945 135.229 m 246.555 147.952 l 257.355 158.678 264.059 173.526 264.059
 189.916 c 264.059 216.061 l 264.059 248.682 237.523 275.221 204.902 275.221
 c 172.281 275.221 145.742 248.682 145.742 216.061 c 145.742 189.916 l 145.742
 173.526 152.445 158.674 163.25 147.952 c 124.859 135.229 l 107.59 129.506
 95.988 113.44 95.988 95.245 c 95.988 29.6 l 95.988 25.182 99.57 21.6 103.988
 21.6 c 305.816 21.6 l 310.234 21.6 313.816 25.182 313.816 29.6 c 313.816
 95.245 l 313.816 113.44 302.215 129.506 284.945 135.229 c h
204.902 259.221 m 221.637 259.221 236.164 249.639 243.324 235.686 c 232.262
 228.057 l 226.414 224.03 219.57 221.901 212.473 221.901 c 162.148 221.901
 l 165.008 242.944 183.086 259.221 204.902 259.221 c h
161.742 189.916 m 161.742 205.901 l 212.473 205.901 l 222.832 205.901 232.812
 209.006 241.34 214.885 c 247.918 219.416 l 248.004 218.307 248.062 217.194
 248.062 216.061 c 248.062 189.916 l 248.062 186.217 247.594 182.627 246.711
 179.198 c 231.199 179.198 l 226.781 179.198 223.199 175.616 223.199 171.198
 c 223.199 166.78 226.781 163.198 231.199 163.198 c 238.758 163.198 l 230.848
 153.198 218.613 146.76 204.902 146.76 c 181.105 146.76 161.742 166.12 161.742
 189.916 c h
297.816 37.6 m 276.863 37.6 l 276.863 65.6 l 276.863 70.018 273.281 73.6
 268.863 73.6 c 264.445 73.6 260.863 70.018 260.863 65.6 c 260.863 37.6 
l 148.738 37.6 l 148.738 65.6 l 148.738 70.018 145.156 73.6 140.738 73.6
 c 136.32 73.6 132.738 70.018 132.738 65.6 c 132.738 37.6 l 111.988 37.6
 l 111.988 95.245 l 111.988 106.53 119.18 116.495 129.891 120.041 c 179.523
 136.491 l 187.219 132.819 195.824 130.76 204.902 130.76 c 213.98 130.76
 222.586 132.819 230.281 136.491 c 279.91 120.041 l 290.621 116.495 297.816
 106.53 297.816 95.245 c h
297.816 37.6 m f
344.594 35.256 m 343.105 36.745 341.039 37.6 338.938 37.6 c 336.824 37.6
 334.762 36.745 333.281 35.256 c 331.785 33.768 330.938 31.702 330.938 29.6
 c 330.938 27.495 331.785 25.432 333.281 23.944 c 334.77 22.455 336.824 
21.6 338.938 21.6 c 341.039 21.6 343.105 22.455 344.594 23.944 c 346.078
 25.432 346.938 27.495 346.938 29.6 c 346.938 31.702 346.078 33.768 344.594
 35.256 c h
344.594 35.256 m f
387.25 139.936 m 363.977 147.651 l 370.07 155.311 373.719 164.998 373.719
 175.526 c 373.719 185.147 l 373.719 209.901 353.582 230.038 328.828 230.038
 c 304.078 230.038 283.941 209.901 283.941 185.147 c 283.941 175.526 l 283.941
 150.772 304.078 130.635 328.832 130.635 c 336.234 130.635 343.215 132.444
 349.379 135.631 c 382.219 124.748 l 389.027 122.495 393.602 116.159 393.602
 108.987 c 393.602 37.6 l 368.801 37.6 l 364.383 37.6 360.801 34.018 360.801
 29.6 c 360.801 25.182 364.383 21.6 368.801 21.6 c 401.602 21.6 l 406.02
 21.6 409.602 25.182 409.602 29.6 c 409.602 108.987 l 409.602 123.069 400.617
 135.506 387.25 139.936 c h
357.719 177.198 m 338.934 177.198 l 334.516 177.198 330.934 173.616 330.934
 169.198 c 330.934 164.78 334.516 161.198 338.934 161.198 c 353.902 161.198
 l 351.684 157.33 348.602 154.014 344.91 151.534 c 344.422 151.291 343.957
 151.002 343.523 150.663 c 339.215 148.108 334.191 146.635 328.828 146.635
 c 312.898 146.635 299.941 159.592 299.941 175.526 c 299.941 185.147 l 299.941
 201.077 312.898 214.038 328.832 214.038 c 344.762 214.038 357.719 201.077
 357.719 185.147 c h
357.719 177.198 m f
145.113 319.198 m 120.902 319.198 l 121.957 320.166 123.023 321.166 124.094
 322.194 c 139.23 336.768 146.586 349.12 146.586 359.955 c 146.586 376.729
 135.316 387.998 118.543 387.998 c 103.078 387.998 90.5 375.42 90.5 359.955
 c 90.5 355.538 94.082 351.955 98.5 351.955 c 102.914 351.955 106.5 355.538
 106.5 359.955 c 106.5 366.596 111.902 371.998 118.543 371.998 c 130.586
 371.998 130.586 362.936 130.586 359.955 c 130.586 348.819 109.117 328.557
 93.871 317.725 c 91.031 315.709 89.82 312.088 90.875 308.772 c 91.934 305.452
 95.016 303.198 98.5 303.198 c 145.113 303.198 l 149.531 303.198 153.113
 306.78 153.113 311.198 c 153.113 315.616 149.531 319.198 145.113 319.198
 c h
145.113 319.198 m f
203.762 344.401 m 198.301 344.401 l 198.301 346.666 l 198.301 351.084 194.719
 354.666 190.301 354.666 c 185.883 354.666 182.301 351.084 182.301 346.666
 c 182.301 344.401 l 171.262 344.401 l 189.262 376.045 l 191.445 379.885
 190.105 384.768 186.266 386.955 c 182.426 389.135 177.539 387.795 175.355
 383.955 c 150.555 340.354 l 149.145 337.877 149.16 334.838 150.594 332.377
 c 152.027 329.913 154.66 328.401 157.508 328.401 c 182.301 328.401 l 182.301
 311.198 l 182.301 306.78 185.883 303.198 190.301 303.198 c 194.719 303.198
 198.301 306.78 198.301 311.198 c 198.301 328.401 l 203.762 328.401 l 208.18
 328.401 211.762 331.983 211.762 336.401 c 211.762 340.819 208.18 344.401
 203.762 344.401 c h
203.762 344.401 m f
254.043 387.467 m 249.918 389.053 245.289 386.995 243.703 382.873 c 217.234
 314.073 l 215.648 309.948 217.703 305.319 221.828 303.733 c 222.773 303.37
 223.742 303.198 224.699 303.198 c 227.914 303.198 230.945 305.147 232.168
 308.327 c 258.637 377.127 l 260.223 381.248 258.164 385.877 254.043 387.467
 c h
254.043 387.467 m f
317.672 384.565 m 316.176 386.717 313.723 387.998 311.102 387.998 c 277.5
 387.998 l 273.082 387.998 269.5 384.416 269.5 379.998 c 269.5 375.58 273.082
 371.998 277.5 371.998 c 299.59 371.998 l 278.004 313.991 l 276.461 309.846
 278.57 305.241 282.711 303.702 c 283.629 303.358 284.574 303.198 285.5 
303.198 c 288.746 303.198 291.801 305.19 293 308.409 c 318.598 377.209 l
 319.512 379.666 319.164 382.413 317.672 384.565 c h
317.672 384.565 m f
210.457 176.663 m 208.969 178.151 206.902 179.006 204.801 179.006 c 202.688
 179.006 200.633 178.151 199.145 176.663 c 197.656 175.174 196.801 173.12
 196.801 171.006 c 196.801 168.905 197.656 166.838 199.145 165.354 c 200.633
 163.862 202.695 163.006 204.801 163.006 c 206.902 163.006 208.969 163.862
 210.457 165.354 c 211.941 166.846 212.801 168.905 212.801 171.006 c 212.801
 173.112 211.945 175.174 210.457 176.663 c h
210.457 176.663 m f
Q Q
showpage
%%Trailer
end restore
%%EOF
