%!PS-Adobe-3.0 EPSF-3.0
%%Creator: cairo 1.14.2 (http://cairographics.org)
%%CreationDate: Thu Jul 26 08:51:17 2018
%%Pages: 1
%%DocumentData: Clean7Bit
%%LanguageLevel: 2
%%BoundingBox: 0 -1 410 410
%%EndComments
%%BeginProlog
save
50 dict begin
/q { gsave } bind def
/Q { grestore } bind def
/cm { 6 array astore concat } bind def
/w { setlinewidth } bind def
/J { setlinecap } bind def
/j { setlinejoin } bind def
/M { setmiterlimit } bind def
/d { setdash } bind def
/m { moveto } bind def
/l { lineto } bind def
/c { curveto } bind def
/h { closepath } bind def
/re { exch dup neg 3 1 roll 5 3 roll moveto 0 rlineto
      0 exch rlineto 0 rlineto closepath } bind def
/S { stroke } bind def
/f { fill } bind def
/f* { eofill } bind def
/n { newpath } bind def
/W { clip } bind def
/W* { eoclip } bind def
/BT { } bind def
/ET { } bind def
/pdfmark where { pop globaldict /?pdfmark /exec load put }
    { globaldict begin /?pdfmark /pop load def /pdfmark
    /cleartomark load def end } ifelse
/BDC { mark 3 1 roll /BDC pdfmark } bind def
/EMC { mark /EMC pdfmark } bind def
/cairo_store_point { /cairo_point_y exch def /cairo_point_x exch def } def
/Tj { show currentpoint cairo_store_point } bind def
/TJ {
  {
    dup
    type /stringtype eq
    { show } { -0.001 mul 0 cairo_font_matrix dtransform rmoveto } ifelse
  } forall
  currentpoint cairo_store_point
} bind def
/cairo_selectfont { cairo_font_matrix aload pop pop pop 0 0 6 array astore
    cairo_font exch selectfont cairo_point_x cairo_point_y moveto } bind def
/Tf { pop /cairo_font exch def /cairo_font_matrix where
      { pop cairo_selectfont } if } bind def
/Td { matrix translate cairo_font_matrix matrix concatmatrix dup
      /cairo_font_matrix exch def dup 4 get exch 5 get cairo_store_point
      /cairo_font where { pop cairo_selectfont } if } bind def
/Tm { 2 copy 8 2 roll 6 array astore /cairo_font_matrix exch def
      cairo_store_point /cairo_font where { pop cairo_selectfont } if } bind def
/g { setgray } bind def
/rg { setrgbcolor } bind def
/d1 { setcachedevice } bind def
%%EndProlog
%%BeginSetup
%%EndSetup
%%Page: 1 1
%%BeginPageSetup
%%PageBoundingBox: 0 -1 410 410
%%EndPageSetup
q 0 -1 410 411 rectclip q
0 g
113.992 113.953 m 112.504 115.441 110.441 116.289 108.336 116.289 c 106.227
 116.289 104.168 115.441 102.672 113.953 c 101.184 112.465 100.336 110.402
 100.336 108.289 c 100.336 106.188 101.184 104.121 102.672 102.633 c 104.168
 101.145 106.227 100.289 108.336 100.289 c 110.441 100.289 112.496 101.145
 113.992 102.633 c 115.48 104.121 116.336 106.188 116.336 108.289 c 116.336
 110.402 115.48 112.465 113.992 113.953 c h
113.992 113.953 m f
399.398 152.266 m 348.07 203.594 l 337.047 214.617 319.113 214.617 308.09
 203.594 c 299.473 194.98 l 298.082 199.078 295.762 202.836 292.613 205.984
 c 292.328 206.27 l 286.918 211.68 279.727 214.656 272.078 214.656 c 271.887
 214.656 271.695 214.648 271.5 214.645 c 271.648 222.164 268.863 229.734
 263.133 235.465 c 262.859 235.738 l 257.453 241.145 250.258 244.125 242.609
 244.125 c 242.418 244.125 242.227 244.113 242.035 244.109 c 242.18 251.629
 239.402 259.195 233.676 264.918 c 233.391 265.203 l 227.668 270.93 220.098
 273.711 212.578 273.566 c 212.586 273.758 212.594 273.949 212.594 274.141
 c 212.594 281.793 209.613 288.984 204.207 294.391 c 203.926 294.672 l 200.719
 297.879 196.934 300.16 192.902 301.527 c 201.531 310.152 l 206.871 315.492
 209.812 322.594 209.812 330.145 c 209.812 337.695 206.871 344.793 201.531
 350.133 c 150.348 401.32 l 139.324 412.34 121.387 412.34 110.363 401.32
 c 89.668 380.621 l 88.195 379.148 86.785 377.629 85.434 376.07 c 84.914
 375.746 84.414 375.367 83.965 374.914 c 83.094 374.047 82.477 373.027 82.09
 371.938 c 71.012 357.383 65.012 339.703 65.012 321.094 c 65.012 306.816
 68.547 293.082 75.199 280.883 c 64.555 262.809 l 57.512 250.84 53.738 237.176
 53.648 223.293 c 53.32 173.637 l 50.461 174.734 47.098 174.137 44.793 171.832
 c 2.383 129.426 l -0.738 126.301 -0.738 121.238 2.383 118.113 c 3.945 116.551
 5.992 115.77 8.039 115.77 c 10.09 115.77 12.137 116.551 13.699 118.113 
c 50.449 154.863 l 54.914 150.395 l 55.301 149.906 55.746 149.465 56.234
 149.074 c 80.363 124.949 l 83.484 121.828 88.551 121.828 91.676 124.949
 c 94.801 128.074 94.801 133.141 91.676 136.266 c 69.219 158.723 l 69.645
 223.188 l 69.719 234.258 72.727 245.152 78.344 254.691 c 85.223 266.375
 l 86.637 264.727 88.117 263.125 89.668 261.57 c 102.156 249.082 l 99.27
 228.227 l 98.797 224.82 100.555 221.496 103.629 219.965 c 104.762 219.402
 105.98 219.129 107.191 219.129 c 109.266 219.129 111.312 219.934 112.848
 221.473 c 149.738 258.359 l 174.742 283.363 l 179.668 288.289 187.688 288.289
 192.609 283.363 c 192.895 283.078 l 195.281 280.691 196.594 277.52 196.594
 274.145 c 196.594 270.766 195.281 267.594 192.895 265.207 c 166.016 238.328
 l 162.891 235.203 162.891 230.137 166.016 227.012 c 167.578 225.449 169.625
 224.668 171.672 224.668 c 173.719 224.668 175.766 225.449 177.328 227.012
 c 204.207 253.891 l 209.137 258.816 217.156 258.82 222.074 253.895 c 222.363
 253.609 l 227.289 248.684 227.289 240.664 222.363 235.738 c 195.484 208.859
 l 192.359 205.734 192.359 200.668 195.484 197.543 c 197.047 195.984 199.094
 195.203 201.141 195.203 c 201.395 195.203 201.652 195.215 201.906 195.238
 c 203.691 195.41 205.43 196.176 206.797 197.543 c 233.676 224.422 l 236.062
 226.809 239.238 228.125 242.613 228.125 c 245.988 228.125 249.16 226.809
 251.559 224.414 c 251.832 224.141 l 256.758 219.215 256.758 211.199 251.832
 206.273 c 251.832 206.27 l 224.953 179.391 l 221.828 176.266 221.828 171.203
 224.953 168.078 c 226.516 166.516 228.562 165.734 230.609 165.734 c 232.656
 165.734 234.703 166.516 236.266 168.078 c 241.828 173.637 l 241.828 173.641
 241.832 173.641 241.832 173.645 c 263.145 194.957 l 265.531 197.344 268.707
 198.656 272.082 198.656 c 275.457 198.656 278.633 197.344 281.016 194.961
 c 281.301 194.672 l 283.688 192.289 285 189.113 285 185.738 c 285 182.359
 283.688 179.188 281.301 176.801 c 209.668 105.168 l 194.59 90.09 176.035
 78.746 155.773 72.168 c 135.707 92.234 l 132.586 95.355 127.52 95.355 124.395
 92.234 c 121.27 89.109 121.27 84.043 124.395 80.918 c 154.906 50.406 l 
118.156 13.656 l 115.031 10.531 115.031 5.465 118.156 2.34 c 119.719 0.777
 121.766 -0.004 123.812 -0.004 c 125.859 -0.004 127.906 0.777 129.469 2.34
 c 171.875 44.75 l 173.375 46.25 174.219 48.285 174.219 50.406 c 174.219
 52.527 173.375 54.563 171.875 56.063 c 168.297 59.645 l 187.992 67.227 
206.02 78.891 220.98 93.855 c 239.184 112.055 l 259.652 91.586 l 275.551
 75.688 296.691 66.93 319.18 66.93 c 341.664 66.93 362.805 75.688 378.703
 91.586 c 399.402 112.281 l 404.742 117.621 407.68 124.723 407.68 132.273
 c 407.68 139.824 404.738 146.926 399.398 152.266 c h
190.215 321.469 m 163.426 294.676 l 163.426 294.676 163.426 294.676 163.422
 294.676 c 121.309 252.559 l 100.98 272.883 l 88.102 285.762 81.012 302.887
 81.012 321.098 c 81.012 333.824 84.484 346.012 90.965 356.598 c 131.73 
315.832 l 133.293 314.273 135.34 313.492 137.391 313.492 c 139.438 313.492
 141.484 314.273 143.047 315.832 c 146.168 318.957 146.168 324.023 143.047
 327.148 c 100.934 369.262 l 100.949 369.277 100.965 369.293 100.98 369.309
 c 121.68 390.008 l 126.461 394.789 134.25 394.789 139.031 390.008 c 190.215
 338.824 l 192.535 336.504 193.809 333.422 193.809 330.145 c 193.809 326.867
 192.535 323.785 190.215 321.469 c h
388.086 123.598 m 367.387 102.902 l 367.371 102.887 367.355 102.871 367.336
 102.855 c 337.363 132.832 l 334.238 135.953 329.172 135.953 326.047 132.832
 c 322.926 129.707 322.926 124.641 326.047 121.516 c 354.676 92.887 l 344.09
 86.406 331.902 82.934 319.176 82.934 c 300.965 82.934 283.84 90.023 270.965
 102.902 c 250.492 123.371 l 281.617 154.496 l 281.617 154.496 281.621 154.5
 281.621 154.5 c 319.402 192.281 l 324.188 197.066 331.973 197.066 336.758
 192.281 c 388.086 140.953 l 390.402 138.637 391.68 135.555 391.68 132.273
 c 391.68 128.996 390.402 125.918 388.086 123.598 c h
388.086 123.598 m f
317.043 153.152 m 315.555 154.641 313.492 155.496 311.387 155.496 c 309.273
 155.496 307.219 154.641 305.73 153.152 c 304.234 151.664 303.387 149.602
 303.387 147.496 c 303.387 145.395 304.234 143.328 305.73 141.84 c 307.219
 140.344 309.285 139.496 311.387 139.496 c 313.492 139.496 315.547 140.344
 317.043 141.84 c 318.531 143.328 319.387 145.395 319.387 147.496 c 319.387
 149.602 318.531 151.664 317.043 153.152 c h
317.043 153.152 m f
368.656 367.648 m 342.23 394.703 307.051 409.602 269.602 409.602 c 265.184
 409.602 261.602 406.02 261.602 401.602 c 261.602 397.184 265.184 393.602
 269.602 393.602 c 337.953 393.602 393.562 336.594 393.562 266.523 c 393.562
 262.105 397.141 258.523 401.562 258.523 c 405.98 258.523 409.562 262.105
 409.562 266.523 c 409.559 304.734 395.035 340.648 368.656 367.648 c h
368.656 367.648 m f
269.562 353.926 m 265.145 353.926 261.562 350.344 261.562 345.926 c 261.562
 341.508 265.145 337.926 269.562 337.926 c 307.926 337.926 339.133 305.895
 339.133 266.523 c 339.133 262.105 342.715 258.523 347.133 258.523 c 351.551
 258.523 355.133 262.105 355.133 266.523 c 355.133 314.715 316.746 353.926
 269.562 353.926 c h
269.562 353.926 m f
269.793 302.637 m 265.375 302.637 261.793 299.055 261.793 294.637 c 261.793
 290.223 265.371 286.637 269.793 286.637 c 280.332 286.637 288.906 277.777
 288.906 266.883 c 288.906 262.465 292.488 258.883 296.906 258.883 c 301.324
 258.883 304.906 262.465 304.906 266.883 c 304.906 286.598 289.152 302.637
 269.793 302.637 c h
269.793 302.637 m f
Q Q
showpage
%%Trailer
end restore
%%EOF
