%!PS-Adobe-3.0 EPSF-3.0
%%Creator: cairo 1.14.2 (http://cairographics.org)
%%CreationDate: Thu Jul 26 08:51:17 2018
%%Pages: 1
%%DocumentData: Clean7Bit
%%LanguageLevel: 2
%%BoundingBox: 0 -1 410 410
%%EndComments
%%BeginProlog
save
50 dict begin
/q { gsave } bind def
/Q { grestore } bind def
/cm { 6 array astore concat } bind def
/w { setlinewidth } bind def
/J { setlinecap } bind def
/j { setlinejoin } bind def
/M { setmiterlimit } bind def
/d { setdash } bind def
/m { moveto } bind def
/l { lineto } bind def
/c { curveto } bind def
/h { closepath } bind def
/re { exch dup neg 3 1 roll 5 3 roll moveto 0 rlineto
      0 exch rlineto 0 rlineto closepath } bind def
/S { stroke } bind def
/f { fill } bind def
/f* { eofill } bind def
/n { newpath } bind def
/W { clip } bind def
/W* { eoclip } bind def
/BT { } bind def
/ET { } bind def
/pdfmark where { pop globaldict /?pdfmark /exec load put }
    { globaldict begin /?pdfmark /pop load def /pdfmark
    /cleartomark load def end } ifelse
/BDC { mark 3 1 roll /BDC pdfmark } bind def
/EMC { mark /EMC pdfmark } bind def
/cairo_store_point { /cairo_point_y exch def /cairo_point_x exch def } def
/Tj { show currentpoint cairo_store_point } bind def
/TJ {
  {
    dup
    type /stringtype eq
    { show } { -0.001 mul 0 cairo_font_matrix dtransform rmoveto } ifelse
  } forall
  currentpoint cairo_store_point
} bind def
/cairo_selectfont { cairo_font_matrix aload pop pop pop 0 0 6 array astore
    cairo_font exch selectfont cairo_point_x cairo_point_y moveto } bind def
/Tf { pop /cairo_font exch def /cairo_font_matrix where
      { pop cairo_selectfont } if } bind def
/Td { matrix translate cairo_font_matrix matrix concatmatrix dup
      /cairo_font_matrix exch def dup 4 get exch 5 get cairo_store_point
      /cairo_font where { pop cairo_selectfont } if } bind def
/Tm { 2 copy 8 2 roll 6 array astore /cairo_font_matrix exch def
      cairo_store_point /cairo_font where { pop cairo_selectfont } if } bind def
/g { setgray } bind def
/rg { setrgbcolor } bind def
/d1 { setcachedevice } bind def
%%EndProlog
%%BeginSetup
%%EndSetup
%%Page: 1 1
%%BeginPageSetup
%%PageBoundingBox: 0 -1 410 410
%%EndPageSetup
q 0 -1 410 411 rectclip q
0 g
142.711 407.256 m 141.223 408.745 139.168 409.6 137.055 409.6 c 134.953
 409.6 132.895 408.745 131.398 407.256 c 129.91 405.768 129.055 403.705 
129.055 401.6 c 129.055 399.495 129.91 397.432 131.398 395.944 c 132.895
 394.455 134.953 393.6 137.055 393.6 c 139.168 393.6 141.223 394.455 142.711
 395.944 c 144.207 397.432 145.055 399.495 145.055 401.6 c 145.055 403.705
 144.207 405.768 142.711 407.256 c h
142.711 407.256 m f
409.574 260.518 m 409.473 262.127 408.895 263.717 407.797 265.061 c 407.375
 265.577 406.898 266.018 406.387 266.401 c 406.355 266.428 406.328 266.455
 406.289 266.479 c 355.48 303.245 l 355.48 386.737 l 355.48 399.342 345.223
 409.6 332.617 409.6 c 169.867 409.6 l 165.449 409.6 161.867 406.018 161.867
 401.6 c 161.867 397.182 165.449 393.6 169.867 393.6 c 332.617 393.6 l 336.402
 393.6 339.48 390.522 339.48 386.737 c 339.48 219.608 l 252.746 148.791 
l 228.246 166.518 l 214.223 176.666 195.375 176.666 181.352 166.518 c 156.855
 148.791 l 70.121 219.608 l 70.121 386.737 l 70.121 390.522 73.199 393.6
 76.98 393.6 c 97.586 393.6 l 102.004 393.6 105.586 397.182 105.586 401.6
 c 105.586 406.018 102.004 409.6 97.586 409.6 c 76.98 409.6 l 64.375 409.6
 54.121 399.342 54.121 386.737 c 54.121 303.245 l 3.309 266.483 l 3.266 
266.448 3.23 266.416 3.191 266.381 c 2.688 266.006 2.219 265.569 1.805 265.061
 c 0.695 263.702 0.113 262.088 0.02 260.459 c 0.008 260.33 0 260.186 0 259.998
 c 0 39.998 l 0 17.944 17.945 -0.002 40 -0.002 c 253.125 -0.002 l 257.543
 -0.002 261.125 3.58 261.125 7.998 c 261.125 12.416 257.543 15.998 253.125
 15.998 c 40 15.998 l 30.711 15.998 22.645 21.307 18.656 29.045 c 190.73
 153.557 l 199.145 159.643 210.453 159.647 218.867 153.557 c 390.945 29.045
 l 386.957 21.307 378.891 15.998 369.602 15.998 c 322.398 15.998 l 317.98
 15.998 314.398 12.416 314.398 7.998 c 314.398 3.58 317.98 -0.002 322.398
 -0.002 c 369.602 -0.002 l 391.656 -0.002 409.602 17.944 409.602 39.998 
c 409.602 259.998 l 409.602 260.198 409.59 260.366 409.574 260.518 c h
54.121 283.498 m 54.121 232.67 l 21.117 259.616 l h
16 46.873 m 16 243.139 l 143.441 139.088 l h
355.48 283.498 m 388.48 259.62 l 355.48 232.67 l h
393.602 46.873 m 266.16 139.088 l 393.602 243.139 l h
393.602 46.873 m f
296.176 13.655 m 294.688 15.143 292.633 15.998 290.52 15.998 c 288.414 
15.998 286.352 15.143 284.863 13.655 c 283.375 12.166 282.52 10.104 282.52
 7.998 c 282.52 5.897 283.375 3.83 284.863 2.346 c 286.352 0.858 288.414
 -0.002 290.52 -0.002 c 292.633 -0.002 294.688 0.858 296.176 2.346 c 297.664
 3.83 298.52 5.897 298.52 7.998 c 298.52 10.104 297.664 12.166 296.176 13.655
 c h
296.176 13.655 m f
278.941 247.303 m 252.738 273.506 l 248.523 277.721 242.922 280.041 236.961
 280.041 c 231 280.041 225.398 277.721 221.184 273.506 c 219.473 271.799
 l 218.695 271.022 217.789 270.905 217.312 270.905 c 216.844 270.905 215.934
 271.022 215.156 271.799 c 196.41 290.541 l 195.633 291.323 195.516 292.229
 195.516 292.702 c 195.516 293.174 195.633 294.084 196.41 294.862 c 198.121
 296.569 l 206.82 305.272 206.82 319.428 198.121 328.127 c 171.918 354.33
 l 167.703 358.545 162.098 360.866 156.137 360.866 c 150.18 360.866 144.574
 358.545 140.359 354.33 c 134.09 348.061 l 124.332 338.303 118.957 325.327
 118.957 311.526 c 118.957 297.729 124.332 284.752 134.09 274.995 c 199.605
 209.479 l 209.363 199.721 222.34 194.346 236.141 194.346 c 249.938 194.346
 262.914 199.721 272.672 209.479 c 278.941 215.748 l 287.641 224.448 287.641
 238.604 278.941 247.303 c h
267.629 227.061 m 261.359 220.791 l 254.621 214.057 245.664 210.346 236.141
 210.346 c 226.613 210.346 217.656 214.057 210.922 220.791 c 145.402 286.307
 l 138.668 293.045 134.957 302.002 134.957 311.526 c 134.957 321.053 138.668
 330.01 145.402 336.745 c 151.672 343.014 l 152.867 344.209 154.453 344.866
 156.137 344.866 c 157.824 344.866 159.41 344.209 160.602 343.014 c 186.805
 316.815 l 189.27 314.354 189.27 310.346 186.805 307.885 c 185.098 306.178
 l 177.668 298.748 177.668 286.659 185.098 279.229 c 203.84 260.487 l 207.441
 256.889 212.223 254.905 217.312 254.905 c 222.402 254.905 227.188 256.889
 230.789 260.487 c 232.496 262.194 l 234.957 264.655 238.965 264.655 241.426
 262.194 c 267.629 235.991 l 270.09 233.53 270.09 229.526 267.629 227.061
 c h
267.629 227.061 m f
223.602 366.221 m 219.184 366.221 215.602 362.639 215.602 358.221 c 215.602
 353.803 219.184 350.221 223.602 350.221 c 251.746 350.221 274.641 327.327
 274.641 299.182 c 274.641 294.764 278.223 291.182 282.641 291.182 c 287.059
 291.182 290.641 294.764 290.641 299.182 c 290.641 336.147 260.566 366.221
 223.602 366.221 c h
223.602 366.221 m f
223.602 332.487 m 219.184 332.487 215.602 328.905 215.602 324.487 c 215.602
 320.069 219.184 316.487 223.602 316.487 c 233.145 316.487 240.906 308.725
 240.906 299.182 c 240.906 294.764 244.488 291.182 248.906 291.182 c 253.324
 291.182 256.906 294.764 256.906 299.182 c 256.906 317.545 241.965 332.487
 223.602 332.487 c h
223.602 332.487 m f
Q Q
showpage
%%Trailer
end restore
%%EOF
