%!PS-Adobe-3.0 EPSF-3.0
%%Creator: cairo 1.14.2 (http://cairographics.org)
%%CreationDate: Thu Jul 26 08:51:17 2018
%%Pages: 1
%%DocumentData: Clean7Bit
%%LanguageLevel: 2
%%BoundingBox: 0 -1 410 410
%%EndComments
%%BeginProlog
save
50 dict begin
/q { gsave } bind def
/Q { grestore } bind def
/cm { 6 array astore concat } bind def
/w { setlinewidth } bind def
/J { setlinecap } bind def
/j { setlinejoin } bind def
/M { setmiterlimit } bind def
/d { setdash } bind def
/m { moveto } bind def
/l { lineto } bind def
/c { curveto } bind def
/h { closepath } bind def
/re { exch dup neg 3 1 roll 5 3 roll moveto 0 rlineto
      0 exch rlineto 0 rlineto closepath } bind def
/S { stroke } bind def
/f { fill } bind def
/f* { eofill } bind def
/n { newpath } bind def
/W { clip } bind def
/W* { eoclip } bind def
/BT { } bind def
/ET { } bind def
/pdfmark where { pop globaldict /?pdfmark /exec load put }
    { globaldict begin /?pdfmark /pop load def /pdfmark
    /cleartomark load def end } ifelse
/BDC { mark 3 1 roll /BDC pdfmark } bind def
/EMC { mark /EMC pdfmark } bind def
/cairo_store_point { /cairo_point_y exch def /cairo_point_x exch def } def
/Tj { show currentpoint cairo_store_point } bind def
/TJ {
  {
    dup
    type /stringtype eq
    { show } { -0.001 mul 0 cairo_font_matrix dtransform rmoveto } ifelse
  } forall
  currentpoint cairo_store_point
} bind def
/cairo_selectfont { cairo_font_matrix aload pop pop pop 0 0 6 array astore
    cairo_font exch selectfont cairo_point_x cairo_point_y moveto } bind def
/Tf { pop /cairo_font exch def /cairo_font_matrix where
      { pop cairo_selectfont } if } bind def
/Td { matrix translate cairo_font_matrix matrix concatmatrix dup
      /cairo_font_matrix exch def dup 4 get exch 5 get cairo_store_point
      /cairo_font where { pop cairo_selectfont } if } bind def
/Tm { 2 copy 8 2 roll 6 array astore /cairo_font_matrix exch def
      cairo_store_point /cairo_font where { pop cairo_selectfont } if } bind def
/g { setgray } bind def
/rg { setrgbcolor } bind def
/d1 { setcachedevice } bind def
%%EndProlog
%%BeginSetup
%%EndSetup
%%Page: 1 1
%%BeginPageSetup
%%PageBoundingBox: 0 -1 410 410
%%EndPageSetup
q 0 -1 410 411 rectclip q
0 g
210.457 90.295 m 208.969 91.784 206.902 92.631 204.801 92.631 c 202.695
 92.631 200.633 91.784 199.145 90.295 c 197.656 88.799 196.801 86.745 196.801
 84.631 c 196.801 82.53 197.656 80.471 199.145 78.975 c 200.633 77.491 202.695
 76.631 204.801 76.631 c 206.902 76.631 208.969 77.487 210.457 78.975 c 
211.945 80.463 212.801 82.53 212.801 84.631 c 212.801 86.745 211.945 88.799
 210.457 90.295 c h
210.457 90.295 m f
361.355 206.737 m 360.32 291.538 291.539 360.319 206.734 361.354 c 206.113
 361.51 203.484 361.51 202.863 361.354 c 118.062 360.319 49.281 291.538 
48.246 206.737 c 48.09 206.116 48 205.471 48 204.799 c 48 204.131 48.09 
203.483 48.246 202.862 c 49.289 117.416 119.109 48.221 204.801 48.221 c 
290.492 48.221 360.312 117.416 361.355 202.862 c 361.508 203.483 361.602
 204.131 361.602 204.799 c 361.602 205.467 361.508 206.116 361.355 206.737
 c h
309.445 298.561 m 303.035 295.034 296.148 292.565 288.977 291.209 c 286.477
 304.846 280.73 317.362 272.57 327.928 c 286.465 320.252 298.922 310.295
 309.445 298.561 c h
212.801 289.983 m 212.801 344.85 l 242.672 341.413 266.852 318.987 272.914
 289.983 c h
212.801 273.983 m 274.387 273.983 l 274.387 212.799 l 212.801 212.799 l
 h
212.801 196.799 m 274.387 196.799 l 274.387 135.616 l 212.801 135.616 l
 h
196.801 344.85 m 196.801 289.983 l 136.688 289.983 l 142.75 318.987 166.926
 341.413 196.801 344.85 c h
135.215 212.799 m 135.215 273.983 l 196.801 273.983 l 196.801 212.799 l
 h
196.801 196.799 m 196.801 135.616 l 135.215 135.616 l 135.215 196.799 l
 h
137.027 327.928 m 128.871 317.362 123.125 304.846 120.621 291.209 c 113.453
 292.565 106.562 295.034 100.156 298.561 c 110.676 310.295 123.137 320.252
 137.027 327.928 c h
90.051 285.92 m 99.07 280.565 108.922 276.959 119.215 275.213 c 119.215
 212.799 l 64.457 212.799 l 65.984 239.928 75.234 265.026 90.051 285.92 
c h
90.051 123.678 m 75.234 144.573 65.984 169.67 64.453 196.799 c 119.215 
196.799 l 119.215 134.389 l 108.922 132.639 99.07 129.034 90.051 123.678
 c h
100.156 111.038 m 106.559 114.565 113.445 117.034 120.609 118.389 c 123.098
 104.776 128.816 92.28 136.938 81.721 c 123.082 89.393 110.652 99.33 100.156
 111.038 c h
206.594 64.245 m 205.996 64.237 205.398 64.221 204.801 64.221 c 204.199
 64.221 203.605 64.237 203.008 64.245 c 170.293 65.077 143.125 88.596 136.672
 119.62 c 196.801 119.62 l 196.801 113.209 l 196.801 108.791 200.383 105.209
 204.801 105.209 c 209.219 105.209 212.801 108.791 212.801 113.209 c 212.801
 119.62 l 272.93 119.62 l 266.477 88.596 239.305 65.077 206.594 64.245 c
 h
272.664 81.721 m 280.785 92.28 286.504 104.776 288.992 118.389 c 296.156
 117.034 303.039 114.565 309.445 111.038 c 298.945 99.33 286.52 89.393 272.664
 81.721 c h
319.551 123.678 m 310.531 129.034 300.68 132.639 290.387 134.389 c 290.387
 196.799 l 345.145 196.799 l 343.617 169.67 334.363 144.573 319.551 123.678
 c h
290.387 212.799 m 290.387 275.213 l 300.68 276.959 310.527 280.565 319.551
 285.92 c 334.363 265.026 343.617 239.928 345.145 212.799 c h
290.387 212.799 m f
343.809 372.612 m 338.137 372.612 332.848 370.955 328.383 368.112 c 311.762
 380.713 293.441 390.651 273.84 397.67 c 251.727 405.584 228.5 409.6 204.801
 409.6 c 159.766 409.6 117.043 395.264 81.242 368.143 c 77.719 365.475 77.027
 360.455 79.695 356.936 c 82.363 353.413 87.383 352.721 90.902 355.389 c
 123.898 380.385 163.285 393.6 204.801 393.6 c 246.074 393.6 284.988 380.643
 317.762 356.084 c 316 352.358 315.012 348.198 315.012 343.811 c 315.012
 327.932 327.93 315.01 343.809 315.01 c 359.691 315.01 372.609 327.932 372.609
 343.811 c 372.609 359.694 359.691 372.612 343.809 372.612 c h
343.809 331.01 m 336.754 331.01 331.012 336.752 331.012 343.811 c 331.012
 350.87 336.754 356.612 343.809 356.612 c 350.867 356.612 356.609 350.87
 356.609 343.811 c 356.609 336.752 350.867 331.01 343.809 331.01 c h
343.809 331.01 m f
69.41 347.885 m 66.238 350.955 61.129 350.823 58.055 347.659 c 54.98 344.491
 54.996 339.381 58.16 336.299 c 59.703 334.799 61.707 334.057 63.715 334.057
 c 65.824 334.057 67.938 334.877 69.516 336.495 c 69.527 336.506 69.535 
336.514 69.547 336.526 c 72.613 339.702 72.578 344.811 69.41 347.885 c h
69.41 347.885 m f
397.113 275.358 m 400.66 274.147 404.68 275.565 406.621 278.936 c 408.828
 282.764 407.512 287.655 403.688 289.862 c 380.324 303.323 l 377.848 304.752
 374.797 304.748 372.324 303.319 c 369.848 301.885 368.328 299.245 368.328
 296.385 c 368.352 269.424 l 368.355 265.006 371.934 261.428 376.352 261.428
 c 376.359 261.428 l 379.496 261.432 382.203 263.245 383.512 265.877 c 390.211
 246.33 393.602 225.87 393.602 204.799 c 393.602 100.694 308.906 15.998 
204.801 15.998 c 100.695 15.998 16 100.694 16 204.799 c 16 244.233 28.031
 282.006 50.789 314.034 c 53.348 317.635 52.504 322.627 48.902 325.186 c
 45.301 327.748 40.305 326.901 37.746 323.299 c 13.051 288.549 0 247.573
 0 204.799 c 0 150.096 21.301 98.666 59.984 59.983 c 98.668 21.303 150.098
 -0.002 204.801 -0.002 c 259.504 -0.002 310.934 21.303 349.613 59.983 c 
388.297 98.666 409.602 150.096 409.602 204.799 c 409.602 229.202 405.398
 252.854 397.113 275.358 c h
397.113 275.358 m f
Q Q
showpage
%%Trailer
end restore
%%EOF
