%!PS-Adobe-3.0 EPSF-3.0
%%Creator: cairo 1.14.2 (http://cairographics.org)
%%CreationDate: Thu Jul 26 08:51:17 2018
%%Pages: 1
%%DocumentData: Clean7Bit
%%LanguageLevel: 2
%%BoundingBox: 0 -1 410 410
%%EndComments
%%BeginProlog
save
50 dict begin
/q { gsave } bind def
/Q { grestore } bind def
/cm { 6 array astore concat } bind def
/w { setlinewidth } bind def
/J { setlinecap } bind def
/j { setlinejoin } bind def
/M { setmiterlimit } bind def
/d { setdash } bind def
/m { moveto } bind def
/l { lineto } bind def
/c { curveto } bind def
/h { closepath } bind def
/re { exch dup neg 3 1 roll 5 3 roll moveto 0 rlineto
      0 exch rlineto 0 rlineto closepath } bind def
/S { stroke } bind def
/f { fill } bind def
/f* { eofill } bind def
/n { newpath } bind def
/W { clip } bind def
/W* { eoclip } bind def
/BT { } bind def
/ET { } bind def
/pdfmark where { pop globaldict /?pdfmark /exec load put }
    { globaldict begin /?pdfmark /pop load def /pdfmark
    /cleartomark load def end } ifelse
/BDC { mark 3 1 roll /BDC pdfmark } bind def
/EMC { mark /EMC pdfmark } bind def
/cairo_store_point { /cairo_point_y exch def /cairo_point_x exch def } def
/Tj { show currentpoint cairo_store_point } bind def
/TJ {
  {
    dup
    type /stringtype eq
    { show } { -0.001 mul 0 cairo_font_matrix dtransform rmoveto } ifelse
  } forall
  currentpoint cairo_store_point
} bind def
/cairo_selectfont { cairo_font_matrix aload pop pop pop 0 0 6 array astore
    cairo_font exch selectfont cairo_point_x cairo_point_y moveto } bind def
/Tf { pop /cairo_font exch def /cairo_font_matrix where
      { pop cairo_selectfont } if } bind def
/Td { matrix translate cairo_font_matrix matrix concatmatrix dup
      /cairo_font_matrix exch def dup 4 get exch 5 get cairo_store_point
      /cairo_font where { pop cairo_selectfont } if } bind def
/Tm { 2 copy 8 2 roll 6 array astore /cairo_font_matrix exch def
      cairo_store_point /cairo_font where { pop cairo_selectfont } if } bind def
/g { setgray } bind def
/rg { setrgbcolor } bind def
/d1 { setcachedevice } bind def
%%EndProlog
%%BeginSetup
%%EndSetup
%%Page: 1 1
%%BeginPageSetup
%%PageBoundingBox: 0 -1 410 410
%%EndPageSetup
q 0 -1 410 411 rectclip q
0 g
294.711 322.999 m 293.223 324.488 291.168 325.343 289.055 325.343 c 286.949
 325.343 284.887 324.488 283.398 322.999 c 281.91 321.511 281.055 319.448
 281.055 317.343 c 281.055 315.23 281.91 313.175 283.398 311.687 c 284.887
 310.191 286.949 309.343 289.055 309.343 c 291.164 309.343 293.223 310.191
 294.711 311.687 c 296.207 313.175 297.055 315.23 297.055 317.343 c 297.055
 319.448 296.207 321.511 294.711 322.999 c h
294.711 322.999 m f
196.949 383.87 m 192.531 383.87 188.949 380.288 188.949 375.866 c 188.949
 371.448 192.531 367.866 196.949 367.866 c 197.016 367.866 l 201.434 367.866
 204.984 371.448 204.984 375.866 c 204.984 380.284 201.367 383.87 196.949
 383.87 c h
196.949 383.87 m f
228.145 383.87 m 223.727 383.87 220.141 380.288 220.141 375.866 c 220.141
 371.448 223.723 367.866 228.145 367.866 c 228.207 367.866 l 232.625 367.866
 236.176 371.448 236.176 375.866 c 236.176 380.284 232.562 383.87 228.145
 383.87 c h
228.145 383.87 m f
259.336 383.87 m 254.918 383.87 251.336 380.288 251.336 375.866 c 251.336
 371.448 254.918 367.866 259.336 367.866 c 259.398 367.866 l 263.82 367.866
 267.367 371.448 267.367 375.866 c 267.367 380.284 263.754 383.87 259.336
 383.87 c h
259.336 383.87 m f
373.734 383.87 m 304.789 383.87 l 300.371 383.87 296.789 380.288 296.789
 375.87 c 296.789 371.452 300.371 367.866 304.789 367.866 c 373.734 367.866
 l 378.156 367.866 381.738 371.448 381.738 375.87 c 381.738 380.288 378.156
 383.87 373.734 383.87 c h
373.734 383.87 m f
252.09 210.437 m 250.594 211.925 248.539 212.78 246.434 212.78 c 244.32
 212.78 242.266 211.925 240.77 210.437 c 239.281 208.948 238.426 206.886
 238.426 204.78 c 238.426 202.675 239.281 200.613 240.77 199.124 c 242.266
 197.636 244.32 196.78 246.434 196.78 c 248.535 196.78 250.594 197.636 252.09
 199.124 c 253.578 200.613 254.434 202.675 254.434 204.78 c 254.434 206.886
 253.578 208.948 252.09 210.437 c h
252.09 210.437 m f
388.391 409.601 m 182.328 409.601 l 170.633 409.601 161.117 400.085 161.117
 388.39 c 161.117 217.991 l 161.117 206.296 170.633 196.78 182.328 196.78
 c 211.078 196.78 l 215.496 196.78 219.078 200.363 219.078 204.78 c 219.078
 209.202 215.5 212.784 211.078 212.784 c 182.328 212.784 l 179.453 212.784
 177.117 215.12 177.117 217.991 c 177.117 342.136 l 393.598 342.136 l 393.598
 217.991 l 393.598 215.12 391.262 212.78 388.391 212.78 c 279.559 212.78
 l 275.137 212.78 271.555 209.198 271.555 204.78 c 271.555 200.363 275.137
 196.78 279.559 196.78 c 388.391 196.78 l 400.086 196.78 409.602 206.296
 409.602 217.991 c 409.602 388.39 l 409.602 400.085 400.086 409.601 388.391
 409.601 c h
393.598 358.136 m 177.117 358.136 l 177.117 388.39 l 177.117 391.261 179.453
 393.597 182.328 393.597 c 388.391 393.597 l 391.262 393.597 393.598 391.261
 393.598 388.39 c h
393.598 358.136 m f
90.5 83.3 m 89.012 84.788 86.945 85.644 84.844 85.644 c 82.738 85.644 80.676
 84.788 79.188 83.3 c 77.699 81.812 76.84 79.745 76.84 77.64 c 76.84 75.538
 77.699 73.472 79.188 71.988 c 80.672 70.491 82.738 69.64 84.844 69.64 c
 86.945 69.64 89.012 70.491 90.5 71.988 c 91.988 73.472 92.844 75.53 92.844
 77.64 c 92.844 79.745 91.988 81.812 90.5 83.3 c h
90.5 83.3 m f
249.035 76.851 m 206.879 119.007 l 194.781 131.101 175.094 131.105 162.996
 119.003 c 160.25 116.257 l 156.438 112.441 150.227 112.441 146.414 116.257
 c 116.258 146.409 l 114.41 148.261 113.395 150.714 113.395 153.331 c 113.395
 155.945 114.41 158.402 116.262 160.249 c 119.008 162.995 l 131.105 175.093
 131.105 194.78 119.008 206.878 c 76.852 249.034 l 64.754 261.132 45.066
 261.132 32.969 249.034 c 22.883 238.948 l -7.629 208.437 -7.629 158.796
 22.883 128.288 c 54.383 96.784 l 57.504 93.663 62.57 93.663 65.695 96.784
 c 68.82 99.909 68.82 104.976 65.695 108.101 c 34.199 139.601 l 12.293 161.503
 10.164 195.8 27.797 220.12 c 67.016 180.905 l 68.578 179.343 70.625 178.562
 72.672 178.562 c 74.719 178.562 76.77 179.343 78.332 180.905 c 81.453 184.027
 81.453 189.093 78.332 192.218 c 38.559 231.991 l 44.285 237.718 l 50.145
 243.577 59.68 243.577 65.539 237.718 c 107.691 195.566 l 113.555 189.706
 113.555 180.171 107.691 174.312 c 104.945 171.566 l 100.074 166.695 97.395
 160.218 97.395 153.331 c 97.395 146.445 100.074 139.968 104.945 135.097
 c 135.098 104.945 l 145.152 94.894 161.512 94.894 171.566 104.945 c 174.312
 107.695 l 180.172 113.554 189.707 113.554 195.566 107.695 c 237.723 65.538
 l 240.559 62.698 242.125 58.925 242.125 54.913 c 242.125 50.898 240.559
 47.124 237.723 44.288 c 231.992 38.558 l 193.625 76.929 l 190.5 80.05 185.434
 80.05 182.309 76.929 c 179.184 73.804 179.184 68.738 182.309 65.613 c 220.125
 27.796 l 195.801 10.167 161.504 12.296 139.602 34.198 c 110.637 63.167 
l 107.512 66.288 102.445 66.288 99.32 63.167 c 96.199 60.042 96.195 54.976
 99.32 51.851 c 128.289 22.886 l 143.543 7.628 163.582 0.003 183.617 0.003
 c 203.656 0.003 223.695 7.628 238.949 22.886 c 249.035 32.972 l 254.898
 38.831 258.125 46.624 258.125 54.909 c 258.125 63.198 254.895 70.991 249.035
 76.851 c h
249.035 76.851 m f
308.055 244.784 m 297.059 244.784 l 297.059 289.191 l 297.059 293.609 293.477
 297.191 289.055 297.191 c 276.883 297.191 l 272.465 297.191 268.883 293.609
 268.883 289.191 c 268.883 284.773 272.465 281.187 276.883 281.187 c 281.055
 281.187 l 281.055 244.784 l 270.059 244.784 l 265.637 244.784 262.055 241.202
 262.055 236.784 c 262.055 232.366 265.637 228.784 270.059 228.784 c 308.055
 228.784 l 312.473 228.784 316.055 232.366 316.055 236.784 c 316.055 241.202
 312.473 244.784 308.055 244.784 c h
308.055 244.784 m f
321.191 59.167 m 313.191 59.167 l 308.773 59.167 305.191 55.585 305.191
 51.167 c 305.191 46.749 308.773 43.167 313.191 43.167 c 321.191 43.167 
l 325.609 43.167 329.191 46.749 329.191 51.167 c 329.191 55.585 325.609 
59.167 321.191 59.167 c h
321.191 59.167 m f
358.395 61.968 m 355.938 61.968 353.738 60.859 352.27 59.116 c 348.289 
58.659 345.195 55.273 345.195 51.167 c 345.195 46.749 348.773 43.167 353.195
 43.167 c 358.395 43.167 l 362.812 43.167 366.395 46.749 366.395 51.167 
c 366.395 53.968 l 366.395 58.386 362.812 61.968 358.395 61.968 c h
358.395 61.968 m f
358.395 181.98 m 353.977 181.98 350.395 178.398 350.395 173.98 c 350.395
 165.976 l 350.395 161.558 353.977 157.976 358.395 157.976 c 362.812 157.976
 366.395 161.558 366.395 165.976 c 366.395 173.98 l 366.395 178.398 362.812
 181.98 358.395 181.98 c h
358.395 181.98 m f
358.395 141.976 m 353.977 141.976 350.395 138.394 350.395 133.976 c 350.395
 125.976 l 350.395 121.558 353.977 117.972 358.395 117.972 c 362.812 117.972
 366.395 121.558 366.395 125.976 c 366.395 133.976 l 366.395 138.394 362.812
 141.976 358.395 141.976 c h
358.395 141.976 m f
358.395 101.972 m 353.977 101.972 350.395 98.39 350.395 93.972 c 350.395
 85.972 l 350.395 81.554 353.977 77.968 358.395 77.968 c 362.812 77.968 
366.395 81.554 366.395 85.972 c 366.395 93.972 l 366.395 98.39 362.812 101.972
 358.395 101.972 c h
358.395 101.972 m f
99.172 366.398 m 91.172 366.398 l 86.754 366.398 83.172 362.812 83.172 
358.394 c 83.172 353.976 86.754 350.394 91.172 350.394 c 99.172 350.394 
l 103.59 350.394 107.172 353.976 107.172 358.394 c 107.172 362.812 103.59
 366.398 99.172 366.398 c h
99.172 366.398 m f
139.176 366.398 m 131.176 366.398 l 126.758 366.398 123.172 362.812 123.172
 358.394 c 123.172 353.976 126.758 350.394 131.176 350.394 c 139.176 350.394
 l 143.594 350.394 147.176 353.976 147.176 358.394 c 147.176 362.812 143.594
 366.398 139.176 366.398 c h
139.176 366.398 m f
51.168 334.394 m 46.75 334.394 43.168 330.812 43.168 326.394 c 43.168 318.39
 l 43.168 313.972 46.75 310.39 51.168 310.39 c 55.586 310.39 59.168 313.972
 59.168 318.39 c 59.168 326.394 l 59.168 330.812 55.586 334.394 51.168 334.394
 c h
51.168 334.394 m f
51.168 294.39 m 46.75 294.39 43.168 290.808 43.168 286.39 c 43.168 278.39
 l 43.168 273.968 46.75 270.386 51.168 270.386 c 55.586 270.386 59.168 273.968
 59.168 278.39 c 59.168 286.39 l 59.168 290.808 55.586 294.39 51.168 294.39
 c h
51.168 294.39 m f
59.168 366.398 m 51.168 366.398 l 46.75 366.398 43.168 362.812 43.168 358.394
 c 43.168 353.976 46.75 350.394 51.168 350.394 c 59.168 350.394 l 63.586
 350.394 67.168 353.976 67.168 358.394 c 67.168 362.812 63.586 366.398 59.168
 366.398 c h
59.168 366.398 m f
Q Q
showpage
%%Trailer
end restore
%%EOF
