%!PS-Adobe-3.0 EPSF-3.0
%%Creator: cairo 1.14.2 (http://cairographics.org)
%%CreationDate: Thu Jul 26 08:51:17 2018
%%Pages: 1
%%DocumentData: Clean7Bit
%%LanguageLevel: 2
%%BoundingBox: 24 -1 386 410
%%EndComments
%%BeginProlog
save
50 dict begin
/q { gsave } bind def
/Q { grestore } bind def
/cm { 6 array astore concat } bind def
/w { setlinewidth } bind def
/J { setlinecap } bind def
/j { setlinejoin } bind def
/M { setmiterlimit } bind def
/d { setdash } bind def
/m { moveto } bind def
/l { lineto } bind def
/c { curveto } bind def
/h { closepath } bind def
/re { exch dup neg 3 1 roll 5 3 roll moveto 0 rlineto
      0 exch rlineto 0 rlineto closepath } bind def
/S { stroke } bind def
/f { fill } bind def
/f* { eofill } bind def
/n { newpath } bind def
/W { clip } bind def
/W* { eoclip } bind def
/BT { } bind def
/ET { } bind def
/pdfmark where { pop globaldict /?pdfmark /exec load put }
    { globaldict begin /?pdfmark /pop load def /pdfmark
    /cleartomark load def end } ifelse
/BDC { mark 3 1 roll /BDC pdfmark } bind def
/EMC { mark /EMC pdfmark } bind def
/cairo_store_point { /cairo_point_y exch def /cairo_point_x exch def } def
/Tj { show currentpoint cairo_store_point } bind def
/TJ {
  {
    dup
    type /stringtype eq
    { show } { -0.001 mul 0 cairo_font_matrix dtransform rmoveto } ifelse
  } forall
  currentpoint cairo_store_point
} bind def
/cairo_selectfont { cairo_font_matrix aload pop pop pop 0 0 6 array astore
    cairo_font exch selectfont cairo_point_x cairo_point_y moveto } bind def
/Tf { pop /cairo_font exch def /cairo_font_matrix where
      { pop cairo_selectfont } if } bind def
/Td { matrix translate cairo_font_matrix matrix concatmatrix dup
      /cairo_font_matrix exch def dup 4 get exch 5 get cairo_store_point
      /cairo_font where { pop cairo_selectfont } if } bind def
/Tm { 2 copy 8 2 roll 6 array astore /cairo_font_matrix exch def
      cairo_store_point /cairo_font where { pop cairo_selectfont } if } bind def
/g { setgray } bind def
/rg { setrgbcolor } bind def
/d1 { setcachedevice } bind def
%%EndProlog
%%BeginSetup
%%EndSetup
%%Page: 1 1
%%BeginPageSetup
%%PageBoundingBox: 24 -1 386 410
%%EndPageSetup
q 24 -1 362 411 rectclip q
0 g
114.133 60.799 m 89.602 60.799 l 85.18 60.799 81.602 57.217 81.602 52.799
 c 81.602 48.381 85.18 44.799 89.602 44.799 c 114.133 44.799 l 118.551 44.799
 122.133 48.381 122.133 52.799 c 122.133 57.217 118.551 60.799 114.133 60.799
 c h
114.133 60.799 m f
148.473 58.455 m 146.984 59.944 144.922 60.799 142.816 60.799 c 140.703
 60.799 138.648 59.944 137.16 58.455 c 135.672 56.967 134.816 54.905 134.816
 52.799 c 134.816 50.698 135.672 48.631 137.16 47.143 c 138.648 45.659 140.703
 44.799 142.816 44.799 c 144.922 44.799 146.984 45.655 148.473 47.143 c 
149.961 48.631 150.816 50.698 150.816 52.799 c 150.816 54.913 149.961 56.967
 148.473 58.455 c h
148.473 58.455 m f
370.438 133.014 m 360.52 146.198 346.898 155.584 331.047 160.155 c 260.051
 180.635 l 271.438 190.034 280.102 202.233 285.266 215.897 c 300.207 215.897
 l 315.082 215.897 327.18 227.998 327.18 242.87 c 327.18 277.166 l 327.18
 285.061 323.773 292.174 318.352 297.108 c 317.824 359.229 267.176 409.6
 204.98 409.6 c 142.895 409.6 92.312 359.401 91.617 297.432 c 85.984 292.483
 82.418 285.237 82.418 277.17 c 82.418 242.87 l 82.418 227.998 94.52 215.897
 109.391 215.897 c 124.82 215.897 l 129.961 202.288 138.582 190.131 149.91
 180.741 c 78.555 160.155 l 62.703 155.58 49.078 146.198 39.16 133.01 c 
29.242 119.827 24 104.139 24 87.639 c 24 7.998 l 24 3.58 27.582 -0.002 32
 -0.002 c 377.602 -0.002 l 382.02 -0.002 385.602 3.58 385.602 7.998 c 385.602
 87.639 l 385.602 104.139 380.359 119.827 370.438 133.014 c h
311.18 277.166 m 311.18 242.87 l 311.18 236.819 306.262 231.897 300.211
 231.897 c 289.566 231.897 l 290.305 236.381 290.691 240.952 290.691 245.573
 c 290.691 288.139 l 300.211 288.139 l 306.262 288.139 311.18 283.217 311.18
 277.166 c h
109.391 231.897 m 103.34 231.897 98.418 236.823 98.418 242.87 c 98.418 
277.17 l 98.418 283.221 103.34 288.139 109.391 288.139 c 119.398 288.139
 l 119.395 288.092 119.391 288.049 119.391 287.998 c 119.391 245.573 l 119.391
 240.952 119.777 236.381 120.516 231.897 c h
119.711 304.143 m 109.391 304.143 l 108.898 304.143 108.41 304.127 107.926
 304.1 c 111.992 354.131 153.965 393.6 204.98 393.6 c 256.008 393.6 297.988
 354.116 302.039 304.073 c 301.434 304.112 300.824 304.139 300.211 304.139
 c 290.453 304.139 l 290.367 304.487 290.262 304.827 290.133 305.155 c 286.039
 348.577 249.41 382.666 204.969 382.666 c 160.18 382.666 123.324 348.045
 119.711 304.143 c h
135.414 297.053 m 135.414 335.436 166.617 366.666 204.969 366.666 c 235.348
 366.666 261.234 347.069 270.688 319.842 c 251.34 306.506 l 241.371 299.635
 229.699 295.998 217.586 295.998 c 135.34 295.998 l 135.383 296.346 135.414
 296.694 135.414 297.053 c h
135.391 245.573 m 135.391 279.998 l 217.586 279.998 l 232.957 279.998 247.77
 284.612 260.422 293.334 c 274.273 302.881 l 274.434 300.959 274.52 299.014
 274.52 297.053 c 274.52 296.487 274.578 295.936 274.691 295.405 c 274.691
 245.573 l 274.691 235.182 272.301 225.112 267.93 216.034 c 235.66 216.034
 l 232.93 224.78 224.758 231.143 215.125 231.143 c 204.902 231.143 l 193.039
 231.143 183.391 221.495 183.391 209.631 c 183.391 197.772 193.039 188.123
 204.902 188.123 c 215.125 188.123 l 223.539 188.123 230.832 192.979 234.367
 200.034 c 257.227 200.034 l 252.367 194.62 246.613 189.936 240.105 186.248
 c 218.504 173.987 191.66 173.971 170.004 186.233 c 169.973 186.252 l 148.641
 198.33 135.391 221.061 135.391 245.573 c h
220.637 209.631 m 220.637 206.592 218.164 204.123 215.125 204.123 c 204.902
 204.123 l 201.863 204.123 199.391 206.592 199.391 209.631 c 199.391 212.67
 201.863 215.143 204.902 215.143 c 215.125 215.143 l 218.164 215.143 220.637
 212.67 220.637 209.631 c h
252.691 138.268 m 216.633 161.823 l 226.574 163.147 236.32 166.17 245.383
 170.909 c h
193.055 161.881 m 156.906 138.268 l 164.27 171.139 l 173.336 166.334 183.094
 163.252 193.055 161.881 c h
369.602 15.998 m 212.879 15.998 l 212.984 16.518 213.039 17.053 213.039
 17.6 c 213.039 91.202 l 213.039 95.62 209.461 99.202 205.039 99.202 c 200.621
 99.202 197.039 95.62 197.039 91.202 c 197.039 17.6 l 197.039 17.053 197.098
 16.518 197.203 15.998 c 40 15.998 l 40 87.639 l 40 113.983 57.676 137.479
 82.988 144.784 c 146.043 162.971 l 136.992 122.549 l 136.281 119.37 137.566
 116.08 140.242 114.225 c 142.918 112.37 146.449 112.323 149.176 114.104
 c 204.801 150.444 l 260.426 114.104 l 261.754 113.233 263.277 112.799 264.801
 112.799 c 266.395 112.799 267.988 113.276 269.359 114.225 c 272.031 116.08
 273.316 119.37 272.605 122.545 c 263.559 162.971 l 326.609 144.78 l 351.922
 137.479 369.602 113.983 369.602 87.639 c h
369.602 15.998 m f
179.273 261.6 m 177.785 263.088 175.727 263.944 173.617 263.944 c 171.512
 263.944 169.449 263.088 167.961 261.6 c 166.473 260.112 165.617 258.049
 165.617 255.944 c 165.617 253.838 166.473 251.776 167.961 250.288 c 169.449
 248.799 171.512 247.944 173.617 247.944 c 175.719 247.944 177.785 248.799
 179.273 250.288 c 180.77 251.776 181.617 253.838 181.617 255.944 c 181.617
 258.049 180.77 260.112 179.273 261.6 c h
179.273 261.6 m f
242.121 261.6 m 240.633 263.088 238.566 263.944 236.465 263.944 c 234.359
 263.944 232.297 263.088 230.809 261.6 c 229.32 260.112 228.465 258.049 
228.465 255.944 c 228.465 253.838 229.32 251.776 230.809 250.288 c 232.297
 248.799 234.359 247.944 236.465 247.944 c 238.566 247.944 240.633 248.799
 242.121 250.288 c 243.609 251.776 244.465 253.838 244.465 255.944 c 244.465
 258.049 243.609 260.112 242.121 261.6 c h
242.121 261.6 m f
210.695 128.881 m 209.207 130.37 207.145 131.225 205.039 131.225 c 202.938
 131.225 200.871 130.37 199.383 128.881 c 197.895 127.393 197.039 125.334
 197.039 123.225 c 197.039 121.12 197.895 119.057 199.383 117.569 c 200.871
 116.08 202.938 115.225 205.039 115.225 c 207.145 115.225 209.207 116.08
 210.695 117.569 c 212.184 119.057 213.039 121.12 213.039 123.225 c 213.039
 125.327 212.184 127.393 210.695 128.881 c h
210.695 128.881 m f
Q Q
showpage
%%Trailer
end restore
%%EOF
