%!PS-Adobe-3.0 EPSF-3.0
%%Creator: cairo 1.14.2 (http://cairographics.org)
%%CreationDate: Thu Jul 26 08:51:17 2018
%%Pages: 1
%%DocumentData: Clean7Bit
%%LanguageLevel: 2
%%BoundingBox: 0 -1 410 410
%%EndComments
%%BeginProlog
save
50 dict begin
/q { gsave } bind def
/Q { grestore } bind def
/cm { 6 array astore concat } bind def
/w { setlinewidth } bind def
/J { setlinecap } bind def
/j { setlinejoin } bind def
/M { setmiterlimit } bind def
/d { setdash } bind def
/m { moveto } bind def
/l { lineto } bind def
/c { curveto } bind def
/h { closepath } bind def
/re { exch dup neg 3 1 roll 5 3 roll moveto 0 rlineto
      0 exch rlineto 0 rlineto closepath } bind def
/S { stroke } bind def
/f { fill } bind def
/f* { eofill } bind def
/n { newpath } bind def
/W { clip } bind def
/W* { eoclip } bind def
/BT { } bind def
/ET { } bind def
/pdfmark where { pop globaldict /?pdfmark /exec load put }
    { globaldict begin /?pdfmark /pop load def /pdfmark
    /cleartomark load def end } ifelse
/BDC { mark 3 1 roll /BDC pdfmark } bind def
/EMC { mark /EMC pdfmark } bind def
/cairo_store_point { /cairo_point_y exch def /cairo_point_x exch def } def
/Tj { show currentpoint cairo_store_point } bind def
/TJ {
  {
    dup
    type /stringtype eq
    { show } { -0.001 mul 0 cairo_font_matrix dtransform rmoveto } ifelse
  } forall
  currentpoint cairo_store_point
} bind def
/cairo_selectfont { cairo_font_matrix aload pop pop pop 0 0 6 array astore
    cairo_font exch selectfont cairo_point_x cairo_point_y moveto } bind def
/Tf { pop /cairo_font exch def /cairo_font_matrix where
      { pop cairo_selectfont } if } bind def
/Td { matrix translate cairo_font_matrix matrix concatmatrix dup
      /cairo_font_matrix exch def dup 4 get exch 5 get cairo_store_point
      /cairo_font where { pop cairo_selectfont } if } bind def
/Tm { 2 copy 8 2 roll 6 array astore /cairo_font_matrix exch def
      cairo_store_point /cairo_font where { pop cairo_selectfont } if } bind def
/g { setgray } bind def
/rg { setrgbcolor } bind def
/d1 { setcachedevice } bind def
%%EndProlog
%%BeginSetup
%%EndSetup
%%Page: 1 1
%%BeginPageSetup
%%PageBoundingBox: 0 -1 410 410
%%EndPageSetup
q 0 -1 410 411 rectclip q
0 g
331.254 312.858 m 329.77 314.342 327.703 315.202 325.602 315.202 c 323.496
 315.202 321.434 314.342 319.945 312.858 c 318.457 311.37 317.602 309.303
 317.602 307.202 c 317.602 305.096 318.457 303.034 319.945 301.545 c 321.434
 300.057 323.496 299.202 325.602 299.202 c 327.703 299.202 329.77 300.057
 331.254 301.545 c 332.742 303.034 333.602 305.096 333.602 307.202 c 333.602
 309.303 332.742 311.37 331.254 312.858 c h
331.254 312.858 m f
385.602 315.202 m 358.402 315.202 l 353.984 315.202 350.402 311.62 350.402
 307.202 c 350.402 302.78 353.984 299.202 358.402 299.202 c 385.602 299.202
 l 390.012 299.202 393.602 295.612 393.602 291.202 c 393.602 23.998 l 393.602
 19.588 390.012 15.998 385.602 15.998 c 164.801 15.998 l 160.391 15.998 
156.801 19.588 156.801 23.998 c 156.801 190.401 l 156.801 194.819 153.219
 198.401 148.801 198.401 c 144.383 198.401 140.801 194.819 140.801 190.401
 c 140.801 23.998 l 140.801 10.768 151.566 -0.002 164.801 -0.002 c 385.602
 -0.002 l 398.832 -0.002 409.602 10.768 409.602 23.998 c 409.602 291.202
 l 409.602 304.432 398.832 315.202 385.602 315.202 c h
385.602 315.202 m f
155.191 284.862 m 136.043 344.061 l 134.977 347.362 131.902 349.6 128.43
 349.6 c 124.961 349.6 121.887 347.362 120.82 344.061 c 101.672 284.862 
l 100.312 280.659 102.621 276.147 106.824 274.788 c 111.027 273.424 115.539
 275.737 116.898 279.94 c 120.148 289.995 l 136.711 289.995 l 139.965 279.94
 l 141.062 276.553 144.199 274.397 147.574 274.397 c 148.391 274.397 149.223
 274.526 150.039 274.788 c 154.242 276.147 156.547 280.659 155.191 284.862
 c h
125.324 305.995 m 128.43 315.604 l 131.539 305.995 l h
125.324 305.995 m f
82.461 306.678 m 78.043 306.678 74.461 303.1 74.461 298.678 c 74.461 294.116
 70.742 290.401 66.18 290.401 c 61.613 290.401 57.898 294.116 57.898 298.678
 c 57.898 325.319 l 57.898 329.885 61.613 333.6 66.18 333.6 c 70.742 333.6
 74.461 329.885 74.461 325.319 c 74.461 320.901 78.043 317.319 82.461 317.319
 c 86.875 317.319 90.461 320.901 90.461 325.319 c 90.461 338.709 79.566 
349.6 66.18 349.6 c 52.793 349.6 41.898 338.709 41.898 325.319 c 41.898 
298.678 l 41.898 285.291 52.789 274.401 66.18 274.401 c 79.566 274.401 90.461
 285.291 90.461 298.678 c 90.461 303.1 86.875 306.678 82.461 306.678 c h
82.461 306.678 m f
198.949 290.401 m 188.957 290.401 l 188.957 341.6 l 188.957 346.018 185.375
 349.6 180.957 349.6 c 176.539 349.6 172.957 346.018 172.957 341.6 c 172.957
 282.401 l 172.957 277.983 176.539 274.401 180.957 274.401 c 198.949 274.401
 l 203.367 274.401 206.949 277.983 206.949 282.401 c 206.949 286.819 203.367
 290.401 198.949 290.401 c h
198.949 290.401 m f
247.703 290.401 m 237.711 290.401 l 237.711 341.6 l 237.711 346.018 234.129
 349.6 229.711 349.6 c 225.293 349.6 221.711 346.018 221.711 341.6 c 221.711
 282.401 l 221.711 277.983 225.293 274.401 229.711 274.401 c 247.703 274.401
 l 252.121 274.401 255.703 277.983 255.703 282.401 c 255.703 286.819 252.121
 290.401 247.703 290.401 c h
247.703 290.401 m f
273.602 409.6 m 24 409.6 l 10.766 409.6 0 398.834 0 385.6 c 0 238.401 l
 0 225.166 10.766 214.401 24 214.401 c 273.602 214.401 l 286.832 214.401
 297.602 225.166 297.602 238.401 c 297.602 385.6 l 297.602 398.834 286.832
 409.6 273.602 409.6 c h
281.602 238.401 m 281.602 233.991 278.012 230.401 273.602 230.401 c 24 
230.401 l 19.59 230.401 16 233.991 16 238.401 c 16 385.6 l 16 390.01 19.59
 393.6 24 393.6 c 273.602 393.6 l 278.012 393.6 281.602 390.01 281.602 385.6
 c h
281.602 238.401 m f
355.586 145.6 m 272.801 145.6 l 268.383 145.6 264.801 142.018 264.801 137.6
 c 264.801 133.182 268.383 129.6 272.801 129.6 c 355.586 129.6 l 360.004
 129.6 363.586 133.182 363.586 137.6 c 363.586 142.018 360.004 145.6 355.586
 145.6 c h
355.586 145.6 m f
325.066 59.202 m 272.801 59.202 l 268.383 59.202 264.801 55.62 264.801 
51.202 c 264.801 46.784 268.383 43.202 272.801 43.202 c 325.066 43.202 l
 329.484 43.202 333.066 46.784 333.066 51.202 c 333.066 55.62 329.484 59.202
 325.066 59.202 c h
325.066 59.202 m f
361.238 56.858 m 359.75 58.346 357.695 59.202 355.582 59.202 c 353.48 59.202
 351.414 58.346 349.93 56.858 c 348.441 55.37 347.582 53.303 347.582 51.202
 c 347.582 49.096 348.438 47.034 349.93 45.545 c 351.414 44.057 353.48 43.202
 355.582 43.202 c 357.688 43.202 359.75 44.057 361.238 45.545 c 362.734 
47.034 363.582 49.096 363.582 51.202 c 363.582 53.303 362.734 55.37 361.238
 56.858 c h
361.238 56.858 m f
222.398 145.834 m 192 145.834 l 192 176.233 l 192 180.651 188.418 184.233
 184 184.233 c 179.582 184.233 176 180.651 176 176.233 c 176 137.834 l 176
 133.416 179.582 129.834 184 129.834 c 222.398 129.834 l 226.816 129.834
 230.398 133.416 230.398 137.834 c 230.398 142.252 226.816 145.834 222.398
 145.834 c h
222.398 145.834 m f
239.223 184.459 m 236.098 187.584 231.031 187.584 227.906 184.459 c 216.875
 173.432 l 215.941 174.366 l 212.816 177.491 207.754 177.491 204.625 174.366
 c 201.504 171.241 201.504 166.178 204.625 163.053 c 211.219 156.459 l 212.781
 154.897 214.828 154.116 216.875 154.116 c 218.922 154.116 220.969 154.897
 222.531 156.459 c 239.219 173.147 l 242.344 176.272 242.344 181.338 239.223
 184.459 c h
239.223 184.459 m f
222.398 59.202 m 192 59.202 l 192 89.6 l 192 94.018 188.418 97.6 184 97.6
 c 179.582 97.6 176 94.018 176 89.6 c 176 51.202 l 176 46.784 179.582 43.202
 184 43.202 c 222.398 43.202 l 226.816 43.202 230.398 46.784 230.398 51.202
 c 230.398 55.62 226.816 59.202 222.398 59.202 c h
222.398 59.202 m f
239.223 97.83 m 236.098 100.952 231.031 100.952 227.906 97.83 c 216.875
 86.799 l 215.941 87.733 l 212.816 90.858 207.754 90.858 204.625 87.733 
c 201.504 84.608 201.504 79.545 204.625 76.42 c 211.219 69.827 l 212.781
 68.264 214.828 67.483 216.875 67.483 c 218.922 67.483 220.969 68.264 222.531
 69.827 c 239.219 86.514 l 242.344 89.639 242.344 94.705 239.223 97.83 c
 h
239.223 97.83 m f
109.73 127.471 m 84.129 185.987 l 82.855 188.901 79.977 190.78 76.801 190.78
 c 73.621 190.78 70.746 188.897 69.473 185.987 c 43.871 127.471 l 43.43 
126.459 43.199 125.37 43.199 124.264 c 43.199 7.998 l 43.199 3.58 46.781
 -0.002 51.199 -0.002 c 55.617 -0.002 59.199 3.58 59.199 7.998 c 59.199 
116.264 l 94.398 116.264 l 94.398 7.998 l 94.398 3.58 97.98 -0.002 102.398
 -0.002 c 106.816 -0.002 110.398 3.58 110.398 7.998 c 110.398 124.264 l 
110.398 125.37 110.172 126.459 109.73 127.471 c h
63.434 132.264 m 76.801 162.823 l 90.168 132.264 l h
63.434 132.264 m f
Q Q
showpage
%%Trailer
end restore
%%EOF
