%!PS-Adobe-3.0 EPSF-3.0
%%Creator: cairo 1.14.2 (http://cairographics.org)
%%CreationDate: Thu Jul 26 08:51:17 2018
%%Pages: 1
%%DocumentData: Clean7Bit
%%LanguageLevel: 2
%%BoundingBox: 0 -1 410 410
%%EndComments
%%BeginProlog
save
50 dict begin
/q { gsave } bind def
/Q { grestore } bind def
/cm { 6 array astore concat } bind def
/w { setlinewidth } bind def
/J { setlinecap } bind def
/j { setlinejoin } bind def
/M { setmiterlimit } bind def
/d { setdash } bind def
/m { moveto } bind def
/l { lineto } bind def
/c { curveto } bind def
/h { closepath } bind def
/re { exch dup neg 3 1 roll 5 3 roll moveto 0 rlineto
      0 exch rlineto 0 rlineto closepath } bind def
/S { stroke } bind def
/f { fill } bind def
/f* { eofill } bind def
/n { newpath } bind def
/W { clip } bind def
/W* { eoclip } bind def
/BT { } bind def
/ET { } bind def
/pdfmark where { pop globaldict /?pdfmark /exec load put }
    { globaldict begin /?pdfmark /pop load def /pdfmark
    /cleartomark load def end } ifelse
/BDC { mark 3 1 roll /BDC pdfmark } bind def
/EMC { mark /EMC pdfmark } bind def
/cairo_store_point { /cairo_point_y exch def /cairo_point_x exch def } def
/Tj { show currentpoint cairo_store_point } bind def
/TJ {
  {
    dup
    type /stringtype eq
    { show } { -0.001 mul 0 cairo_font_matrix dtransform rmoveto } ifelse
  } forall
  currentpoint cairo_store_point
} bind def
/cairo_selectfont { cairo_font_matrix aload pop pop pop 0 0 6 array astore
    cairo_font exch selectfont cairo_point_x cairo_point_y moveto } bind def
/Tf { pop /cairo_font exch def /cairo_font_matrix where
      { pop cairo_selectfont } if } bind def
/Td { matrix translate cairo_font_matrix matrix concatmatrix dup
      /cairo_font_matrix exch def dup 4 get exch 5 get cairo_store_point
      /cairo_font where { pop cairo_selectfont } if } bind def
/Tm { 2 copy 8 2 roll 6 array astore /cairo_font_matrix exch def
      cairo_store_point /cairo_font where { pop cairo_selectfont } if } bind def
/g { setgray } bind def
/rg { setrgbcolor } bind def
/d1 { setcachedevice } bind def
%%EndProlog
%%BeginSetup
%%EndSetup
%%Page: 1 1
%%BeginPageSetup
%%PageBoundingBox: 0 -1 410 410
%%EndPageSetup
q 0 -1 410 411 rectclip q
0 g
329.586 377.569 m 310.387 377.569 l 310.387 383.967 l 310.387 398.08 298.902
 409.565 284.789 409.565 c 270.672 409.565 259.188 398.084 259.188 383.967
 c 259.188 377.569 l 202.391 377.569 l 202.391 383.967 l 202.391 398.08 
190.91 409.565 176.793 409.565 c 162.676 409.565 151.195 398.084 151.195
 383.967 c 151.195 377.569 l 94.395 377.569 l 94.395 383.967 l 94.395 398.08
 82.914 409.565 68.797 409.565 c 54.68 409.565 43.199 398.08 43.199 383.967
 c 43.199 377.569 l 24 377.569 l 10.766 377.569 0 366.803 0 353.569 c 0 
129.577 l 0 116.342 10.766 105.577 24 105.577 c 140.25 105.577 l 144.668
 105.577 148.25 109.159 148.25 113.577 c 148.25 117.995 144.668 121.577 
140.25 121.577 c 24 121.577 l 19.59 121.577 16 125.166 16 129.577 c 16 303.705
 l 337.586 303.705 l 337.586 234.909 l 337.586 230.491 341.168 226.909 345.586
 226.909 c 350.004 226.909 353.586 230.491 353.586 234.909 c 353.586 353.569
 l 353.586 366.803 342.82 377.569 329.586 377.569 c h
275.188 383.967 m 275.188 389.26 279.496 393.569 284.789 393.569 c 290.082
 393.569 294.391 389.26 294.391 383.967 c 294.391 377.569 l 275.191 377.569
 l 275.191 383.967 l h
167.191 383.967 m 167.191 389.26 171.5 393.569 176.793 393.569 c 182.086
 393.569 186.391 389.26 186.391 383.967 c 186.391 377.569 l 167.191 377.569
 l h
59.199 383.967 m 59.199 389.26 63.504 393.569 68.797 393.569 c 74.09 393.569
 78.398 389.26 78.398 383.967 c 78.398 377.569 l 59.199 377.569 l h
337.586 319.702 m 16 319.702 l 16 353.569 l 16 357.979 19.59 361.569 24
 361.569 c 78.398 361.569 l 78.398 355.166 l 78.398 349.873 74.09 345.569
 68.797 345.569 c 64.379 345.569 60.797 341.987 60.797 337.569 c 60.797 
333.151 64.379 329.569 68.797 329.569 c 82.91 329.569 94.395 341.053 94.395
 355.166 c 94.395 361.569 l 186.391 361.569 l 186.391 355.166 l 186.391 
349.873 182.086 345.569 176.793 345.569 c 172.375 345.569 168.793 341.987
 168.793 337.569 c 168.793 333.147 172.375 329.569 176.793 329.569 c 190.906
 329.569 202.391 341.049 202.391 355.166 c 202.391 361.565 l 294.387 361.565
 l 294.387 355.166 l 294.387 349.873 290.082 345.565 284.789 345.565 c 280.371
 345.565 276.789 341.987 276.789 337.565 c 276.789 333.147 280.371 329.565
 284.789 329.565 c 298.902 329.565 310.387 341.049 310.387 355.166 c 310.387
 361.565 l 329.586 361.565 l 333.996 361.565 337.586 357.975 337.586 353.565
 c h
337.586 319.702 m f
177.648 119.233 m 176.16 120.721 174.098 121.577 171.992 121.577 c 169.891
 121.577 167.824 120.721 166.336 119.233 c 164.848 117.745 163.992 115.682
 163.992 113.577 c 163.992 111.475 164.848 109.409 166.336 107.924 c 167.824
 106.436 169.879 105.577 171.992 105.577 c 174.098 105.577 176.16 106.432
 177.648 107.924 c 179.137 109.409 179.992 111.475 179.992 113.577 c 179.992
 115.682 179.137 117.745 177.648 119.233 c h
177.648 119.233 m f
363.992 85.225 m 342.844 106.373 l 335.219 113.998 322.816 113.998 315.191
 106.373 c 313.812 104.995 l 313.453 104.635 312.867 104.635 312.508 104.995
 c 301.906 115.596 l 301.543 115.955 301.543 116.541 301.902 116.901 c 303.281
 118.28 l 310.906 125.905 310.906 138.307 303.281 145.932 c 282.133 167.08
 l 274.508 174.705 262.105 174.705 254.48 167.08 c 249.422 162.022 l 232.562
 145.163 232.562 117.729 249.422 100.866 c 297.773 52.514 l 306.207 44.08
 317.277 39.87 328.352 39.87 c 339.426 39.87 350.5 44.084 358.93 52.514 
c 363.992 57.573 l 371.617 65.198 371.617 77.6 363.992 85.225 c h
352.68 68.885 m 347.617 63.827 l 336.996 53.205 319.711 53.202 309.09 63.827
 c 260.738 112.182 l 250.113 122.803 250.113 140.088 260.738 150.709 c 265.797
 155.768 l 266.488 156.463 267.398 156.807 268.309 156.807 c 269.223 156.807
 270.129 156.463 270.824 155.768 c 291.973 134.62 l 293.359 133.233 293.359
 130.979 291.973 129.596 c 290.594 128.213 l 283.996 121.62 283.996 110.881
 290.594 104.284 c 301.195 93.678 l 307.797 87.084 318.531 87.084 325.129
 93.682 c 326.508 95.061 l 327.891 96.444 330.145 96.444 331.531 95.061 
c 352.68 73.909 l 354.066 72.526 354.066 70.272 352.68 68.885 c h
352.68 68.885 m f
400.109 150.268 m 398.285 154.291 393.543 156.077 389.52 154.252 c 385.496
 152.428 383.715 147.686 385.539 143.663 c 400.988 109.588 393.59 68.913
 367.121 42.444 c 331.895 7.221 274.578 7.221 239.355 42.444 c 204.129 77.67
 204.129 134.987 239.355 170.213 c 266.328 197.19 307.586 204.319 342.02
 187.959 c 346.012 186.061 350.781 187.76 352.68 191.752 c 354.574 195.741
 352.875 200.514 348.887 202.409 c 308.352 221.663 259.789 213.272 228.039
 181.526 c 186.578 140.061 186.578 72.596 228.039 31.131 c 248.773 10.401
 276.004 0.034 303.238 0.034 c 330.469 0.034 357.703 10.401 378.434 31.131
 c 394.035 46.733 404.266 66.428 408.016 88.096 c 411.684 109.272 408.949
 130.772 400.109 150.268 c h
400.109 150.268 m f
379.406 180.541 m 379.09 180.87 378.766 181.194 378.441 181.518 c 375.324
 184.647 370.258 184.655 367.129 181.534 c 364 178.413 363.996 173.35 367.113
 170.221 c 367.402 169.932 367.684 169.647 367.965 169.362 c 369.531 167.756
 371.609 166.952 373.688 166.952 c 375.703 166.952 377.723 167.709 379.277
 169.229 c 382.438 172.315 382.496 177.381 379.406 180.541 c h
379.406 180.541 m f
73.598 287.705 m 56.836 287.705 43.199 274.069 43.199 257.307 c 43.199 
240.545 56.836 226.909 73.598 226.909 c 90.359 226.909 103.996 240.545 103.996
 257.307 c 103.996 274.069 90.359 287.705 73.598 287.705 c h
73.598 242.905 m 65.656 242.905 59.199 249.366 59.199 257.307 c 59.199 
265.245 65.656 271.705 73.598 271.705 c 81.535 271.705 87.996 265.245 87.996
 257.307 c 87.996 249.366 81.535 242.905 73.598 242.905 c h
73.598 242.905 m f
176.793 287.705 m 160.031 287.705 146.395 274.069 146.395 257.307 c 146.395
 240.545 160.031 226.909 176.793 226.909 c 193.555 226.909 207.191 240.545
 207.191 257.307 c 207.191 274.069 193.555 287.705 176.793 287.705 c h
176.793 242.905 m 168.852 242.905 162.395 249.366 162.395 257.307 c 162.395
 265.245 168.855 271.705 176.793 271.705 c 184.734 271.705 191.191 265.245
 191.191 257.307 c 191.191 249.366 184.734 242.905 176.793 242.905 c h
176.793 242.905 m f
279.988 287.705 m 263.227 287.705 249.59 274.069 249.59 257.307 c 249.59
 240.545 263.227 226.909 279.988 226.909 c 296.75 226.909 310.387 240.545
 310.387 257.307 c 310.387 274.069 296.75 287.705 279.988 287.705 c h
279.988 242.905 m 272.047 242.905 265.59 249.366 265.59 257.307 c 265.59
 265.245 272.051 271.705 279.988 271.705 c 287.93 271.705 294.387 265.245
 294.387 257.307 c 294.387 249.366 287.93 242.905 279.988 242.905 c h
279.988 242.905 m f
73.598 210.909 m 56.836 210.909 43.199 197.272 43.199 180.51 c 43.199 163.748
 56.836 150.112 73.598 150.112 c 90.359 150.112 103.996 163.748 103.996 
180.51 c 103.996 197.272 90.359 210.909 73.598 210.909 c h
73.598 166.108 m 65.656 166.108 59.199 172.569 59.199 180.51 c 59.199 188.448
 65.656 194.909 73.598 194.909 c 81.535 194.909 87.996 188.448 87.996 180.51
 c 87.996 172.569 81.535 166.108 73.598 166.108 c h
73.598 166.108 m f
176.793 210.909 m 160.031 210.909 146.395 197.272 146.395 180.51 c 146.395
 163.748 160.031 150.112 176.793 150.112 c 193.555 150.112 207.191 163.748
 207.191 180.51 c 207.191 197.272 193.555 210.909 176.793 210.909 c h
176.793 166.108 m 168.852 166.108 162.395 172.569 162.395 180.51 c 162.395
 188.448 168.855 194.909 176.793 194.909 c 184.734 194.909 191.191 188.448
 191.191 180.51 c 191.191 172.569 184.734 166.108 176.793 166.108 c h
176.793 166.108 m f
Q Q
showpage
%%Trailer
end restore
%%EOF
