%!PS-Adobe-3.0 EPSF-3.0
%%Creator: cairo 1.14.2 (http://cairographics.org)
%%CreationDate: Thu Jul 26 08:51:17 2018
%%Pages: 1
%%DocumentData: Clean7Bit
%%LanguageLevel: 2
%%BoundingBox: 0 15 410 394
%%EndComments
%%BeginProlog
save
50 dict begin
/q { gsave } bind def
/Q { grestore } bind def
/cm { 6 array astore concat } bind def
/w { setlinewidth } bind def
/J { setlinecap } bind def
/j { setlinejoin } bind def
/M { setmiterlimit } bind def
/d { setdash } bind def
/m { moveto } bind def
/l { lineto } bind def
/c { curveto } bind def
/h { closepath } bind def
/re { exch dup neg 3 1 roll 5 3 roll moveto 0 rlineto
      0 exch rlineto 0 rlineto closepath } bind def
/S { stroke } bind def
/f { fill } bind def
/f* { eofill } bind def
/n { newpath } bind def
/W { clip } bind def
/W* { eoclip } bind def
/BT { } bind def
/ET { } bind def
/pdfmark where { pop globaldict /?pdfmark /exec load put }
    { globaldict begin /?pdfmark /pop load def /pdfmark
    /cleartomark load def end } ifelse
/BDC { mark 3 1 roll /BDC pdfmark } bind def
/EMC { mark /EMC pdfmark } bind def
/cairo_store_point { /cairo_point_y exch def /cairo_point_x exch def } def
/Tj { show currentpoint cairo_store_point } bind def
/TJ {
  {
    dup
    type /stringtype eq
    { show } { -0.001 mul 0 cairo_font_matrix dtransform rmoveto } ifelse
  } forall
  currentpoint cairo_store_point
} bind def
/cairo_selectfont { cairo_font_matrix aload pop pop pop 0 0 6 array astore
    cairo_font exch selectfont cairo_point_x cairo_point_y moveto } bind def
/Tf { pop /cairo_font exch def /cairo_font_matrix where
      { pop cairo_selectfont } if } bind def
/Td { matrix translate cairo_font_matrix matrix concatmatrix dup
      /cairo_font_matrix exch def dup 4 get exch 5 get cairo_store_point
      /cairo_font where { pop cairo_selectfont } if } bind def
/Tm { 2 copy 8 2 roll 6 array astore /cairo_font_matrix exch def
      cairo_store_point /cairo_font where { pop cairo_selectfont } if } bind def
/g { setgray } bind def
/rg { setrgbcolor } bind def
/d1 { setcachedevice } bind def
%%EndProlog
%%BeginSetup
%%EndSetup
%%Page: 1 1
%%BeginPageSetup
%%PageBoundingBox: 0 15 410 394
%%EndPageSetup
q 0 15 410 379 rectclip q
0 g
382.398 211.85 m 382.398 215.975 l 382.398 257.78 367.531 298.413 340.535
 330.393 c 313.863 361.987 276.934 383.413 236.547 390.733 c 232.195 391.522
 228.035 388.635 227.246 384.288 c 226.461 379.94 229.344 375.776 233.695
 374.991 c 310.59 361.053 366.398 294.178 366.398 215.975 c 366.398 213.569
 l 350.398 213.569 l 350.398 215.975 l 350.398 296.26 285.086 361.577 204.801
 361.577 c 124.516 361.577 59.199 296.26 59.199 215.975 c 59.199 213.577
 l 43.199 213.577 l 43.199 215.975 l 43.199 295.194 99.855 362.217 177.918
 375.338 c 182.273 376.073 185.215 380.198 184.48 384.557 c 183.746 388.913
 179.629 391.854 175.266 391.12 c 134.367 384.245 96.898 362.971 69.762 
331.213 c 42.316 299.096 27.199 258.17 27.199 215.975 c 27.199 211.858 l
 11.465 206.983 0 192.295 0 174.975 c 0 120.975 l 0 99.69 17.316 82.373 
38.598 82.373 c 61.059 82.373 l 65.266 75.428 72.898 70.772 81.598 70.772
 c 94.832 70.772 105.598 81.538 105.598 94.772 c 105.598 201.17 l 105.598
 214.405 94.832 225.17 81.598 225.17 c 79.484 225.17 77.434 224.893 75.48
 224.377 c 79.824 291.936 136.16 345.577 204.801 345.577 c 273.438 345.577
 329.773 291.936 334.121 224.377 c 332.164 224.893 330.113 225.17 328 225.17
 c 314.766 225.17 304 214.405 304 201.17 c 304 181.202 l 304 176.784 307.582
 173.202 312 173.202 c 316.418 173.202 320 176.784 320 181.202 c 320 201.17
 l 320 205.584 323.59 209.17 328 209.17 c 332.41 209.17 336 205.584 336 
201.17 c 336 94.772 l 336 90.362 332.41 86.772 328 86.772 c 323.59 86.772
 320 90.362 320 94.772 c 320 113.202 l 320 117.62 316.418 121.202 312 121.202
 c 307.582 121.202 304 117.62 304 113.202 c 304 94.772 l 304 81.538 314.766
 70.772 328 70.772 c 330.805 70.772 333.496 71.26 336 72.147 c 336 66.932
 l 336 58.272 328.953 51.225 320.293 51.225 c 246.898 51.225 l 243.477 62.33
 233.117 70.424 220.902 70.424 c 188.902 70.424 l 173.902 70.424 161.703
 58.225 161.703 43.225 c 161.703 28.225 173.902 16.026 188.902 16.026 c 
220.902 16.026 l 233.117 16.026 243.477 24.12 246.898 35.225 c 320.293 35.225
 l 337.773 35.225 352 49.448 352 66.932 c 352 82.37 l 371 82.37 l 392.285
 82.37 409.602 99.686 409.602 120.967 c 409.602 174.971 l 409.602 192.288
 398.137 206.975 382.398 211.85 c h
57.602 98.373 m 38.598 98.373 l 26.137 98.373 16 108.514 16 120.975 c 16
 174.975 l 16 187.436 26.137 197.577 38.598 197.577 c 57.602 197.577 l h
81.602 209.17 m 86.012 209.17 89.602 205.584 89.602 201.17 c 89.602 94.772
 l 89.602 90.362 86.012 86.772 81.602 86.772 c 77.188 86.772 73.602 90.362
 73.602 94.772 c 73.602 201.17 l 73.602 205.584 77.188 209.17 81.602 209.17
 c h
220.902 32.026 m 188.902 32.026 l 182.727 32.026 177.703 37.049 177.703
 43.225 c 177.703 49.401 182.727 54.424 188.902 54.424 c 220.902 54.424 
l 227.078 54.424 232.102 49.401 232.102 43.225 c 232.102 37.049 227.078 
32.026 220.902 32.026 c h
393.602 120.967 m 393.602 108.506 383.461 98.37 371 98.37 c 352 98.37 l
 352 197.569 l 371 197.569 l 383.461 197.569 393.602 187.432 393.602 174.971
 c h
393.602 120.967 m f
205.496 393.573 m 204.801 393.577 l 200.383 393.577 196.801 389.995 196.801
 385.577 c 196.801 381.159 200.383 377.577 204.801 377.577 c 205.438 377.573
 l 205.469 377.573 l 209.871 377.573 213.453 381.139 213.469 385.545 c 213.484
 389.963 209.914 393.561 205.496 393.573 c h
205.496 393.573 m f
317.656 153.623 m 316.168 155.112 314.105 155.967 312 155.967 c 309.895
 155.967 307.832 155.112 306.344 153.623 c 304.855 152.135 304 150.073 304
 147.967 c 304 145.866 304.855 143.799 306.344 142.311 c 307.832 140.823
 309.895 139.967 312 139.967 c 314.105 139.967 316.168 140.823 317.656 142.311
 c 319.145 143.799 320 145.866 320 147.967 c 320 150.073 319.145 152.135
 317.656 153.623 c h
317.656 153.623 m f
251.328 252.745 m 158.273 252.745 l 138.051 252.745 121.602 236.295 121.602
 216.073 c 121.602 169.272 l 121.602 149.049 138.051 132.596 158.273 132.596
 c 180.426 132.596 l 198.492 110.049 l 200 108.174 202.27 107.073 204.676
 107.053 c 204.738 107.053 l 207.121 107.053 209.379 108.116 210.902 109.955
 c 229.633 132.596 l 251.328 132.596 l 271.547 132.596 288 149.049 288 169.272
 c 288 216.073 l 288 236.295 271.547 252.745 251.328 252.745 c h
272 169.272 m 272 157.873 262.727 148.596 251.328 148.596 c 225.867 148.596
 l 223.48 148.596 221.223 147.534 219.703 145.698 c 204.836 127.725 l 190.508
 145.6 l 188.992 147.495 186.695 148.596 184.266 148.596 c 158.273 148.596
 l 146.875 148.596 137.602 157.873 137.602 169.272 c 137.602 216.073 l 137.602
 227.471 146.875 236.745 158.273 236.745 c 251.328 236.745 l 262.727 236.745
 272 227.471 272 216.073 c h
272 169.272 m f
175.359 194.327 m 173.863 195.819 171.809 196.67 169.703 196.67 c 167.602
 196.67 165.535 195.819 164.047 194.327 c 162.551 192.838 161.703 190.776
 161.703 188.67 c 161.703 186.569 162.551 184.502 164.047 183.018 c 165.535
 181.53 167.602 180.67 169.703 180.67 c 171.809 180.67 173.863 181.53 175.359
 183.018 c 176.848 184.502 177.703 186.569 177.703 188.67 c 177.703 190.776
 176.848 192.838 175.359 194.327 c h
175.359 194.327 m f
210.559 194.327 m 209.07 195.815 207.008 196.67 204.902 196.67 c 202.793
 196.67 200.734 195.819 199.246 194.327 c 197.754 192.838 196.902 190.776
 196.902 188.67 c 196.902 186.569 197.754 184.502 199.246 183.018 c 200.734
 181.53 202.793 180.67 204.902 180.67 c 207.008 180.67 209.07 181.53 210.559
 183.018 c 212.047 184.502 212.902 186.569 212.902 188.67 c 212.902 190.776
 212.047 192.838 210.559 194.327 c h
210.559 194.327 m f
245.762 194.327 m 244.266 195.815 242.207 196.67 240.105 196.67 c 237.992
 196.67 235.938 195.819 234.449 194.327 c 232.953 192.838 232.105 190.776
 232.105 188.67 c 232.105 186.561 232.953 184.502 234.449 183.018 c 235.938
 181.53 237.992 180.67 240.105 180.67 c 242.207 180.67 244.266 181.53 245.762
 183.018 c 247.246 184.502 248.105 186.569 248.105 188.67 c 248.105 190.776
 247.246 192.838 245.762 194.327 c h
245.762 194.327 m f
Q Q
showpage
%%Trailer
end restore
%%EOF
