%!PS-Adobe-3.0 EPSF-3.0
%%Creator: cairo 1.14.2 (http://cairographics.org)
%%CreationDate: Thu Jul 26 08:51:17 2018
%%Pages: 1
%%DocumentData: Clean7Bit
%%LanguageLevel: 2
%%BoundingBox: 0 24 410 385
%%EndComments
%%BeginProlog
save
50 dict begin
/q { gsave } bind def
/Q { grestore } bind def
/cm { 6 array astore concat } bind def
/w { setlinewidth } bind def
/J { setlinecap } bind def
/j { setlinejoin } bind def
/M { setmiterlimit } bind def
/d { setdash } bind def
/m { moveto } bind def
/l { lineto } bind def
/c { curveto } bind def
/h { closepath } bind def
/re { exch dup neg 3 1 roll 5 3 roll moveto 0 rlineto
      0 exch rlineto 0 rlineto closepath } bind def
/S { stroke } bind def
/f { fill } bind def
/f* { eofill } bind def
/n { newpath } bind def
/W { clip } bind def
/W* { eoclip } bind def
/BT { } bind def
/ET { } bind def
/pdfmark where { pop globaldict /?pdfmark /exec load put }
    { globaldict begin /?pdfmark /pop load def /pdfmark
    /cleartomark load def end } ifelse
/BDC { mark 3 1 roll /BDC pdfmark } bind def
/EMC { mark /EMC pdfmark } bind def
/cairo_store_point { /cairo_point_y exch def /cairo_point_x exch def } def
/Tj { show currentpoint cairo_store_point } bind def
/TJ {
  {
    dup
    type /stringtype eq
    { show } { -0.001 mul 0 cairo_font_matrix dtransform rmoveto } ifelse
  } forall
  currentpoint cairo_store_point
} bind def
/cairo_selectfont { cairo_font_matrix aload pop pop pop 0 0 6 array astore
    cairo_font exch selectfont cairo_point_x cairo_point_y moveto } bind def
/Tf { pop /cairo_font exch def /cairo_font_matrix where
      { pop cairo_selectfont } if } bind def
/Td { matrix translate cairo_font_matrix matrix concatmatrix dup
      /cairo_font_matrix exch def dup 4 get exch 5 get cairo_store_point
      /cairo_font where { pop cairo_selectfont } if } bind def
/Tm { 2 copy 8 2 roll 6 array astore /cairo_font_matrix exch def
      cairo_store_point /cairo_font where { pop cairo_selectfont } if } bind def
/g { setgray } bind def
/rg { setrgbcolor } bind def
/d1 { setcachedevice } bind def
%%EndProlog
%%BeginSetup
%%EndSetup
%%Page: 1 1
%%BeginPageSetup
%%PageBoundingBox: 0 24 410 385
%%EndPageSetup
q 0 24 410 361 rectclip q
0 g
409.582 245.933 m 408.727 296.312 378.887 341.144 333.191 361.32 c 333.137
 374.034 322.781 384.359 310.055 384.359 c 301.18 384.359 293.465 379.339
 289.582 371.988 c 286.035 372.218 282.461 372.316 278.902 372.261 c 245.004
 371.714 213.219 358.097 189.406 333.921 c 165.848 310.003 152.75 278.429
 152.441 244.902 c 130.012 170.913 l 129.273 168.491 129.73 165.863 131.242
 163.827 c 132.75 161.792 135.133 160.593 137.664 160.593 c 163.211 160.593
 l 164.613 160.593 165.754 159.452 165.754 158.054 c 165.754 131.245 l 165.754
 102.706 188.973 79.488 217.512 79.488 c 228.828 79.488 l 234.301 79.488
 238.75 75.034 238.75 69.566 c 238.75 33.241 l 238.75 28.827 242.332 25.241
 246.75 25.241 c 251.168 25.241 254.75 28.827 254.75 33.241 c 254.75 69.566
 l 254.75 83.859 243.121 95.488 228.828 95.488 c 217.512 95.488 l 197.797
 95.488 181.754 111.53 181.754 131.245 c 181.754 158.054 l 181.754 168.277
 173.438 176.593 163.211 176.593 c 148.453 176.593 l 168.094 241.378 l 168.324
 242.128 168.438 242.909 168.438 243.698 c 168.438 304.78 218.109 355.277
 279.164 356.265 c 281.746 356.304 284.336 356.249 286.914 356.12 c 286.914
 240.577 l 271.941 232.62 261.719 216.866 261.719 198.761 c 261.719 175.878
 278.039 156.741 299.648 152.374 c 296.863 145.601 290.195 140.823 282.434
 140.823 c 248.395 140.823 l 245.145 149.46 236.801 155.624 227.043 155.624
 c 214.469 155.624 204.238 145.398 204.238 132.823 c 204.238 120.249 214.469
 110.019 227.043 110.019 c 236.801 110.019 245.145 116.183 248.395 124.823
 c 282.434 124.823 l 298.957 124.823 312.809 136.468 316.227 151.98 c 338.926
 155.448 356.371 175.105 356.371 198.761 c 356.371 216.038 347.059 231.179
 333.191 239.441 c 333.191 343.57 l 369.508 324.687 392.875 287.347 393.582
 245.659 c 394.055 217.925 384.371 185.636 368.91 163.402 c 361.5 152.745
 357.586 140.234 357.586 127.222 c 357.586 64.359 l 357.586 59.941 361.168
 56.359 365.586 56.359 c 370.004 56.359 373.586 59.941 373.586 64.359 c 
373.586 127.222 l 373.586 136.952 376.512 146.308 382.047 154.269 c 399.566
 179.46 410.113 214.585 409.582 245.933 c h
227.043 126.019 m 223.293 126.019 220.242 129.07 220.242 132.823 c 220.242
 136.573 223.293 139.624 227.043 139.624 c 230.797 139.624 233.848 136.573
 233.848 132.823 c 233.848 129.07 230.793 126.019 227.043 126.019 c h
302.914 361.222 m 302.914 365.159 306.117 368.359 310.055 368.359 c 313.992
 368.359 317.195 365.159 317.195 361.222 c 317.195 245.37 l 314.543 245.831
 311.824 246.089 309.043 246.089 c 306.965 246.089 304.926 245.937 302.914
 245.675 c h
340.371 198.761 m 340.371 181.488 326.32 167.433 309.043 167.433 c 291.77
 167.433 277.719 181.488 277.719 198.761 c 277.719 216.034 291.77 230.085
 309.043 230.085 c 326.32 230.085 340.371 216.034 340.371 198.761 c h
340.371 198.761 m f
371.238 38.898 m 369.754 40.394 367.688 41.241 365.582 41.241 c 363.48 
41.241 361.414 40.394 359.93 38.898 c 358.441 37.417 357.582 35.351 357.582
 33.241 c 357.582 31.136 358.441 29.073 359.93 27.585 c 361.414 26.097 363.48
 25.241 365.582 25.241 c 367.688 25.241 369.754 26.097 371.238 27.585 c 
372.727 29.073 373.582 31.136 373.582 33.241 c 373.582 35.355 372.73 37.409
 371.238 38.898 c h
371.238 38.898 m f
188.301 366.933 m 175.695 370.683 162.551 372.484 149.238 372.261 c 115.34
 371.714 83.555 358.097 59.742 333.921 c 36.184 310.003 23.086 278.433 22.777
 244.902 c 0.344 170.913 l -0.391 168.491 0.066 165.863 1.574 163.827 c 
3.086 161.792 5.469 160.593 8 160.593 c 33.547 160.593 l 34.949 160.593 
36.086 159.452 36.086 158.054 c 36.086 131.245 l 36.086 102.706 59.305 79.488
 87.848 79.488 c 99.164 79.488 l 104.637 79.488 109.086 75.034 109.086 69.566
 c 109.086 33.241 l 109.086 28.827 112.668 25.241 117.086 25.241 c 121.504
 25.241 125.086 28.827 125.086 33.241 c 125.086 69.566 l 125.086 83.859 
113.457 95.488 99.164 95.488 c 87.848 95.488 l 68.129 95.488 52.086 111.53
 52.086 131.245 c 52.086 158.054 l 52.086 168.277 43.77 176.593 33.547 176.593
 c 18.785 176.593 l 38.43 241.378 l 38.656 242.128 38.773 242.909 38.773
 243.698 c 38.773 304.78 88.445 355.277 149.496 356.265 c 161.188 356.456
 172.695 354.882 183.738 351.597 c 187.969 350.335 192.426 352.749 193.688
 356.984 c 194.945 361.218 192.535 365.675 188.301 366.933 c h
188.301 366.933 m f
147.141 140.823 m 118.727 140.823 l 115.48 149.46 107.137 155.624 97.379
 155.624 c 84.805 155.624 74.574 145.398 74.574 132.823 c 74.574 120.249
 84.805 110.019 97.379 110.019 c 107.137 110.019 115.48 116.183 118.727 
124.823 c 147.141 124.823 l 151.559 124.823 155.141 128.405 155.141 132.823
 c 155.141 137.241 151.559 140.823 147.141 140.823 c h
97.379 126.019 m 93.629 126.019 90.574 129.07 90.574 132.823 c 90.574 136.573
 93.625 139.624 97.379 139.624 c 101.129 139.624 104.18 136.573 104.18 132.823
 c 104.18 129.07 101.129 126.019 97.379 126.019 c h
97.379 126.019 m f
65.336 252.027 m 60.918 252.027 57.336 248.445 57.336 244.027 c 57.336 
243.698 l 57.336 239.277 60.918 235.698 65.336 235.698 c 69.754 235.698 
73.336 239.277 73.336 243.698 c 73.336 244.027 l 73.336 248.445 69.754 252.027
 65.336 252.027 c h
65.336 252.027 m f
149.238 337.128 m 112.23 336.53 79.023 314.093 64.637 279.972 c 62.922 
275.902 64.832 271.21 68.902 269.491 c 69.918 269.066 70.969 268.863 72.008
 268.863 c 75.129 268.863 78.094 270.698 79.383 273.757 c 91.305 302.038
 118.828 320.632 149.496 321.128 c 153.914 321.198 157.438 324.839 157.367
 329.257 c 157.297 333.675 153.652 337.23 149.238 337.128 c h
149.238 337.128 m f
203.258 249.355 m 201.77 250.839 199.703 251.698 197.602 251.698 c 195.496
 251.698 193.434 250.839 191.945 249.355 c 190.457 247.866 189.602 245.8
 189.602 243.698 c 189.602 241.593 190.457 239.53 191.945 238.042 c 193.434
 236.554 195.496 235.698 197.602 235.698 c 199.703 235.698 201.77 236.554
 203.258 238.042 c 204.742 239.53 205.602 241.593 205.602 243.698 c 205.602
 245.8 204.746 247.866 203.258 249.355 c h
203.258 249.355 m f
Q Q
showpage
%%Trailer
end restore
%%EOF
