%!PS-Adobe-3.0 EPSF-3.0
%%Creator: cairo 1.14.2 (http://cairographics.org)
%%CreationDate: Thu Jul 26 08:51:17 2018
%%Pages: 1
%%DocumentData: Clean7Bit
%%LanguageLevel: 2
%%BoundingBox: 23 -1 386 410
%%EndComments
%%BeginProlog
save
50 dict begin
/q { gsave } bind def
/Q { grestore } bind def
/cm { 6 array astore concat } bind def
/w { setlinewidth } bind def
/J { setlinecap } bind def
/j { setlinejoin } bind def
/M { setmiterlimit } bind def
/d { setdash } bind def
/m { moveto } bind def
/l { lineto } bind def
/c { curveto } bind def
/h { closepath } bind def
/re { exch dup neg 3 1 roll 5 3 roll moveto 0 rlineto
      0 exch rlineto 0 rlineto closepath } bind def
/S { stroke } bind def
/f { fill } bind def
/f* { eofill } bind def
/n { newpath } bind def
/W { clip } bind def
/W* { eoclip } bind def
/BT { } bind def
/ET { } bind def
/pdfmark where { pop globaldict /?pdfmark /exec load put }
    { globaldict begin /?pdfmark /pop load def /pdfmark
    /cleartomark load def end } ifelse
/BDC { mark 3 1 roll /BDC pdfmark } bind def
/EMC { mark /EMC pdfmark } bind def
/cairo_store_point { /cairo_point_y exch def /cairo_point_x exch def } def
/Tj { show currentpoint cairo_store_point } bind def
/TJ {
  {
    dup
    type /stringtype eq
    { show } { -0.001 mul 0 cairo_font_matrix dtransform rmoveto } ifelse
  } forall
  currentpoint cairo_store_point
} bind def
/cairo_selectfont { cairo_font_matrix aload pop pop pop 0 0 6 array astore
    cairo_font exch selectfont cairo_point_x cairo_point_y moveto } bind def
/Tf { pop /cairo_font exch def /cairo_font_matrix where
      { pop cairo_selectfont } if } bind def
/Td { matrix translate cairo_font_matrix matrix concatmatrix dup
      /cairo_font_matrix exch def dup 4 get exch 5 get cairo_store_point
      /cairo_font where { pop cairo_selectfont } if } bind def
/Tm { 2 copy 8 2 roll 6 array astore /cairo_font_matrix exch def
      cairo_store_point /cairo_font where { pop cairo_selectfont } if } bind def
/g { setgray } bind def
/rg { setrgbcolor } bind def
/d1 { setcachedevice } bind def
%%EndProlog
%%BeginSetup
%%EndSetup
%%Page: 1 1
%%BeginPageSetup
%%PageBoundingBox: 23 -1 386 410
%%EndPageSetup
q 23 -1 363 411 rectclip q
0 g
270.047 242.264 m 266.633 275.252 238.676 301.065 204.801 301.065 c 170.922
 301.065 142.965 275.252 139.551 242.264 c 118.383 239.788 101.898 221.752
 101.898 199.928 c 101.898 176.416 121.023 157.288 144.535 157.288 c 147.199
 157.288 l 151.617 157.288 155.199 160.87 155.199 165.288 c 155.199 235.463
 l 155.199 262.815 177.449 285.065 204.801 285.065 c 232.148 285.065 254.398
 262.815 254.398 235.463 c 254.398 167.393 l 254.398 160.663 248.922 155.186
 242.191 155.186 c 227.344 155.186 l 223.773 162.991 215.16 168.51 205.113
 168.51 c 191.887 168.51 181.129 158.944 181.129 147.186 c 181.129 135.432
 191.887 125.866 205.113 125.866 c 215.16 125.866 223.773 131.385 227.344
 139.186 c 242.191 139.186 l 254.246 139.186 264.551 146.788 268.582 157.444
 c 290.453 159.241 307.703 177.6 307.703 199.928 c 307.703 221.752 291.219
 239.788 270.047 242.264 c h
139.199 221.913 m 139.199 173.827 l 127.059 176.303 117.898 187.065 117.898
 199.928 c 117.898 212.788 127.059 223.549 139.199 226.026 c h
205.113 141.866 m 200.406 141.866 197.129 144.67 197.129 147.186 c 197.129
 149.702 200.406 152.506 205.113 152.506 c 209.82 152.506 213.102 149.702
 213.102 147.186 c 213.102 144.67 209.82 141.866 205.113 141.866 c h
270.398 173.827 m 270.398 226.026 l 282.539 223.549 291.703 212.788 291.703
 199.928 c 291.703 187.065 282.539 176.303 270.398 173.827 c h
270.398 173.827 m f
382.164 307.202 m 378.531 313.491 372.664 317.995 365.645 319.873 c 358.629
 321.756 351.297 320.791 345.008 317.159 c 343.199 316.112 341.566 314.889
 340.098 313.526 c 231.309 376.334 l 231.754 378.284 232 380.315 232 382.401
 c 232 397.397 219.797 409.6 204.801 409.6 c 189.801 409.6 177.598 397.397
 177.598 382.401 c 177.598 380.315 177.844 378.284 178.289 376.334 c 69.504
 313.526 l 68.035 314.889 66.398 316.112 64.594 317.155 c 58.301 320.791
 50.969 321.756 43.953 319.873 c 36.934 317.991 31.07 313.491 27.438 307.202
 c 23.805 300.909 22.84 293.577 24.719 286.561 c 26.602 279.541 31.102 273.678
 37.395 270.045 c 41.668 267.577 46.336 266.405 50.945 266.405 c 57.75 266.405
 64.418 268.971 69.496 273.678 c 83.02 265.873 l 84.277 265.143 85.656 264.799
 87.012 264.799 c 89.777 264.799 92.465 266.233 93.945 268.799 c 96.156 
272.627 94.844 277.518 91.02 279.729 c 77.508 287.53 l 78.43 291.569 78.395
 295.717 77.492 299.659 c 186.301 362.483 l 189.266 359.729 192.84 357.623
 196.801 356.401 c 196.801 323.53 l 196.801 319.112 200.383 315.53 204.801
 315.53 c 209.219 315.53 212.801 319.112 212.801 323.53 c 212.801 356.401
 l 216.758 357.623 220.332 359.729 223.297 362.483 c 332.109 299.663 l 331.203
 295.717 331.168 291.569 332.09 287.53 c 318.578 279.729 l 314.754 277.522
 313.441 272.627 315.652 268.799 c 317.133 266.233 319.82 264.799 322.586
 264.799 c 323.945 264.799 325.32 265.147 326.578 265.873 c 340.102 273.682
 l 343.086 270.913 346.613 268.889 350.398 267.694 c 350.398 199.467 l 350.398
 195.049 353.98 191.467 358.398 191.467 c 362.816 191.467 366.398 195.049
 366.398 199.467 c 366.398 267.553 l 368.387 268.147 370.336 268.963 372.207
 270.045 c 378.5 273.678 383 279.541 384.879 286.561 c 386.762 293.577 385.797
 300.909 382.164 307.202 c h
60.691 287.998 m 57.605 282.651 50.742 280.811 45.395 283.901 c 42.801 
285.397 40.949 287.811 40.176 290.702 c 39.402 293.592 39.797 296.608 41.293
 299.202 c 42.789 301.791 45.203 303.643 48.094 304.416 c 49.059 304.674
 50.039 304.803 51.012 304.803 c 52.953 304.803 54.867 304.295 56.594 303.299
 c 61.941 300.209 63.781 293.346 60.691 287.998 c h
204.801 371.202 m 198.625 371.202 193.598 376.225 193.598 382.401 c 193.598
 388.577 198.625 393.6 204.801 393.6 c 210.977 393.6 216 388.577 216 382.401
 c 216 376.225 210.977 371.202 204.801 371.202 c h
369.422 290.702 m 368.648 287.811 366.797 285.397 364.207 283.901 c 358.859
 280.815 351.996 282.655 348.906 287.998 c 348.906 287.998 348.906 288.002
 348.906 288.002 c 345.82 293.35 347.656 300.213 353.004 303.299 c 354.73
 304.295 356.645 304.803 358.586 304.803 c 359.559 304.803 360.539 304.678
 361.504 304.42 c 364.395 303.643 366.809 301.791 368.305 299.202 c 369.801
 296.608 370.199 293.592 369.422 290.702 c h
369.422 290.702 m f
384.875 123.041 m 382.996 130.057 378.496 135.924 372.207 139.557 c 365.914
 143.19 358.582 144.151 351.566 142.272 c 347.207 141.104 343.293 138.924
 340.082 135.932 c 326.578 143.729 l 322.75 145.936 317.859 144.627 315.652
 140.799 c 313.441 136.975 314.754 132.08 318.578 129.873 c 332.09 122.069
 l 331.168 118.03 331.203 113.881 332.109 109.94 c 223.297 47.116 l 220.332
 49.87 216.762 51.975 212.801 53.198 c 212.801 82.342 l 212.801 86.76 209.219
 90.342 204.801 90.342 c 200.383 90.342 196.801 86.76 196.801 82.342 c 196.801
 53.198 l 192.84 51.979 189.266 49.873 186.301 47.12 c 77.492 109.94 l 78.395
 113.881 78.43 118.03 77.508 122.069 c 91.02 129.873 l 94.844 132.08 96.156
 136.975 93.945 140.799 c 91.738 144.623 86.844 145.936 83.02 143.729 c 
69.52 135.932 l 66.543 138.702 62.969 140.772 58.992 141.991 c 58.992 209.6
 l 58.992 214.018 55.41 217.6 50.992 217.6 c 46.574 217.6 42.992 214.018
 42.992 209.6 c 42.992 141.998 l 41.062 141.401 39.184 140.592 37.395 139.557
 c 31.102 135.924 26.602 130.057 24.719 123.041 c 22.84 116.022 23.805 108.694
 27.438 102.401 c 31.07 96.108 36.934 91.608 43.953 89.725 c 46.297 89.1
 48.672 88.788 51.035 88.788 c 55.75 88.788 60.402 90.026 64.594 92.444 
c 66.398 93.487 68.035 94.713 69.5 96.077 c 178.289 33.268 l 177.844 31.315
 177.598 29.288 177.598 27.202 c 177.598 12.202 189.801 -0.002 204.797 -0.002
 c 219.797 -0.002 232 12.202 232 27.202 c 232 29.288 231.754 31.315 231.309
 33.268 c 340.094 96.077 l 341.562 94.713 343.199 93.487 345.004 92.444 
c 349.195 90.026 353.848 88.788 358.562 88.788 c 360.922 88.788 363.301 
89.1 365.645 89.725 c 372.66 91.608 378.527 96.108 382.16 102.401 c 385.793
 108.694 386.758 116.022 384.875 123.041 c h
56.594 106.299 m 54.004 104.803 50.98 104.409 48.094 105.182 c 45.203 105.955
 42.789 107.807 41.293 110.401 c 39.797 112.991 39.402 116.01 40.176 118.897
 c 40.949 121.788 42.801 124.202 45.395 125.698 c 47.117 126.698 49.035 
127.205 50.977 127.205 c 51.949 127.205 52.926 127.077 53.895 126.819 c 
56.781 126.045 59.199 124.19 60.695 121.6 c 63.781 116.252 61.941 109.389
 56.594 106.299 c h
204.801 15.998 m 198.625 15.998 193.598 21.026 193.598 27.202 c 193.598
 33.377 198.625 38.401 204.801 38.401 c 210.977 38.401 216 33.377 216 27.202
 c 216 21.026 210.977 15.998 204.801 15.998 c h
368.305 110.401 m 366.809 107.807 364.395 105.955 361.504 105.182 c 358.613
 104.405 355.598 104.803 353.004 106.299 c 347.656 109.389 345.82 116.252
 348.906 121.6 c 350.402 124.19 352.816 126.045 355.707 126.819 c 356.672
 127.077 357.652 127.205 358.625 127.205 c 360.566 127.205 362.48 126.694
 364.207 125.698 c 366.797 124.202 368.652 121.788 369.426 118.897 c 370.199
 116.01 369.801 112.991 368.305 110.401 c h
368.305 110.401 m f
364.055 175.256 m 362.566 176.745 360.512 177.6 358.398 177.6 c 356.297
 177.6 354.23 176.745 352.742 175.256 c 351.254 173.768 350.398 171.705 
350.398 169.6 c 350.398 167.495 351.254 165.432 352.742 163.944 c 354.23
 162.455 356.297 161.6 358.398 161.6 c 360.504 161.6 362.566 162.455 364.055
 163.944 c 365.543 165.432 366.398 167.495 366.398 169.6 c 366.398 171.705
 365.543 173.768 364.055 175.256 c h
364.055 175.256 m f
56.645 246.455 m 55.16 247.944 53.094 248.799 50.992 248.799 c 48.887 248.799
 46.824 247.944 45.336 246.455 c 43.848 244.967 42.992 242.905 42.992 240.799
 c 42.992 238.698 43.848 236.631 45.336 235.143 c 46.824 233.655 48.887 
232.799 50.992 232.799 c 53.094 232.799 55.16 233.655 56.645 235.143 c 58.133
 236.631 58.992 238.698 58.992 240.799 c 58.992 242.905 58.137 244.967 56.645
 246.455 c h
56.645 246.455 m f
Q Q
showpage
%%Trailer
end restore
%%EOF
