%!PS-Adobe-3.0 EPSF-3.0
%%Creator: cairo 1.14.2 (http://cairographics.org)
%%CreationDate: Thu Jul 26 08:51:17 2018
%%Pages: 1
%%DocumentData: Clean7Bit
%%LanguageLevel: 2
%%BoundingBox: 0 -1 410 410
%%EndComments
%%BeginProlog
save
50 dict begin
/q { gsave } bind def
/Q { grestore } bind def
/cm { 6 array astore concat } bind def
/w { setlinewidth } bind def
/J { setlinecap } bind def
/j { setlinejoin } bind def
/M { setmiterlimit } bind def
/d { setdash } bind def
/m { moveto } bind def
/l { lineto } bind def
/c { curveto } bind def
/h { closepath } bind def
/re { exch dup neg 3 1 roll 5 3 roll moveto 0 rlineto
      0 exch rlineto 0 rlineto closepath } bind def
/S { stroke } bind def
/f { fill } bind def
/f* { eofill } bind def
/n { newpath } bind def
/W { clip } bind def
/W* { eoclip } bind def
/BT { } bind def
/ET { } bind def
/pdfmark where { pop globaldict /?pdfmark /exec load put }
    { globaldict begin /?pdfmark /pop load def /pdfmark
    /cleartomark load def end } ifelse
/BDC { mark 3 1 roll /BDC pdfmark } bind def
/EMC { mark /EMC pdfmark } bind def
/cairo_store_point { /cairo_point_y exch def /cairo_point_x exch def } def
/Tj { show currentpoint cairo_store_point } bind def
/TJ {
  {
    dup
    type /stringtype eq
    { show } { -0.001 mul 0 cairo_font_matrix dtransform rmoveto } ifelse
  } forall
  currentpoint cairo_store_point
} bind def
/cairo_selectfont { cairo_font_matrix aload pop pop pop 0 0 6 array astore
    cairo_font exch selectfont cairo_point_x cairo_point_y moveto } bind def
/Tf { pop /cairo_font exch def /cairo_font_matrix where
      { pop cairo_selectfont } if } bind def
/Td { matrix translate cairo_font_matrix matrix concatmatrix dup
      /cairo_font_matrix exch def dup 4 get exch 5 get cairo_store_point
      /cairo_font where { pop cairo_selectfont } if } bind def
/Tm { 2 copy 8 2 roll 6 array astore /cairo_font_matrix exch def
      cairo_store_point /cairo_font where { pop cairo_selectfont } if } bind def
/g { setgray } bind def
/rg { setrgbcolor } bind def
/d1 { setcachedevice } bind def
%%EndProlog
%%BeginSetup
%%EndSetup
%%Page: 1 1
%%BeginPageSetup
%%PageBoundingBox: 0 -1 410 410
%%EndPageSetup
q 0 -1 410 411 rectclip q
0 g
369.059 327.163 m 366.414 330.702 361.402 331.428 357.859 328.788 c 354.32
 326.143 353.594 321.127 356.238 317.588 c 411.898 243.065 404.188 137.186
 338.305 71.303 c 302.641 35.635 255.242 16.006 204.812 16.006 c 204.734
 16.006 204.648 16.006 204.578 16.006 c 200.164 16.006 196.582 12.428 196.578
 8.014 c 196.574 3.596 200.148 0.01 204.566 0.006 c 204.812 0.006 l 259.512
 0.006 310.934 21.303 349.617 59.987 c 384.637 95.006 405.77 141.471 409.125
 190.823 c 412.449 239.698 398.219 288.116 369.059 327.163 c h
369.059 327.163 m f
327.355 368.913 m 288.305 398.147 239.863 412.428 190.941 409.127 c 141.547
 405.795 95.043 384.659 59.996 349.612 c 16.219 305.834 -5.254 245.366 1.094
 183.713 c 1.52 179.596 4.992 176.53 9.043 176.53 c 9.316 176.53 9.594 176.545
 9.871 176.573 c 14.266 177.026 17.461 180.955 17.008 185.354 c 11.16 242.194
 30.949 297.94 71.309 338.299 c 137.266 404.256 243.219 411.913 317.766 
356.104 c 321.305 353.455 326.316 354.178 328.965 357.713 c 331.613 361.252
 330.891 366.264 327.355 368.913 c h
327.355 368.913 m f
349.707 349.522 m 349.555 349.674 l 346.441 352.807 341.375 352.819 338.242
 349.702 c 335.109 346.588 335.098 341.522 338.211 338.389 c 338.363 338.237
 l 339.926 336.666 341.98 335.877 344.035 335.877 c 346.074 335.877 348.117
 336.655 349.676 338.209 c 352.809 341.327 352.824 346.389 349.707 349.522
 c h
349.707 349.522 m f
262.992 212.799 m 258.574 212.799 254.992 209.217 254.992 204.799 c 254.992
 187.663 246.379 171.877 231.953 162.577 c 228.238 160.186 227.168 155.233
 229.559 151.522 c 231.09 149.147 233.664 147.854 236.293 147.854 c 237.777
 147.854 239.277 148.268 240.617 149.131 c 259.637 161.389 270.992 182.202
 270.992 204.799 c 270.992 209.221 267.41 212.799 262.992 212.799 c h
262.992 212.799 m f
284.754 284.748 m 248.246 321.252 191.746 328.432 147.352 302.205 c 143.547
 299.959 142.285 295.053 144.531 291.252 c 146.777 287.444 151.684 286.186
 155.488 288.432 c 193.598 310.944 242.102 304.776 273.441 273.436 c 291.773
 255.104 301.871 230.729 301.871 204.799 c 301.871 200.381 305.453 196.799
 309.871 196.799 c 314.289 196.799 317.871 200.381 317.871 204.799 c 317.871
 234.998 306.109 263.393 284.754 284.748 c h
284.754 284.748 m f
303.062 166.67 m 299.078 168.58 294.301 166.893 292.395 162.905 c 287.66
 153.002 281.281 144.006 273.441 136.166 c 256.984 119.705 235.672 109.897
 212.734 108.057 c 212.086 148.92 188.281 184.252 153.895 201.487 c 154.355
 202.498 154.617 203.616 154.617 204.799 c 154.617 232.475 177.133 254.987
 204.805 254.987 c 218.211 254.987 230.816 249.768 240.297 240.288 c 243.422
 237.163 248.484 237.163 251.609 240.288 c 254.734 243.413 254.734 248.475
 251.609 251.6 c 239.109 264.104 222.488 270.987 204.805 270.987 c 169.277
 270.987 140.207 242.846 138.691 207.682 c 128.504 210.936 117.66 212.698
 106.41 212.698 c 90.762 212.698 75.891 209.299 62.5 203.202 c 62.035 241.491
 76.914 278.33 104.195 305.612 c 107.32 308.737 107.32 313.803 104.195 316.928
 c 101.07 320.053 96.008 320.053 92.883 316.928 c 60.492 284.538 43.82 240.041
 46.84 194.405 c 18.633 175.264 0.062 142.936 0.062 106.354 c 0.062 47.713
 47.77 0.006 106.41 0.006 c 160.168 0.006 204.727 40.1 211.777 91.955 c 
239.355 93.62 265.043 105.143 284.754 124.854 c 293.879 133.979 301.309 
144.459 306.828 156.002 c 308.734 159.987 307.051 164.764 303.062 166.67
 c h
106.41 16.006 m 56.594 16.006 16.062 56.534 16.062 106.354 c 16.062 156.17
 56.59 196.702 106.41 196.702 c 156.227 196.702 196.758 156.17 196.758 106.354
 c 196.758 56.534 156.227 16.006 106.41 16.006 c h
106.41 16.006 m f
118.355 265.073 m 114.551 267.323 109.648 266.057 107.398 262.256 c 102.25
 253.538 98.297 244.151 95.656 234.354 c 94.504 230.088 97.027 225.698 101.293
 224.545 c 101.992 224.358 102.695 224.268 103.383 224.268 c 106.91 224.268
 110.141 226.62 111.102 230.186 c 113.367 238.588 116.758 246.639 121.176
 254.116 c 123.422 257.92 122.16 262.827 118.355 265.073 c h
118.355 265.073 m f
136.246 284.823 m 133.121 287.948 128.059 287.948 124.934 284.823 c 124.855
 284.748 l 121.734 281.623 121.734 276.557 124.855 273.432 c 126.418 271.87
 128.465 271.092 130.512 271.092 c 132.562 271.092 134.609 271.87 136.172
 273.432 c 136.246 273.51 l 139.371 276.631 139.371 281.698 136.246 284.823
 c h
136.246 284.823 m f
285.242 77.428 m 283.086 81.284 278.211 82.666 274.355 80.506 c 259.586
 72.252 243.582 66.752 226.789 64.155 c 222.422 63.479 219.43 59.393 220.102
 55.026 c 220.715 51.077 224.121 48.248 228 48.248 c 228.406 48.248 228.816
 48.28 229.23 48.342 c 247.914 51.229 265.727 57.354 282.164 66.541 c 286.02
 68.698 287.398 73.573 285.242 77.428 c h
285.242 77.428 m f
316.934 316.928 m 268.684 365.174 195.262 377.159 134.234 346.737 c 130.277
 344.764 128.672 339.963 130.641 336.006 c 132.613 332.053 137.414 330.444
 141.371 332.416 c 196.234 359.764 262.242 348.991 305.621 305.612 c 332.52
 278.709 347.336 242.944 347.336 204.901 c 347.336 166.858 332.52 131.092
 305.621 104.19 c 302.496 101.065 302.496 96.002 305.621 92.877 c 307.18
 91.315 309.23 90.534 311.277 90.534 c 313.324 90.534 315.371 91.315 316.934
 92.877 c 346.855 122.799 363.336 162.584 363.336 204.901 c 363.336 247.217
 346.855 287.002 316.934 316.928 c h
316.934 316.928 m f
167.164 85.248 m 146.016 106.397 l 138.391 114.022 125.988 114.022 118.363
 106.397 c 116.984 105.018 l 116.625 104.659 116.039 104.663 115.68 105.018
 c 105.078 115.623 l 104.719 115.983 104.719 116.569 105.078 116.928 c 106.453
 118.307 l 110.148 121.998 112.18 126.909 112.18 132.131 c 112.18 137.358
 110.148 142.268 106.453 145.959 c 85.305 167.108 l 77.68 174.733 65.277
 174.733 57.652 167.108 c 52.594 162.045 l 44.426 153.877 39.926 143.022
 39.926 131.467 c 39.926 119.916 44.426 109.057 52.594 100.893 c 100.945
 52.538 l 109.379 44.104 120.453 39.889 131.523 39.889 c 142.598 39.889 
153.672 44.108 162.102 52.538 c 167.164 57.596 l 170.855 61.291 172.891 
66.202 172.891 71.424 c 172.891 76.643 170.855 81.557 167.164 85.248 c h
155.848 68.909 m 150.789 63.85 l 140.168 53.229 122.883 53.229 112.262 
63.85 c 63.906 112.205 l 58.762 117.35 55.926 124.194 55.926 131.467 c 55.926
 138.745 58.758 145.588 63.906 150.733 c 68.965 155.795 l 69.66 156.487 
70.57 156.834 71.48 156.834 c 72.391 156.834 73.301 156.487 73.992 155.795
 c 95.141 134.643 l 96.047 133.737 96.184 132.682 96.184 132.131 c 96.184
 131.58 96.047 130.526 95.141 129.62 c 93.762 128.241 l 87.164 121.643 87.164
 110.905 93.762 104.307 c 104.367 93.705 l 107.562 90.506 111.812 88.748
 116.332 88.748 c 120.852 88.748 125.102 90.506 128.301 93.705 c 129.676
 95.084 l 131.062 96.467 133.32 96.467 134.703 95.084 c 155.852 73.932 l
 156.758 73.03 156.895 71.971 156.895 71.42 c 156.895 70.87 156.758 69.815
 155.848 68.909 c h
155.848 68.909 m f
Q Q
showpage
%%Trailer
end restore
%%EOF
