%!PS-Adobe-3.0 EPSF-3.0
%%Creator: cairo 1.14.2 (http://cairographics.org)
%%CreationDate: Thu Jul 26 08:51:17 2018
%%Pages: 1
%%DocumentData: Clean7Bit
%%LanguageLevel: 2
%%BoundingBox: 0 1 410 408
%%EndComments
%%BeginProlog
save
50 dict begin
/q { gsave } bind def
/Q { grestore } bind def
/cm { 6 array astore concat } bind def
/w { setlinewidth } bind def
/J { setlinecap } bind def
/j { setlinejoin } bind def
/M { setmiterlimit } bind def
/d { setdash } bind def
/m { moveto } bind def
/l { lineto } bind def
/c { curveto } bind def
/h { closepath } bind def
/re { exch dup neg 3 1 roll 5 3 roll moveto 0 rlineto
      0 exch rlineto 0 rlineto closepath } bind def
/S { stroke } bind def
/f { fill } bind def
/f* { eofill } bind def
/n { newpath } bind def
/W { clip } bind def
/W* { eoclip } bind def
/BT { } bind def
/ET { } bind def
/pdfmark where { pop globaldict /?pdfmark /exec load put }
    { globaldict begin /?pdfmark /pop load def /pdfmark
    /cleartomark load def end } ifelse
/BDC { mark 3 1 roll /BDC pdfmark } bind def
/EMC { mark /EMC pdfmark } bind def
/cairo_store_point { /cairo_point_y exch def /cairo_point_x exch def } def
/Tj { show currentpoint cairo_store_point } bind def
/TJ {
  {
    dup
    type /stringtype eq
    { show } { -0.001 mul 0 cairo_font_matrix dtransform rmoveto } ifelse
  } forall
  currentpoint cairo_store_point
} bind def
/cairo_selectfont { cairo_font_matrix aload pop pop pop 0 0 6 array astore
    cairo_font exch selectfont cairo_point_x cairo_point_y moveto } bind def
/Tf { pop /cairo_font exch def /cairo_font_matrix where
      { pop cairo_selectfont } if } bind def
/Td { matrix translate cairo_font_matrix matrix concatmatrix dup
      /cairo_font_matrix exch def dup 4 get exch 5 get cairo_store_point
      /cairo_font where { pop cairo_selectfont } if } bind def
/Tm { 2 copy 8 2 roll 6 array astore /cairo_font_matrix exch def
      cairo_store_point /cairo_font where { pop cairo_selectfont } if } bind def
/g { setgray } bind def
/rg { setrgbcolor } bind def
/d1 { setcachedevice } bind def
%%EndProlog
%%BeginSetup
%%EndSetup
%%Page: 1 1
%%BeginPageSetup
%%PageBoundingBox: 0 1 410 408
%%EndPageSetup
q 0 1 410 407 rectclip q
0 g
204.836 407.391 m 173.074 407.391 147.234 381.552 147.234 349.79 c 147.234
 318.028 173.074 292.188 204.836 292.188 c 236.598 292.188 262.434 318.028
 262.434 349.79 c 262.434 381.552 236.598 407.391 204.836 407.391 c h
204.836 308.188 m 181.898 308.188 163.234 326.852 163.234 349.79 c 163.234
 372.727 181.898 391.387 204.836 391.387 c 227.773 391.387 246.434 372.727
 246.434 349.79 c 246.434 326.852 227.773 308.188 204.836 308.188 c h
204.836 308.188 m f
380.812 145.302 m 367.492 152.993 351.973 155.036 337.113 151.055 c 322.254
 147.075 309.832 137.544 302.141 124.223 c 286.266 96.723 295.723 61.43 
323.223 45.552 c 332.27 40.329 342.156 37.844 351.922 37.844 c 371.84 37.848
 391.238 48.177 401.895 66.63 c 417.773 94.134 408.316 129.427 380.812 145.302
 c h
388.039 74.63 m 376.57 54.77 351.086 47.938 331.223 59.407 c 311.363 70.872
 304.531 96.36 316 116.223 c 321.555 125.844 330.523 132.727 341.254 135.602
 c 344.836 136.563 348.473 137.036 352.086 137.036 c 359.293 137.036 366.406
 135.145 372.812 131.446 c 392.676 119.977 399.504 94.493 388.039 74.63 
c h
388.039 74.63 m f
35.234 188.7 m 35.211 188.7 l 30.805 188.7 27.227 185.134 27.211 180.723
 c 27.211 180.278 l 27.211 175.86 30.793 172.278 35.211 172.278 c 39.633
 172.278 43.211 175.86 43.211 180.278 c 43.211 180.677 l 43.227 185.094 
39.652 188.688 35.234 188.7 c h
35.234 188.7 m f
140.316 337.329 m 138.449 341.333 133.688 343.063 129.684 341.192 c 76.457
 316.333 39.023 266.981 29.555 209.184 c 28.84 204.825 31.797 200.712 36.156
 199.997 c 36.594 199.927 37.031 199.891 37.461 199.891 c 41.309 199.891
 44.703 202.677 45.344 206.598 c 53.957 259.177 88.02 304.071 136.453 326.696
 c 140.457 328.567 142.188 333.329 140.316 337.329 c h
140.316 337.329 m f
315.414 319.055 m 311.965 321.813 306.93 321.251 304.172 317.798 c 301.414
 314.344 301.977 309.309 305.43 306.555 c 344.07 275.696 366.23 229.669 
366.23 180.278 c 366.23 175.86 369.812 172.278 374.23 172.278 c 378.648 
172.278 382.23 175.86 382.23 180.278 c 382.23 234.563 357.879 285.141 315.414
 319.055 c h
315.414 319.055 m f
299.848 39.169 m 297.543 42.938 292.621 44.126 288.848 41.821 c 263.586
 26.372 234.496 18.208 204.723 18.208 c 175.398 18.208 146.691 26.141 121.695
 41.153 c 117.91 43.427 112.996 42.2 110.719 38.415 c 108.445 34.626 109.672
 29.712 113.457 27.434 c 140.941 10.93 172.496 2.208 204.723 2.208 c 237.441
 2.208 269.418 11.188 297.195 28.169 c 300.965 30.473 302.152 35.399 299.848
 39.169 c h
299.848 39.169 m f
107.492 124.419 m 99.801 137.739 87.383 147.27 72.523 151.251 c 57.664 
155.235 42.145 153.188 28.82 145.497 c 15.5 137.805 5.969 125.387 1.988 
110.528 c -1.992 95.669 0.047 80.149 7.742 66.829 c 18.395 48.372 37.793
 38.044 57.715 38.044 c 67.477 38.044 77.367 40.524 86.41 45.747 c 113.914
 61.626 123.371 96.919 107.492 124.419 c h
78.41 59.602 m 58.551 48.137 33.062 54.966 21.598 74.829 c 16.043 84.45
 14.566 95.657 17.441 106.387 c 20.316 117.118 27.199 126.087 36.82 131.641
 c 43.23 135.341 50.34 137.231 57.547 137.231 c 61.16 137.231 64.797 136.759
 68.379 135.798 c 79.109 132.923 88.082 126.04 93.637 116.419 c 105.102 
96.559 98.273 71.071 78.41 59.602 c h
78.41 59.602 m f
293.289 329.454 m 293.289 325.036 289.707 321.454 285.289 321.454 c 280.871
 321.454 277.289 325.036 277.289 329.454 c 277.289 333.872 280.871 337.454
 285.289 337.454 c 289.707 337.454 293.289 333.872 293.289 329.454 c h
293.289 329.454 m f
274.961 143.821 m 248.758 170.024 l 244.543 174.239 238.938 176.559 232.98
 176.559 c 227.02 176.559 221.414 174.239 217.199 170.024 c 215.492 168.317
 l 214.715 167.536 213.805 167.423 213.332 167.423 c 212.859 167.423 211.953
 167.536 211.172 168.317 c 192.43 187.059 l 191.652 187.837 191.535 188.747
 191.535 189.219 c 191.535 189.692 191.652 190.598 192.43 191.38 c 194.137
 193.087 l 202.836 201.786 202.836 215.942 194.137 224.641 c 167.934 250.844
 l 159.234 259.544 145.078 259.544 136.379 250.844 c 130.109 244.575 l 109.965
 224.43 109.965 191.653 130.109 171.509 c 195.625 105.993 l 205.383 96.235
 218.359 90.86 232.16 90.86 c 245.957 90.86 258.934 96.235 268.691 105.993
 c 274.961 112.262 l 283.66 120.966 283.66 135.122 274.961 143.821 c h
263.645 123.575 m 257.375 117.305 l 250.641 110.571 241.684 106.86 232.156
 106.86 c 222.633 106.86 213.676 110.571 206.938 117.305 c 141.422 182.825
 l 127.516 196.727 127.516 219.356 141.422 233.262 c 147.691 239.532 l 148.922
 240.762 150.539 241.376 152.156 241.376 c 153.773 241.376 155.391 240.762
 156.621 239.532 c 182.824 213.329 l 185.285 210.868 185.285 206.86 182.824
 204.399 c 181.113 202.692 l 173.688 195.262 173.688 183.173 181.113 175.743
 c 199.859 157.001 l 203.457 153.403 208.242 151.419 213.332 151.419 c 218.422
 151.419 223.207 153.403 226.805 157.001 c 228.512 158.708 l 230.977 161.169
 234.98 161.169 237.441 158.708 c 263.645 132.505 l 266.109 130.044 266.109
 126.04 263.645 123.575 c h
263.645 123.575 m f
219.621 262.739 m 215.203 262.739 211.621 259.157 211.621 254.739 c 211.621
 250.321 215.203 246.739 219.621 246.739 c 247.766 246.739 270.66 223.841
 270.66 195.7 c 270.66 191.282 274.242 187.7 278.66 187.7 c 283.078 187.7
 286.66 191.282 286.66 195.7 c 286.66 232.665 256.586 262.739 219.621 262.739
 c h
219.621 262.739 m f
219.621 229.001 m 215.203 229.001 211.621 225.423 211.621 221.001 c 211.621
 216.583 215.203 213.001 219.621 213.001 c 229.16 213.001 236.926 205.239
 236.926 195.7 c 236.926 191.282 240.504 187.7 244.926 187.7 c 249.344 187.7
 252.926 191.282 252.926 195.7 c 252.926 214.063 237.984 229.001 219.621
 229.001 c h
219.621 229.001 m f
Q Q
showpage
%%Trailer
end restore
%%EOF
