%!PS-Adobe-3.0 EPSF-3.0
%%Creator: cairo 1.14.2 (http://cairographics.org)
%%CreationDate: Thu Jul 26 08:51:17 2018
%%Pages: 1
%%DocumentData: Clean7Bit
%%LanguageLevel: 2
%%BoundingBox: 43 -1 367 410
%%EndComments
%%BeginProlog
save
50 dict begin
/q { gsave } bind def
/Q { grestore } bind def
/cm { 6 array astore concat } bind def
/w { setlinewidth } bind def
/J { setlinecap } bind def
/j { setlinejoin } bind def
/M { setmiterlimit } bind def
/d { setdash } bind def
/m { moveto } bind def
/l { lineto } bind def
/c { curveto } bind def
/h { closepath } bind def
/re { exch dup neg 3 1 roll 5 3 roll moveto 0 rlineto
      0 exch rlineto 0 rlineto closepath } bind def
/S { stroke } bind def
/f { fill } bind def
/f* { eofill } bind def
/n { newpath } bind def
/W { clip } bind def
/W* { eoclip } bind def
/BT { } bind def
/ET { } bind def
/pdfmark where { pop globaldict /?pdfmark /exec load put }
    { globaldict begin /?pdfmark /pop load def /pdfmark
    /cleartomark load def end } ifelse
/BDC { mark 3 1 roll /BDC pdfmark } bind def
/EMC { mark /EMC pdfmark } bind def
/cairo_store_point { /cairo_point_y exch def /cairo_point_x exch def } def
/Tj { show currentpoint cairo_store_point } bind def
/TJ {
  {
    dup
    type /stringtype eq
    { show } { -0.001 mul 0 cairo_font_matrix dtransform rmoveto } ifelse
  } forall
  currentpoint cairo_store_point
} bind def
/cairo_selectfont { cairo_font_matrix aload pop pop pop 0 0 6 array astore
    cairo_font exch selectfont cairo_point_x cairo_point_y moveto } bind def
/Tf { pop /cairo_font exch def /cairo_font_matrix where
      { pop cairo_selectfont } if } bind def
/Td { matrix translate cairo_font_matrix matrix concatmatrix dup
      /cairo_font_matrix exch def dup 4 get exch 5 get cairo_store_point
      /cairo_font where { pop cairo_selectfont } if } bind def
/Tm { 2 copy 8 2 roll 6 array astore /cairo_font_matrix exch def
      cairo_store_point /cairo_font where { pop cairo_selectfont } if } bind def
/g { setgray } bind def
/rg { setrgbcolor } bind def
/d1 { setcachedevice } bind def
%%EndProlog
%%BeginSetup
%%EndSetup
%%Page: 1 1
%%BeginPageSetup
%%PageBoundingBox: 43 -1 367 410
%%EndPageSetup
q 43 -1 324 411 rectclip q
0 g
308.574 366.178 m 308.348 366.409 l 305.238 369.549 300.176 369.577 297.031
 366.471 c 293.891 363.366 293.863 358.299 296.969 355.159 c 297.168 354.959
 l 298.734 353.366 300.801 352.569 302.871 352.569 c 304.895 352.569 306.922
 353.334 308.48 354.866 c 311.629 357.963 311.672 363.03 308.574 366.178
 c h
308.574 366.178 m f
136.594 13.655 m 135.105 15.143 133.039 15.998 130.938 15.998 c 128.824
 15.998 126.77 15.143 125.281 13.655 c 123.785 12.166 122.938 10.104 122.938
 7.998 c 122.938 5.897 123.785 3.83 125.281 2.346 c 126.77 0.858 128.824
 -0.002 130.938 -0.002 c 133.039 -0.002 135.105 0.858 136.594 2.346 c 138.078
 3.83 138.938 5.897 138.938 7.998 c 138.938 10.104 138.078 12.166 136.594
 13.655 c h
136.594 13.655 m f
365.676 11.33 m 322.473 105.729 l 321.172 108.577 318.328 110.401 315.199
 110.401 c 269.859 110.401 l 317.406 171.311 l 317.57 171.526 317.727 171.745
 317.867 171.971 c 338.93 197.85 350.512 230.448 350.512 263.889 c 350.512
 292.647 342.145 320.467 326.309 344.338 c 323.867 348.022 318.902 349.026
 315.219 346.58 c 311.535 344.139 310.531 339.174 312.977 335.495 c 327.066
 314.252 334.512 289.491 334.512 263.885 c 334.512 233.799 323.98 204.479
 304.852 181.327 c 304.586 181.006 304.352 180.674 304.145 180.323 c 204.801
 53.053 l 104.516 181.596 l 104.418 181.733 104.312 181.87 104.203 182.002
 c 85.43 205.041 75.09 234.123 75.09 263.889 c 75.086 335.413 133.277 393.6
 204.801 393.6 c 230.281 393.6 254.945 386.217 276.121 372.252 c 279.809
 369.819 284.77 370.834 287.203 374.526 c 289.637 378.213 288.621 383.174
 284.93 385.608 c 261.133 401.303 233.426 409.6 204.801 409.6 c 124.453 
409.6 59.086 344.233 59.086 263.889 c 59.086 230.569 70.621 198.01 91.574
 172.174 c 91.609 172.123 91.648 172.077 91.684 172.03 c 139.766 110.401
 l 94.398 110.401 l 91.27 110.401 88.43 108.577 87.125 105.729 c 43.926 
11.33 l 42.793 8.854 42.996 5.971 44.469 3.678 c 45.941 1.385 48.477 -0.002
 51.199 -0.002 c 100.398 -0.002 l 104.82 -0.002 108.398 3.58 108.398 7.998
 c 108.398 12.416 104.82 15.998 100.398 15.998 c 63.66 15.998 l 99.535 94.401
 l 152.25 94.401 l 198.492 35.127 l 200.008 33.186 202.336 32.049 204.801
 32.049 c 207.266 32.049 209.59 33.186 211.105 35.127 c 257.371 94.401 l
 310.062 94.401 l 345.941 15.998 l 162.934 15.998 l 158.516 15.998 154.934
 12.416 154.934 7.998 c 154.934 3.58 158.516 -0.002 162.934 -0.002 c 358.398
 -0.002 l 361.125 -0.002 363.66 1.385 365.133 3.678 c 366.602 5.971 366.809
 8.854 365.676 11.33 c h
365.676 11.33 m f
272.902 244.163 m 249.012 268.057 l 240.801 276.264 227.449 276.264 219.238
 268.057 c 217.68 266.498 l 216.871 265.686 215.551 265.686 214.742 266.498
 c 197.652 283.588 l 196.84 284.401 196.84 285.717 197.652 286.53 c 199.207
 288.084 l 203.184 292.061 205.375 297.35 205.375 302.971 c 205.375 308.596
 203.184 313.881 199.207 317.858 c 175.316 341.748 l 167.105 349.959 153.75
 349.955 145.543 341.748 c 139.828 336.034 l 121.184 317.389 121.184 287.057
 139.828 268.413 c 199.566 208.674 l 208.887 199.354 221.133 194.694 233.375
 194.694 c 245.621 194.694 257.863 199.354 267.188 208.674 c 272.902 214.393
 l 281.109 222.6 281.109 235.955 272.902 244.163 c h
261.59 225.705 m 255.871 219.987 l 243.469 207.584 223.281 207.584 210.879
 219.987 c 151.141 279.729 l 138.734 292.131 138.734 312.315 151.141 324.721
 c 156.859 330.436 l 157.844 331.42 159.137 331.913 160.43 331.913 c 161.723
 331.913 163.016 331.42 164 330.436 c 187.895 306.545 l 188.848 305.588 
189.375 304.323 189.375 302.971 c 189.375 301.623 188.848 300.354 187.895
 299.401 c 186.336 297.842 l 182.922 294.428 181.043 289.889 181.043 285.061
 c 181.043 280.229 182.922 275.69 186.336 272.276 c 203.426 255.182 l 206.84
 251.768 211.383 249.889 216.211 249.889 c 221.039 249.889 225.578 251.768
 228.996 255.182 c 230.551 256.741 l 232.523 258.709 235.727 258.709 237.695
 256.741 c 261.59 232.85 l 263.559 230.877 263.559 227.674 261.59 225.705
 c h
261.59 225.705 m f
221.945 352.799 m 217.527 352.799 213.945 349.217 213.945 344.799 c 213.945
 340.381 217.527 336.799 221.945 336.799 c 247.219 336.799 267.777 316.241
 267.777 290.967 c 267.777 286.549 271.359 282.967 275.777 282.967 c 280.195
 282.967 283.777 286.549 283.777 290.967 c 283.777 325.061 256.039 352.799
 221.945 352.799 c h
221.945 352.799 m f
221.945 322.038 m 217.527 322.038 213.945 318.459 213.945 314.038 c 213.945
 309.62 217.527 306.038 221.945 306.038 c 230.258 306.038 237.02 299.276
 237.02 290.967 c 237.02 286.549 240.598 282.967 245.02 282.967 c 249.438
 282.967 253.02 286.549 253.02 290.967 c 253.02 308.1 239.078 322.038 221.945
 322.038 c h
221.945 322.038 m f
Q Q
showpage
%%Trailer
end restore
%%EOF
