%!PS-Adobe-3.0 EPSF-3.0
%%Creator: cairo 1.14.2 (http://cairographics.org)
%%CreationDate: Thu Jul 26 08:51:17 2018
%%Pages: 1
%%DocumentData: Clean7Bit
%%LanguageLevel: 2
%%BoundingBox: 0 -1 410 410
%%EndComments
%%BeginProlog
save
50 dict begin
/q { gsave } bind def
/Q { grestore } bind def
/cm { 6 array astore concat } bind def
/w { setlinewidth } bind def
/J { setlinecap } bind def
/j { setlinejoin } bind def
/M { setmiterlimit } bind def
/d { setdash } bind def
/m { moveto } bind def
/l { lineto } bind def
/c { curveto } bind def
/h { closepath } bind def
/re { exch dup neg 3 1 roll 5 3 roll moveto 0 rlineto
      0 exch rlineto 0 rlineto closepath } bind def
/S { stroke } bind def
/f { fill } bind def
/f* { eofill } bind def
/n { newpath } bind def
/W { clip } bind def
/W* { eoclip } bind def
/BT { } bind def
/ET { } bind def
/pdfmark where { pop globaldict /?pdfmark /exec load put }
    { globaldict begin /?pdfmark /pop load def /pdfmark
    /cleartomark load def end } ifelse
/BDC { mark 3 1 roll /BDC pdfmark } bind def
/EMC { mark /EMC pdfmark } bind def
/cairo_store_point { /cairo_point_y exch def /cairo_point_x exch def } def
/Tj { show currentpoint cairo_store_point } bind def
/TJ {
  {
    dup
    type /stringtype eq
    { show } { -0.001 mul 0 cairo_font_matrix dtransform rmoveto } ifelse
  } forall
  currentpoint cairo_store_point
} bind def
/cairo_selectfont { cairo_font_matrix aload pop pop pop 0 0 6 array astore
    cairo_font exch selectfont cairo_point_x cairo_point_y moveto } bind def
/Tf { pop /cairo_font exch def /cairo_font_matrix where
      { pop cairo_selectfont } if } bind def
/Td { matrix translate cairo_font_matrix matrix concatmatrix dup
      /cairo_font_matrix exch def dup 4 get exch 5 get cairo_store_point
      /cairo_font where { pop cairo_selectfont } if } bind def
/Tm { 2 copy 8 2 roll 6 array astore /cairo_font_matrix exch def
      cairo_store_point /cairo_font where { pop cairo_selectfont } if } bind def
/g { setgray } bind def
/rg { setrgbcolor } bind def
/d1 { setcachedevice } bind def
%%EndProlog
%%BeginSetup
%%EndSetup
%%Page: 1 1
%%BeginPageSetup
%%PageBoundingBox: 0 -1 410 410
%%EndPageSetup
q 0 -1 410 411 rectclip q
0 g
254.617 265.289 m 253.129 266.777 251.066 267.633 248.961 267.633 c 246.859
 267.633 244.793 266.777 243.305 265.289 c 241.816 263.801 240.961 261.738
 240.961 259.633 c 240.961 257.523 241.816 255.465 243.305 253.977 c 244.793
 252.48 246.859 251.633 248.961 251.633 c 251.066 251.633 253.129 252.48
 254.617 253.977 c 256.105 255.465 256.961 257.531 256.961 259.633 c 256.961
 261.738 256.105 263.801 254.617 265.289 c h
254.617 265.289 m f
407.258 293.309 m 404.137 296.434 399.07 296.434 395.945 293.309 c 374.289
 271.656 l 369.664 283.598 362.555 294.555 353.227 303.883 c 318.211 338.898
 l 310.836 346.273 302.52 352.156 293.645 356.543 c 333.047 395.945 l 336.172
 399.066 336.172 404.133 333.047 407.258 c 329.922 410.383 324.855 410.383
 321.73 407.258 c 277.262 362.785 l 246.789 371.219 212.844 363.941 188.367
 340.953 c 175.551 351.262 159.734 356.875 143.055 356.875 c 136.988 356.875
 131.039 356.133 125.305 354.695 c 72.742 407.258 l 69.621 410.383 64.555
 410.383 61.43 407.258 c 58.305 404.133 58.305 399.07 61.43 395.945 c 108.973
 348.398 l 102.734 345.066 96.949 340.793 91.805 335.645 c 27.312 271.152
 l 26.199 270.039 25.145 268.891 24.117 267.723 c 13.656 278.184 l 10.535
 281.305 5.469 281.305 2.344 278.184 c -0.781 275.059 -0.781 269.992 2.344
 266.867 c 14.824 254.387 l -0.016 226.926 4.137 191.836 27.312 168.66 c
 40.793 155.176 l 38.637 150.785 37.492 145.926 37.492 140.891 c 37.492 
132.223 40.867 124.074 46.996 117.945 c 53.125 111.816 61.273 108.441 69.941
 108.441 c 70.691 108.441 71.43 108.473 72.168 108.523 c 71.559 99.492 74.688
 90.254 81.574 83.363 c 87.902 77.039 96.211 73.875 104.523 73.875 c 105.258
 73.875 105.996 73.91 106.734 73.961 c 106.684 73.223 106.648 72.48 106.648
 71.734 c 106.648 63.066 110.027 54.914 116.156 48.785 c 122.48 42.461 130.789
 39.297 139.102 39.297 c 139.84 39.297 140.574 39.332 141.312 39.379 c 141.262
 38.641 141.23 37.902 141.23 37.152 c 141.23 28.484 144.605 20.336 150.734
 14.207 c 156.863 8.078 165.012 4.703 173.68 4.703 c 182.348 4.703 190.496
 8.078 196.629 14.207 c 201.941 19.52 l 211.957 9.504 l 218.086 3.375 226.234
 0 234.902 0 c 243.57 0 251.723 3.375 257.852 9.504 c 263.98 15.633 267.355
 23.781 267.355 32.449 c 267.355 33.051 267.336 33.645 267.305 34.238 c 
267.895 34.207 268.484 34.188 269.074 34.188 c 277.387 34.188 285.695 37.352
 292.023 43.676 c 298.91 50.566 302.039 59.805 301.43 68.836 c 302.168 68.785
 302.906 68.75 303.656 68.75 c 312.324 68.75 320.473 72.129 326.602 78.258
 c 332.73 84.383 336.105 92.535 336.105 101.203 c 336.105 101.945 336.074
 102.68 336.023 103.414 c 336.758 103.363 337.492 103.332 338.234 103.332
 c 346.902 103.332 355.051 106.707 361.18 112.836 c 367.309 118.965 370.684
 127.113 370.684 135.781 c 370.684 144.449 367.309 152.598 361.18 158.73
 c 349.969 169.938 l 351.16 170.313 352.281 170.965 353.227 171.91 c 370.852
 189.535 380.559 212.969 380.559 237.898 c 380.559 243.328 380.098 248.688
 379.195 253.93 c 407.258 281.996 l 410.383 285.121 410.383 290.188 407.258
 293.309 c h
69.941 124.441 m 65.547 124.441 61.418 126.152 58.309 129.258 c 55.203 
132.367 53.492 136.496 53.492 140.891 c 53.492 145.285 55.203 149.418 58.309
 152.523 c 71.992 166.207 l 75.203 169.414 79.414 171.02 83.629 171.02 c
 87.84 171.02 92.055 169.414 95.262 166.207 c 101.676 159.793 101.676 149.355
 95.262 142.941 c 81.574 129.258 l 78.469 126.152 74.336 124.441 69.941 
124.441 c h
92.891 94.68 m 86.477 101.094 86.477 111.531 92.891 117.945 c 106.574 131.629
 l 109.68 134.734 113.812 136.445 118.207 136.445 c 122.602 136.445 126.734
 134.734 129.84 131.629 c 132.945 128.52 134.66 124.391 134.66 119.996 c
 134.66 115.602 132.945 111.469 129.84 108.363 c 116.156 94.68 l 109.742
 88.266 99.305 88.266 92.891 94.68 c h
127.469 60.102 m 124.363 63.207 122.652 67.34 122.652 71.734 c 122.652 
76.129 124.363 80.258 127.469 83.367 c 141.152 97.051 l 144.262 100.156 
148.391 101.867 152.785 101.867 c 157.18 101.867 161.312 100.156 164.418
 97.051 c 167.527 93.941 169.238 89.813 169.238 85.418 c 169.238 81.023 
167.527 76.891 164.418 73.785 c 150.734 60.102 l 144.32 53.688 133.883 53.688
 127.469 60.102 c h
198.996 39.207 m 185.312 25.523 l 182.207 22.414 178.074 20.703 173.68 
20.703 c 169.285 20.703 165.156 22.414 162.047 25.523 c 158.941 28.629 157.23
 32.762 157.23 37.152 c 157.23 41.547 158.941 45.68 162.047 48.785 c 175.73
 62.469 l 178.938 65.676 183.152 67.281 187.363 67.281 c 191.578 67.281 
195.789 65.676 198.996 62.469 c 202.105 59.363 203.816 55.23 203.816 50.836
 c 203.816 46.445 202.105 42.313 198.996 39.207 c h
341.91 183.223 m 340.969 182.281 340.316 181.16 339.941 179.969 c 278.355
 241.555 l 275.23 244.68 270.164 244.68 267.039 241.555 c 263.914 238.43
 263.918 233.363 267.039 230.238 c 349.867 147.414 l 352.973 144.309 354.684
 140.176 354.684 135.781 c 354.684 131.387 352.973 127.258 349.867 124.148
 c 346.758 121.043 342.629 119.332 338.234 119.332 c 333.84 119.332 329.707
 121.043 326.602 124.148 c 266.359 184.391 l 263.234 187.512 258.172 187.512
 255.047 184.391 c 251.922 181.266 251.922 176.199 255.047 173.074 c 277.668
 150.457 l 277.672 150.449 l 315.285 112.836 l 318.395 109.727 320.105 105.598
 320.105 101.203 c 320.105 96.809 318.395 92.676 315.285 89.57 c 312.18 
86.461 308.047 84.754 303.652 84.754 c 299.258 84.754 295.129 86.465 292.02
 89.57 c 231.781 149.813 l 228.656 152.934 223.59 152.934 220.465 149.813
 c 217.34 146.688 217.34 141.621 220.465 138.496 c 243.09 115.871 l 280.707
 78.258 l 287.121 71.84 287.121 61.406 280.707 54.992 c 275.145 49.43 266.559
 48.695 260.191 52.781 c 259.461 53.688 258.684 54.563 257.848 55.398 c 
240.207 73.039 l 239.465 73.781 238.609 74.344 237.699 74.73 c 197.199 115.23
 l 194.074 118.355 189.008 118.355 185.887 115.23 c 182.762 112.105 182.762
 107.043 185.887 103.918 c 246.125 43.676 l 246.965 42.836 247.84 42.059
 248.742 41.332 c 250.434 38.703 251.352 35.648 251.352 32.449 c 251.352
 28.059 249.641 23.926 246.535 20.816 c 243.426 17.711 239.297 16 234.902
 16 c 230.508 16 226.375 17.711 223.266 20.816 c 213.059 31.027 l 217.434
 36.676 219.812 43.57 219.812 50.836 c 219.812 59.504 216.438 67.652 210.309
 73.781 c 203.418 80.672 194.18 83.801 185.148 83.188 c 185.199 83.926 185.234
 84.668 185.234 85.414 c 185.234 94.082 181.859 102.234 175.73 108.363 c
 169.598 114.492 161.449 117.867 152.781 117.867 c 152.039 117.867 151.305
 117.832 150.57 117.785 c 150.621 118.516 150.656 119.254 150.656 119.996
 c 150.656 128.664 147.277 136.813 141.148 142.941 c 135.02 149.07 126.871
 152.445 118.203 152.445 c 117.457 152.445 116.715 152.41 115.977 152.363
 c 116.59 161.395 113.457 170.633 106.57 177.523 c 93.918 190.172 73.332
 190.172 60.676 177.523 c 50.875 167.719 l 38.625 179.973 l 16.602 201.992
 16.602 237.82 38.625 259.84 c 103.117 324.332 l 123.215 344.43 154.812 
346.176 176.918 329.582 c 138.551 291.211 l 131.676 284.34 127.891 275.199
 127.891 265.477 c 127.891 255.758 131.676 246.617 138.547 239.746 c 145.422
 232.871 154.562 229.086 164.285 229.086 c 174.004 229.086 183.145 232.871
 190.02 239.746 c 229.105 278.836 l 232.23 281.957 232.23 287.023 229.105
 290.148 c 225.984 293.273 220.918 293.273 217.793 290.148 c 178.703 251.059
 l 174.852 247.207 169.73 245.086 164.285 245.086 c 158.836 245.086 153.715
 247.207 149.863 251.059 c 146.012 254.91 143.891 260.031 143.891 265.48
 c 143.891 270.926 146.012 276.047 149.863 279.898 c 197.547 327.582 l 227.695
 357.73 276.746 357.73 306.895 327.582 c 341.906 292.57 l 356.512 277.969
 364.555 258.551 364.555 237.898 c 364.555 217.242 356.516 197.828 341.91
 183.223 c h
341.91 183.223 m f
Q Q
showpage
%%Trailer
end restore
%%EOF
