%!PS-Adobe-3.0 EPSF-3.0
%%Creator: cairo 1.14.2 (http://cairographics.org)
%%CreationDate: Thu Jul 26 08:51:17 2018
%%Pages: 1
%%DocumentData: Clean7Bit
%%LanguageLevel: 2
%%BoundingBox: 0 -1 410 410
%%EndComments
%%BeginProlog
save
50 dict begin
/q { gsave } bind def
/Q { grestore } bind def
/cm { 6 array astore concat } bind def
/w { setlinewidth } bind def
/J { setlinecap } bind def
/j { setlinejoin } bind def
/M { setmiterlimit } bind def
/d { setdash } bind def
/m { moveto } bind def
/l { lineto } bind def
/c { curveto } bind def
/h { closepath } bind def
/re { exch dup neg 3 1 roll 5 3 roll moveto 0 rlineto
      0 exch rlineto 0 rlineto closepath } bind def
/S { stroke } bind def
/f { fill } bind def
/f* { eofill } bind def
/n { newpath } bind def
/W { clip } bind def
/W* { eoclip } bind def
/BT { } bind def
/ET { } bind def
/pdfmark where { pop globaldict /?pdfmark /exec load put }
    { globaldict begin /?pdfmark /pop load def /pdfmark
    /cleartomark load def end } ifelse
/BDC { mark 3 1 roll /BDC pdfmark } bind def
/EMC { mark /EMC pdfmark } bind def
/cairo_store_point { /cairo_point_y exch def /cairo_point_x exch def } def
/Tj { show currentpoint cairo_store_point } bind def
/TJ {
  {
    dup
    type /stringtype eq
    { show } { -0.001 mul 0 cairo_font_matrix dtransform rmoveto } ifelse
  } forall
  currentpoint cairo_store_point
} bind def
/cairo_selectfont { cairo_font_matrix aload pop pop pop 0 0 6 array astore
    cairo_font exch selectfont cairo_point_x cairo_point_y moveto } bind def
/Tf { pop /cairo_font exch def /cairo_font_matrix where
      { pop cairo_selectfont } if } bind def
/Td { matrix translate cairo_font_matrix matrix concatmatrix dup
      /cairo_font_matrix exch def dup 4 get exch 5 get cairo_store_point
      /cairo_font where { pop cairo_selectfont } if } bind def
/Tm { 2 copy 8 2 roll 6 array astore /cairo_font_matrix exch def
      cairo_store_point /cairo_font where { pop cairo_selectfont } if } bind def
/g { setgray } bind def
/rg { setrgbcolor } bind def
/d1 { setcachedevice } bind def
%%EndProlog
%%BeginSetup
%%EndSetup
%%Page: 1 1
%%BeginPageSetup
%%PageBoundingBox: 0 -1 410 410
%%EndPageSetup
q 0 -1 410 411 rectclip q
0 g
365.875 331.971 m 370.266 338.038 372.863 345.483 372.863 353.53 c 372.863
 401.6 l 372.863 406.018 369.281 409.6 364.863 409.6 c 329.109 409.6 l 312.582
 409.6 299.137 396.155 299.137 379.627 c 299.137 353.53 l 299.137 345.483
 301.734 338.038 306.125 331.971 c 281.363 327.924 262.398 306.389 262.398
 280.498 c 262.398 267.998 l 262.398 263.58 265.98 259.998 270.398 259.998
 c 401.602 259.998 l 406.02 259.998 409.602 263.58 409.602 267.998 c 409.602
 280.498 l 409.602 306.389 390.637 327.924 365.875 331.971 c h
315.137 379.627 m 315.137 387.33 321.406 393.6 329.109 393.6 c 356.863 
393.6 l 356.863 383.858 l 356.863 379.08 352.977 375.194 348.199 375.194
 c 315.137 375.194 l h
315.137 359.194 m 348.199 359.194 l 351.25 359.194 354.168 359.752 356.863
 360.768 c 356.863 353.53 l 356.863 342.026 347.504 332.666 336 332.666 
c 324.496 332.666 315.137 342.026 315.137 353.53 c h
393.602 275.998 m 278.398 275.998 l 278.398 280.498 l 278.398 300.44 294.625
 316.663 314.562 316.663 c 357.438 316.663 l 377.375 316.663 393.602 300.44
 393.602 280.498 c h
393.602 275.998 m f
103.477 331.971 m 107.867 338.038 110.465 345.483 110.465 353.53 c 110.465
 401.6 l 110.465 406.018 106.883 409.6 102.465 409.6 c 66.711 409.6 l 50.184
 409.6 36.734 396.155 36.734 379.627 c 36.734 353.53 l 36.734 345.483 39.332
 338.038 43.723 331.971 c 18.961 327.924 0 306.389 0 280.498 c 0 267.998
 l 0 263.58 3.582 259.998 8 259.998 c 139.199 259.998 l 143.617 259.998 
147.199 263.58 147.199 267.998 c 147.199 280.498 l 147.199 306.389 128.238
 327.924 103.477 331.971 c h
52.734 379.627 m 52.734 387.33 59.004 393.6 66.711 393.6 c 94.465 393.6
 l 94.465 383.858 l 94.465 379.08 90.578 375.194 85.801 375.194 c 52.734
 375.194 l h
52.734 359.194 m 85.801 359.194 l 88.848 359.194 91.766 359.752 94.465 
360.768 c 94.465 353.53 l 94.465 342.026 85.105 332.666 73.602 332.666 c
 62.098 332.666 52.734 342.026 52.734 353.53 c h
131.199 275.998 m 16 275.998 l 16 280.498 l 16 300.44 32.223 316.663 52.164
 316.663 c 95.035 316.663 l 114.977 316.663 131.199 300.44 131.199 280.498
 c h
131.199 275.998 m f
365.875 71.971 m 370.266 78.038 372.863 85.483 372.863 93.53 c 372.863 
141.6 l 372.863 146.018 369.281 149.6 364.863 149.6 c 329.109 149.6 l 312.582
 149.6 299.137 136.155 299.137 119.627 c 299.137 93.53 l 299.137 85.483 
301.734 78.038 306.125 71.971 c 281.363 67.924 262.398 46.389 262.398 20.498
 c 262.398 7.998 l 262.398 3.58 265.98 -0.002 270.398 -0.002 c 401.602 -0.002
 l 406.02 -0.002 409.602 3.58 409.602 7.998 c 409.602 20.498 l 409.602 46.389
 390.637 67.924 365.875 71.971 c h
315.137 119.627 m 315.137 127.33 321.406 133.6 329.109 133.6 c 356.863 
133.6 l 356.863 123.858 l 356.863 119.08 352.977 115.194 348.199 115.194
 c 315.137 115.194 l h
315.137 99.194 m 348.199 99.194 l 351.25 99.194 354.168 99.752 356.863 
100.768 c 356.863 93.53 l 356.863 82.022 347.504 72.663 336 72.663 c 324.496
 72.663 315.137 82.022 315.137 93.53 c h
393.602 15.998 m 278.398 15.998 l 278.398 20.498 l 278.398 40.44 294.625
 56.663 314.562 56.663 c 357.438 56.663 l 377.375 56.663 393.602 40.44 393.602
 20.498 c h
393.602 15.998 m f
103.477 71.971 m 107.867 78.038 110.465 85.483 110.465 93.53 c 110.465 
141.6 l 110.465 146.018 106.883 149.6 102.465 149.6 c 66.711 149.6 l 50.184
 149.6 36.734 136.155 36.734 119.627 c 36.734 93.53 l 36.734 85.483 39.332
 78.038 43.723 71.971 c 18.961 67.924 0 46.389 0 20.498 c 0 7.998 l 0 3.58
 3.582 -0.002 8 -0.002 c 139.199 -0.002 l 143.617 -0.002 147.199 3.58 147.199
 7.998 c 147.199 20.498 l 147.199 46.389 128.238 67.924 103.477 71.971 c
 h
52.734 119.627 m 52.734 127.33 59.004 133.6 66.711 133.6 c 94.465 133.6
 l 94.465 123.858 l 94.465 119.08 90.578 115.194 85.801 115.194 c 52.734
 115.194 l h
52.734 99.194 m 85.801 99.194 l 88.848 99.194 91.766 99.752 94.465 100.768
 c 94.465 93.53 l 94.465 82.022 85.105 72.663 73.602 72.663 c 62.098 72.663
 52.734 82.022 52.734 93.53 c h
131.199 15.998 m 16 15.998 l 16 20.498 l 16 40.44 32.223 56.663 52.164 
56.663 c 95.035 56.663 l 114.977 56.663 131.199 40.44 131.199 20.498 c h
131.199 15.998 m f
269.824 176.467 m 248.672 197.616 l 244.98 201.307 240.07 203.342 234.848
 203.342 c 229.625 203.342 224.711 201.307 221.02 197.616 c 219.641 196.237
 l 219.281 195.877 218.695 195.877 218.336 196.237 c 209.672 204.901 l 209.312
 205.26 209.312 205.846 209.672 206.205 c 211.051 207.584 l 218.676 215.209
 218.676 227.612 211.051 235.237 c 189.902 256.389 l 186.207 260.08 181.297
 262.116 176.074 262.116 c 170.852 262.116 165.941 260.08 162.246 256.389
 c 152.727 246.87 147.484 234.209 147.484 220.748 c 147.484 207.288 152.727
 194.627 162.246 185.108 c 198.543 148.811 l 208.371 138.987 221.277 134.073
 234.184 134.073 c 247.09 134.073 260 138.987 269.824 148.811 c 277.445 
156.436 277.445 168.842 269.824 176.467 c h
258.508 160.123 m 245.098 146.713 223.27 146.713 209.859 160.127 c 173.562
 196.424 l 167.062 202.92 163.484 211.561 163.484 220.748 c 163.484 229.936
 167.062 238.577 173.562 245.073 c 174.465 245.979 175.523 246.116 176.074
 246.116 c 176.625 246.116 177.68 245.979 178.586 245.073 c 199.734 223.924
 l 200.641 223.018 200.777 221.959 200.777 221.413 c 200.777 220.862 200.641
 219.803 199.734 218.897 c 198.359 217.522 l 195.16 214.323 193.402 210.073
 193.402 205.553 c 193.402 201.034 195.16 196.784 198.359 193.588 c 207.023
 184.924 l 213.621 178.323 224.359 178.327 230.953 184.92 c 232.336 186.303
 l 233.238 187.205 234.297 187.342 234.848 187.342 c 235.398 187.342 236.453
 187.205 237.359 186.299 c 258.508 165.151 l 259.895 163.768 259.895 161.51
 258.508 160.123 c h
258.508 160.123 m f
336 237.866 m 331.582 237.866 328 234.288 328 229.866 c 328 179.733 l 328
 175.315 331.582 171.733 336 171.733 c 340.418 171.733 344 175.315 344 179.733
 c 344 229.866 l 344 234.288 340.418 237.866 336 237.866 c h
336 237.866 m f
73.602 237.866 m 69.18 237.866 65.602 234.288 65.602 229.866 c 65.602 179.733
 l 65.602 175.315 69.18 171.733 73.602 171.733 c 78.02 171.733 81.602 175.315
 81.602 179.733 c 81.602 229.866 l 81.602 234.288 78.02 237.866 73.602 237.866
 c h
73.602 237.866 m f
251.191 343.998 m 191.457 343.998 l 187.039 343.998 183.457 340.42 183.457
 335.998 c 183.457 331.58 187.039 327.998 191.457 327.998 c 251.191 327.998
 l 255.609 327.998 259.191 331.58 259.191 335.998 c 259.191 340.42 255.609
 343.998 251.191 343.998 c h
251.191 343.998 m f
164.062 341.655 m 162.574 343.143 160.512 343.998 158.406 343.998 c 156.305
 343.998 154.238 343.143 152.754 341.655 c 151.266 340.166 150.406 338.104
 150.406 335.998 c 150.406 333.897 151.266 331.83 152.754 330.342 c 154.238
 328.858 156.305 327.998 158.406 327.998 c 160.512 327.998 162.574 328.858
 164.062 330.342 c 165.551 331.83 166.406 333.897 166.406 335.998 c 166.406
 338.104 165.551 340.166 164.062 341.655 c h
164.062 341.655 m f
218.141 81.6 m 158.41 81.6 l 153.992 81.6 150.41 78.018 150.41 73.6 c 150.41
 69.182 153.992 65.6 158.41 65.6 c 218.141 65.6 l 222.562 65.6 226.141 69.182
 226.141 73.6 c 226.141 78.018 222.562 81.6 218.141 81.6 c h
218.141 81.6 m f
256.848 79.256 m 255.359 80.745 253.297 81.6 251.191 81.6 c 249.078 81.6
 247.023 80.745 245.535 79.256 c 244.047 77.768 243.191 75.705 243.191 73.6
 c 243.191 71.495 244.047 69.432 245.535 67.944 c 247.023 66.455 249.09 
65.6 251.191 65.6 c 253.297 65.6 255.359 66.455 256.848 67.944 c 258.336
 69.432 259.191 71.495 259.191 73.6 c 259.191 75.705 258.336 77.768 256.848
 79.256 c h
256.848 79.256 m f
Q Q
showpage
%%Trailer
end restore
%%EOF
