%!PS-Adobe-3.0 EPSF-3.0
%%Creator: cairo 1.14.2 (http://cairographics.org)
%%CreationDate: Thu Jul 26 08:51:17 2018
%%Pages: 1
%%DocumentData: Clean7Bit
%%LanguageLevel: 2
%%BoundingBox: 0 20 410 389
%%EndComments
%%BeginProlog
save
50 dict begin
/q { gsave } bind def
/Q { grestore } bind def
/cm { 6 array astore concat } bind def
/w { setlinewidth } bind def
/J { setlinecap } bind def
/j { setlinejoin } bind def
/M { setmiterlimit } bind def
/d { setdash } bind def
/m { moveto } bind def
/l { lineto } bind def
/c { curveto } bind def
/h { closepath } bind def
/re { exch dup neg 3 1 roll 5 3 roll moveto 0 rlineto
      0 exch rlineto 0 rlineto closepath } bind def
/S { stroke } bind def
/f { fill } bind def
/f* { eofill } bind def
/n { newpath } bind def
/W { clip } bind def
/W* { eoclip } bind def
/BT { } bind def
/ET { } bind def
/pdfmark where { pop globaldict /?pdfmark /exec load put }
    { globaldict begin /?pdfmark /pop load def /pdfmark
    /cleartomark load def end } ifelse
/BDC { mark 3 1 roll /BDC pdfmark } bind def
/EMC { mark /EMC pdfmark } bind def
/cairo_store_point { /cairo_point_y exch def /cairo_point_x exch def } def
/Tj { show currentpoint cairo_store_point } bind def
/TJ {
  {
    dup
    type /stringtype eq
    { show } { -0.001 mul 0 cairo_font_matrix dtransform rmoveto } ifelse
  } forall
  currentpoint cairo_store_point
} bind def
/cairo_selectfont { cairo_font_matrix aload pop pop pop 0 0 6 array astore
    cairo_font exch selectfont cairo_point_x cairo_point_y moveto } bind def
/Tf { pop /cairo_font exch def /cairo_font_matrix where
      { pop cairo_selectfont } if } bind def
/Td { matrix translate cairo_font_matrix matrix concatmatrix dup
      /cairo_font_matrix exch def dup 4 get exch 5 get cairo_store_point
      /cairo_font where { pop cairo_selectfont } if } bind def
/Tm { 2 copy 8 2 roll 6 array astore /cairo_font_matrix exch def
      cairo_store_point /cairo_font where { pop cairo_selectfont } if } bind def
/g { setgray } bind def
/rg { setrgbcolor } bind def
/d1 { setcachedevice } bind def
%%EndProlog
%%BeginSetup
%%EndSetup
%%Page: 1 1
%%BeginPageSetup
%%PageBoundingBox: 0 20 410 389
%%EndPageSetup
q 0 20 410 369 rectclip q
0 g
406.031 352.678 m 354.891 386.682 l 352.438 388.315 349.281 388.463 346.68
 387.073 c 344.082 385.678 342.461 382.967 342.461 380.018 c 342.461 373.217
 l 227.445 373.217 l 223.027 373.217 219.445 369.635 219.445 365.217 c 219.445
 360.799 223.027 357.217 227.445 357.217 c 350.461 357.217 l 354.836 357.217
 358.395 360.733 358.461 365.092 c 387.148 346.014 l 358.461 326.94 l 358.395
 331.299 354.836 334.815 350.461 334.815 c 262.383 334.815 l 257.965 334.815
 254.383 331.233 254.383 326.811 c 254.383 322.393 257.965 318.811 262.383
 318.811 c 342.461 318.811 l 342.461 312.01 l 342.461 309.061 344.082 306.354
 346.68 304.959 c 347.863 304.327 349.164 304.01 350.461 304.01 c 352.008
 304.01 353.555 304.459 354.891 305.35 c 406.031 339.354 l 408.262 340.834
 409.602 343.338 409.602 346.014 c 409.602 348.694 408.262 351.194 406.031
 352.678 c h
406.031 352.678 m f
233.098 332.471 m 231.613 333.959 229.547 334.815 227.441 334.815 c 225.34
 334.815 223.273 333.959 221.785 332.471 c 220.297 330.983 219.441 328.916
 219.441 326.811 c 219.441 324.709 220.297 322.643 221.785 321.155 c 223.281
 319.666 225.34 318.811 227.441 318.811 c 229.547 318.811 231.613 319.67
 233.098 321.155 c 234.594 322.643 235.445 324.709 235.445 326.811 c 235.445
 328.916 234.594 330.983 233.098 332.471 c h
233.098 332.471 m f
401.598 234.401 m 278.586 234.401 l 274.207 234.401 270.652 230.889 270.586
 226.526 c 241.898 245.604 l 270.586 264.682 l 270.652 260.319 274.207 256.807
 278.586 256.807 c 401.602 256.807 l 406.02 256.807 409.602 260.389 409.602
 264.807 c 409.602 269.225 406.02 272.807 401.602 272.807 c 286.586 272.807
 l 286.586 279.608 l 286.586 282.557 284.965 285.268 282.363 286.659 c 279.766
 288.053 276.609 287.905 274.156 286.272 c 223.016 252.268 l 220.785 250.784
 219.445 248.284 219.445 245.604 c 219.445 242.924 220.785 240.424 223.016
 238.94 c 274.156 204.936 l 275.492 204.049 277.035 203.6 278.586 203.6 
c 279.883 203.6 281.18 203.913 282.367 204.549 c 284.965 205.94 286.586 
208.651 286.586 211.6 c 286.586 218.401 l 401.602 218.401 l 406.02 218.401
 409.602 221.983 409.602 226.401 c 409.602 230.823 406.02 234.401 401.598
 234.401 c h
401.598 234.401 m f
134.055 139.342 m 132.57 140.83 130.504 141.69 128.398 141.69 c 126.297
 141.69 124.23 140.83 122.742 139.342 c 121.254 137.858 120.398 135.791 
120.398 133.678 c 120.398 131.577 121.254 129.518 122.742 128.022 c 124.23
 126.534 126.297 125.686 128.398 125.686 c 130.504 125.686 132.562 126.534
 134.055 128.022 c 135.543 129.518 136.402 131.577 136.402 133.678 c 136.402
 135.791 135.543 137.858 134.055 139.342 c h
134.055 139.342 m f
355.172 118.498 m 299.66 174.006 l 292.422 181.245 282.797 185.233 272.559
 185.233 c 262.324 185.233 252.699 181.245 245.461 174.006 c 232.801 161.35
 l 226.789 155.338 217.008 155.338 210.996 161.35 c 139.727 232.62 l 136.812
 235.534 135.207 239.405 135.207 243.522 c 135.207 247.639 136.812 251.51
 139.727 254.424 c 152.387 267.084 l 167.328 282.026 167.328 306.342 152.387
 321.284 c 96.875 376.795 l 89.633 384.034 80.012 388.022 69.773 388.022
 c 59.535 388.022 49.91 384.034 42.672 376.795 c 29.391 363.514 l -9.797
 324.327 -9.797 260.565 29.391 221.377 c 103.57 147.198 l 106.695 144.073
 111.762 144.073 114.887 147.198 c 118.012 150.323 118.012 155.389 114.887
 158.514 c 40.707 232.694 l 9.52 263.877 7.859 313.573 35.707 346.737 c 
94.562 287.885 l 96.125 286.323 98.172 285.541 100.223 285.541 c 102.27 
285.541 104.316 286.323 105.879 287.885 c 109.004 291.01 109.004 296.077
 105.879 299.202 c 46.793 358.284 l 53.988 365.479 l 58.203 369.698 63.809
 372.018 69.773 372.018 c 75.734 372.018 81.34 369.698 85.559 365.479 c 
141.07 309.971 l 149.773 301.268 149.773 287.104 141.07 278.401 c 128.41
 265.741 l 122.477 259.807 119.207 251.916 119.207 243.522 c 119.207 235.131
 122.477 227.241 128.41 221.307 c 199.68 150.034 l 205.613 144.1 213.504
 140.83 221.898 140.83 c 227.457 140.83 232.789 142.272 237.48 144.963 c
 296.211 86.237 l 297.773 84.674 299.82 83.893 301.867 83.893 c 303.914 
83.893 305.965 84.674 307.527 86.237 c 310.652 89.358 310.652 94.424 307.527
 97.553 c 249.578 155.498 l 256.773 162.694 l 260.992 166.913 266.598 169.233
 272.559 169.233 c 278.523 169.233 284.129 166.913 288.344 162.694 c 343.855
 107.186 l 352.559 98.479 352.559 84.319 343.855 75.616 c 330.57 62.33 l
 314.613 46.373 293.391 37.58 270.82 37.58 c 248.246 37.58 227.027 46.37
 211.066 62.33 c 155.688 117.709 l 152.562 120.834 147.5 120.834 144.371
 117.709 c 141.246 114.584 141.246 109.518 144.371 106.393 c 199.75 51.014
 l 218.734 32.034 243.969 21.58 270.816 21.58 c 297.664 21.58 322.902 32.034
 341.887 51.014 c 355.168 64.299 l 370.113 79.241 370.113 103.553 355.172
 118.498 c h
355.172 118.498 m f
Q Q
showpage
%%Trailer
end restore
%%EOF
