%!PS-Adobe-3.0 EPSF-3.0
%%Creator: cairo 1.14.2 (http://cairographics.org)
%%CreationDate: Thu Jul 26 08:51:17 2018
%%Pages: 1
%%DocumentData: Clean7Bit
%%LanguageLevel: 2
%%BoundingBox: 0 -1 410 410
%%EndComments
%%BeginProlog
save
50 dict begin
/q { gsave } bind def
/Q { grestore } bind def
/cm { 6 array astore concat } bind def
/w { setlinewidth } bind def
/J { setlinecap } bind def
/j { setlinejoin } bind def
/M { setmiterlimit } bind def
/d { setdash } bind def
/m { moveto } bind def
/l { lineto } bind def
/c { curveto } bind def
/h { closepath } bind def
/re { exch dup neg 3 1 roll 5 3 roll moveto 0 rlineto
      0 exch rlineto 0 rlineto closepath } bind def
/S { stroke } bind def
/f { fill } bind def
/f* { eofill } bind def
/n { newpath } bind def
/W { clip } bind def
/W* { eoclip } bind def
/BT { } bind def
/ET { } bind def
/pdfmark where { pop globaldict /?pdfmark /exec load put }
    { globaldict begin /?pdfmark /pop load def /pdfmark
    /cleartomark load def end } ifelse
/BDC { mark 3 1 roll /BDC pdfmark } bind def
/EMC { mark /EMC pdfmark } bind def
/cairo_store_point { /cairo_point_y exch def /cairo_point_x exch def } def
/Tj { show currentpoint cairo_store_point } bind def
/TJ {
  {
    dup
    type /stringtype eq
    { show } { -0.001 mul 0 cairo_font_matrix dtransform rmoveto } ifelse
  } forall
  currentpoint cairo_store_point
} bind def
/cairo_selectfont { cairo_font_matrix aload pop pop pop 0 0 6 array astore
    cairo_font exch selectfont cairo_point_x cairo_point_y moveto } bind def
/Tf { pop /cairo_font exch def /cairo_font_matrix where
      { pop cairo_selectfont } if } bind def
/Td { matrix translate cairo_font_matrix matrix concatmatrix dup
      /cairo_font_matrix exch def dup 4 get exch 5 get cairo_store_point
      /cairo_font where { pop cairo_selectfont } if } bind def
/Tm { 2 copy 8 2 roll 6 array astore /cairo_font_matrix exch def
      cairo_store_point /cairo_font where { pop cairo_selectfont } if } bind def
/g { setgray } bind def
/rg { setrgbcolor } bind def
/d1 { setcachedevice } bind def
%%EndProlog
%%BeginSetup
%%EndSetup
%%Page: 1 1
%%BeginPageSetup
%%PageBoundingBox: 0 -1 410 410
%%EndPageSetup
q 0 -1 410 411 rectclip q
0 g
401.602 67.077 m 392 67.077 l 392 255.991 l 392 278.045 374.055 295.991
 352 295.991 c 340.801 295.991 l 340.801 309.502 l 340.801 312.127 339.531
 314.448 337.578 315.905 c 337.547 315.932 337.523 315.959 337.488 315.983
 c 305.602 339.057 l 305.602 391.932 l 305.602 401.674 297.676 409.6 287.934
 409.6 c 121.668 409.6 l 111.926 409.6 104 401.674 104 391.932 c 104 339.057
 l 72.109 315.983 l 70.035 314.483 68.898 312.166 68.812 309.791 c 68.805
 309.702 68.801 309.612 68.801 309.502 c 68.801 295.991 l 57.602 295.991
 l 35.543 295.991 17.602 278.045 17.602 255.991 c 17.602 67.077 l 8 67.077
 l 3.582 67.077 0 63.495 0 59.077 c 0 41.6 l 0 18.663 18.66 -0.002 41.602
 -0.002 c 368 -0.002 l 390.938 -0.002 409.602 18.663 409.602 41.6 c 409.602
 59.077 l 409.602 63.495 406.02 67.077 401.602 67.077 c h
305.602 319.307 m 319.684 309.12 l 305.602 297.623 l h
324.801 292.643 m 324.801 176.362 l 249.293 230.995 l h
322.094 158.569 m 319.746 155.553 316.094 153.6 311.984 153.6 c 97.613 
153.6 l 93.504 153.6 89.852 155.553 87.504 158.569 c 197.289 238.006 l 201.781
 241.256 207.82 241.256 212.309 238.006 c h
120 391.932 m 120 392.854 120.746 393.6 121.668 393.6 c 287.934 393.6 l
 288.852 393.6 289.602 392.854 289.602 391.932 c 289.602 284.561 l 235.883
 240.702 l 221.691 250.967 l 211.586 258.28 198.012 258.28 187.91 250.967
 c 173.719 240.702 l 120 284.557 l h
104 319.307 m 104 297.623 l 89.918 309.12 l h
84.801 292.643 m 160.305 230.995 l 84.801 176.362 l h
393.602 41.6 m 393.602 27.483 382.117 15.998 368 15.998 c 41.602 15.998
 l 27.484 15.998 16 27.483 16 41.6 c 16 51.077 l 285.164 51.077 l 289.578
 51.077 293.164 54.659 293.164 59.077 c 293.164 63.495 289.578 67.077 285.164
 67.077 c 33.602 67.077 l 33.602 255.991 l 33.602 269.225 44.367 279.991
 57.602 279.991 c 68.801 279.991 l 68.801 166.413 l 68.801 150.526 81.727
 137.6 97.613 137.6 c 311.988 137.6 l 327.875 137.6 340.801 150.526 340.801
 166.413 c 340.801 279.991 l 352 279.991 l 365.234 279.991 376 269.225 376
 255.991 c 376 67.077 l 357.066 67.077 l 352.648 67.077 349.066 63.495 349.066
 59.077 c 349.066 54.659 352.648 51.077 357.066 51.077 c 393.602 51.077 
l h
393.602 41.6 m f
326.445 64.737 m 324.961 66.225 322.895 67.08 320.793 67.08 c 318.688 67.08
 316.625 66.225 315.137 64.737 c 313.648 63.241 312.793 61.186 312.793 59.08
 c 312.793 56.967 313.648 54.913 315.137 53.416 c 316.625 51.928 318.688
 51.08 320.793 51.08 c 322.895 51.08 324.961 51.928 326.445 53.416 c 327.934
 54.913 328.793 56.967 328.793 59.08 c 328.793 61.186 327.938 63.241 326.445
 64.737 c h
326.445 64.737 m f
230.934 41.538 m 178.668 41.538 l 174.25 41.538 170.668 37.955 170.668 
33.538 c 170.668 29.12 174.25 25.538 178.668 25.538 c 230.934 25.538 l 235.352
 25.538 238.934 29.12 238.934 33.538 c 238.934 37.955 235.352 41.538 230.934
 41.538 c h
230.934 41.538 m f
252.855 321.448 m 156.742 321.448 l 152.328 321.448 148.742 317.87 148.742
 313.448 c 148.742 309.03 152.324 305.448 156.742 305.448 c 252.855 305.448
 l 257.273 305.448 260.855 309.03 260.855 313.448 c 260.855 317.87 257.273
 321.448 252.855 321.448 c h
252.855 321.448 m f
162.398 357.502 m 160.91 358.991 158.848 359.846 156.742 359.846 c 154.633
 359.846 152.574 358.991 151.09 357.502 c 149.602 356.014 148.742 353.959
 148.742 351.846 c 148.742 349.745 149.602 347.678 151.09 346.194 c 152.574
 344.705 154.641 343.846 156.742 343.846 c 158.848 343.846 160.91 344.705
 162.398 346.194 c 163.887 347.678 164.742 349.745 164.742 351.846 c 164.742
 353.952 163.887 356.014 162.398 357.502 c h
162.398 357.502 m f
252.855 359.85 m 185.332 359.85 l 180.914 359.85 177.332 356.268 177.332
 351.85 c 177.332 347.432 180.914 343.85 185.332 343.85 c 252.855 343.85
 l 257.273 343.85 260.855 347.432 260.855 351.85 c 260.855 356.268 257.273
 359.85 252.855 359.85 c h
252.855 359.85 m f
Q Q
showpage
%%Trailer
end restore
%%EOF
