%!PS-Adobe-3.0 EPSF-3.0
%%Creator: cairo 1.14.2 (http://cairographics.org)
%%CreationDate: Thu Jul 26 08:51:17 2018
%%Pages: 1
%%DocumentData: Clean7Bit
%%LanguageLevel: 2
%%BoundingBox: 43 -1 367 410
%%EndComments
%%BeginProlog
save
50 dict begin
/q { gsave } bind def
/Q { grestore } bind def
/cm { 6 array astore concat } bind def
/w { setlinewidth } bind def
/J { setlinecap } bind def
/j { setlinejoin } bind def
/M { setmiterlimit } bind def
/d { setdash } bind def
/m { moveto } bind def
/l { lineto } bind def
/c { curveto } bind def
/h { closepath } bind def
/re { exch dup neg 3 1 roll 5 3 roll moveto 0 rlineto
      0 exch rlineto 0 rlineto closepath } bind def
/S { stroke } bind def
/f { fill } bind def
/f* { eofill } bind def
/n { newpath } bind def
/W { clip } bind def
/W* { eoclip } bind def
/BT { } bind def
/ET { } bind def
/pdfmark where { pop globaldict /?pdfmark /exec load put }
    { globaldict begin /?pdfmark /pop load def /pdfmark
    /cleartomark load def end } ifelse
/BDC { mark 3 1 roll /BDC pdfmark } bind def
/EMC { mark /EMC pdfmark } bind def
/cairo_store_point { /cairo_point_y exch def /cairo_point_x exch def } def
/Tj { show currentpoint cairo_store_point } bind def
/TJ {
  {
    dup
    type /stringtype eq
    { show } { -0.001 mul 0 cairo_font_matrix dtransform rmoveto } ifelse
  } forall
  currentpoint cairo_store_point
} bind def
/cairo_selectfont { cairo_font_matrix aload pop pop pop 0 0 6 array astore
    cairo_font exch selectfont cairo_point_x cairo_point_y moveto } bind def
/Tf { pop /cairo_font exch def /cairo_font_matrix where
      { pop cairo_selectfont } if } bind def
/Td { matrix translate cairo_font_matrix matrix concatmatrix dup
      /cairo_font_matrix exch def dup 4 get exch 5 get cairo_store_point
      /cairo_font where { pop cairo_selectfont } if } bind def
/Tm { 2 copy 8 2 roll 6 array astore /cairo_font_matrix exch def
      cairo_store_point /cairo_font where { pop cairo_selectfont } if } bind def
/g { setgray } bind def
/rg { setrgbcolor } bind def
/d1 { setcachedevice } bind def
%%EndProlog
%%BeginSetup
%%EndSetup
%%Page: 1 1
%%BeginPageSetup
%%PageBoundingBox: 43 -1 367 410
%%EndPageSetup
q 43 -1 324 411 rectclip q
0 g
318.398 358.401 m 264 358.401 l 264 371.678 l 264 382.178 255.457 390.721
 244.961 390.721 c 235.566 390.721 l 230.023 402.084 218.355 409.6 205.363
 409.6 c 204.238 409.6 l 191.246 409.6 179.578 402.084 174.035 390.721 c
 164.641 390.721 l 154.141 390.721 145.602 382.178 145.602 371.678 c 145.602
 358.401 l 91.199 358.401 l 82.379 358.401 75.199 351.221 75.199 342.401
 c 75.199 280.799 l 75.199 276.381 78.781 272.799 83.199 272.799 c 87.617
 272.799 91.199 276.381 91.199 280.799 c 91.199 342.401 l 318.398 342.401
 l 318.398 47.998 l 91.199 47.998 l 91.199 216.799 l 91.199 221.217 87.617
 224.799 83.199 224.799 c 78.781 224.799 75.199 221.217 75.199 216.799 c
 75.199 47.998 l 75.199 39.178 82.379 31.998 91.199 31.998 c 318.398 31.998
 l 327.223 31.998 334.398 39.178 334.398 47.998 c 334.398 342.401 l 334.398
 351.221 327.223 358.401 318.398 358.401 c h
248 358.401 m 161.602 358.401 l 161.602 371.678 l 161.602 373.358 162.965
 374.721 164.641 374.721 c 179.535 374.721 l 183.148 374.721 186.312 377.139
 187.258 380.623 c 189.332 388.264 196.312 393.6 204.238 393.6 c 205.363
 393.6 l 213.285 393.6 220.27 388.264 222.344 380.623 c 223.289 377.139 
226.453 374.721 230.062 374.721 c 244.961 374.721 l 246.637 374.721 248 
373.358 248 371.678 c h
248 358.401 m f
88.855 254.096 m 87.367 255.584 85.305 256.44 83.199 256.44 c 81.098 256.44
 79.031 255.584 77.543 254.096 c 76.055 252.608 75.199 250.545 75.199 248.44
 c 75.199 246.334 76.055 244.272 77.543 242.776 c 79.031 241.288 81.098 
240.44 83.199 240.44 c 85.305 240.44 87.367 241.288 88.855 242.776 c 90.344
 244.272 91.199 246.334 91.199 248.44 c 91.199 250.545 90.344 252.608 88.855
 254.096 c h
88.855 254.096 m f
326.398 390.401 m 286.668 390.401 l 282.25 390.401 278.668 386.819 278.668
 382.401 c 278.668 377.983 282.25 374.401 286.668 374.401 c 326.398 374.401
 l 339.633 374.401 350.398 363.635 350.398 350.401 c 350.398 211.12 l 350.398
 206.702 353.98 203.12 358.398 203.12 c 362.816 203.12 366.398 206.702 366.398
 211.12 c 366.398 350.401 l 366.398 372.455 348.457 390.401 326.398 390.401
 c h
326.398 390.401 m f
358.398 152.049 m 353.98 152.049 350.398 148.467 350.398 144.049 c 350.398
 39.998 l 350.398 26.768 339.633 15.998 326.398 15.998 c 83.199 15.998 l
 69.965 15.998 59.199 26.768 59.199 39.998 c 59.199 350.401 l 59.199 363.635
 69.965 374.401 83.199 374.401 c 122.801 374.401 l 127.219 374.401 130.801
 377.983 130.801 382.401 c 130.801 386.819 127.219 390.401 122.801 390.401
 c 83.199 390.401 l 61.145 390.401 43.199 372.455 43.199 350.401 c 43.199
 39.998 l 43.199 17.944 61.145 -0.002 83.199 -0.002 c 326.398 -0.002 l 348.457
 -0.002 366.398 17.944 366.398 39.998 c 366.398 144.049 l 366.398 148.467
 362.816 152.049 358.398 152.049 c h
358.398 152.049 m f
364.055 182.538 m 362.566 184.026 360.504 184.881 358.398 184.881 c 356.297
 184.881 354.23 184.026 352.742 182.538 c 351.258 181.049 350.398 178.983
 350.398 176.881 c 350.398 174.768 351.254 172.713 352.742 171.225 c 354.23
 169.729 356.297 168.881 358.398 168.881 c 360.504 168.881 362.566 169.729
 364.055 171.225 c 365.543 172.713 366.398 174.768 366.398 176.881 c 366.398
 178.983 365.543 181.049 364.055 182.538 c h
364.055 182.538 m f
263.105 236.58 m 241.957 257.733 l 234.332 265.354 221.926 265.354 214.305
 257.733 c 212.922 256.354 l 212.566 255.995 211.977 255.995 211.617 256.354
 c 202.953 265.018 l 202.773 265.198 202.684 265.416 202.684 265.67 c 202.684
 265.924 202.773 266.143 202.957 266.323 c 204.332 267.702 l 211.957 275.327
 211.957 287.729 204.332 295.354 c 183.184 316.502 l 179.488 320.198 174.578
 322.229 169.355 322.229 c 164.133 322.229 159.223 320.198 155.531 316.502
 c 135.879 296.854 135.879 264.877 155.531 245.225 c 191.828 208.928 l 201.344
 199.409 214.004 194.166 227.465 194.166 c 240.93 194.166 253.586 199.409
 263.105 208.928 c 266.797 212.623 268.832 217.53 268.832 222.756 c 268.832
 227.979 266.797 232.889 263.105 236.58 c h
251.793 220.241 m 245.293 213.745 236.656 210.166 227.465 210.166 c 218.277
 210.166 209.641 213.745 203.141 220.241 c 166.844 256.538 l 153.43 269.952
 153.43 291.776 166.844 305.19 c 167.75 306.096 168.809 306.229 169.359 
306.229 c 169.906 306.229 170.965 306.096 171.871 305.19 c 193.02 284.038
 l 194.406 282.655 194.406 280.401 193.02 279.014 c 191.645 277.635 l 188.445
 274.44 186.688 270.19 186.688 265.67 c 186.688 261.151 188.445 256.901 
191.641 253.702 c 200.309 245.038 l 203.5 241.842 207.75 240.08 212.27 240.08
 c 216.793 240.08 221.043 241.842 224.238 245.038 c 225.617 246.416 l 227
 247.803 229.258 247.803 230.641 246.416 c 251.793 225.268 l 253.176 223.881
 253.176 221.627 251.793 220.241 c h
251.793 220.241 m f
271.098 99.202 m 191.199 99.202 l 186.781 99.202 183.199 95.62 183.199 
91.202 c 183.199 86.78 186.781 83.202 191.199 83.202 c 271.098 83.202 l 
275.512 83.202 279.098 86.78 279.098 91.202 c 279.098 95.62 275.516 99.202
 271.098 99.202 c h
271.098 99.202 m f
144.16 96.858 m 142.672 98.342 140.609 99.202 138.504 99.202 c 136.398 
99.202 134.336 98.342 132.848 96.858 c 131.359 95.37 130.504 93.303 130.504
 91.202 c 130.504 89.096 131.359 87.034 132.848 85.545 c 134.336 84.057 
136.398 83.202 138.504 83.202 c 140.609 83.202 142.672 84.057 144.16 85.545
 c 145.648 87.034 146.504 89.096 146.504 91.202 c 146.504 93.303 145.648
 95.37 144.16 96.858 c h
144.16 96.858 m f
271.098 134.401 m 191.199 134.401 l 186.781 134.401 183.199 130.819 183.199
 126.401 c 183.199 121.983 186.781 118.401 191.199 118.401 c 271.098 118.401
 l 275.512 118.401 279.098 121.983 279.098 126.401 c 279.098 130.819 275.516
 134.401 271.098 134.401 c h
271.098 134.401 m f
144.16 132.057 m 142.672 133.545 140.609 134.401 138.504 134.401 c 136.391
 134.401 134.336 133.545 132.848 132.057 c 131.359 130.569 130.504 128.502
 130.504 126.401 c 130.504 124.295 131.359 122.233 132.848 120.745 c 134.336
 119.256 136.398 118.401 138.504 118.401 c 140.609 118.401 142.672 119.256
 144.16 120.745 c 145.648 122.233 146.504 124.295 146.504 126.401 c 146.504
 128.502 145.648 130.569 144.16 132.057 c h
144.16 132.057 m f
144.16 167.256 m 142.672 168.745 140.609 169.6 138.504 169.6 c 136.398 
169.6 134.336 168.745 132.848 167.256 c 131.359 165.768 130.504 163.705 
130.504 161.6 c 130.504 159.495 131.359 157.432 132.848 155.944 c 134.336
 154.455 136.398 153.6 138.504 153.6 c 140.609 153.6 142.672 154.455 144.16
 155.944 c 145.648 157.432 146.504 159.495 146.504 161.6 c 146.504 163.705
 145.648 165.768 144.16 167.256 c h
144.16 167.256 m f
271.098 169.6 m 191.199 169.6 l 186.781 169.6 183.199 166.018 183.199 161.6
 c 183.199 157.182 186.781 153.6 191.199 153.6 c 271.098 153.6 l 275.512
 153.6 279.098 157.182 279.098 161.6 c 279.098 166.018 275.516 169.6 271.098
 169.6 c h
271.098 169.6 m f
Q Q
showpage
%%Trailer
end restore
%%EOF
