%!PS-Adobe-3.0 EPSF-3.0
%%Creator: cairo 1.14.2 (http://cairographics.org)
%%CreationDate: Thu Jul 26 08:51:17 2018
%%Pages: 1
%%DocumentData: Clean7Bit
%%LanguageLevel: 2
%%BoundingBox: 39 -1 370 410
%%EndComments
%%BeginProlog
save
50 dict begin
/q { gsave } bind def
/Q { grestore } bind def
/cm { 6 array astore concat } bind def
/w { setlinewidth } bind def
/J { setlinecap } bind def
/j { setlinejoin } bind def
/M { setmiterlimit } bind def
/d { setdash } bind def
/m { moveto } bind def
/l { lineto } bind def
/c { curveto } bind def
/h { closepath } bind def
/re { exch dup neg 3 1 roll 5 3 roll moveto 0 rlineto
      0 exch rlineto 0 rlineto closepath } bind def
/S { stroke } bind def
/f { fill } bind def
/f* { eofill } bind def
/n { newpath } bind def
/W { clip } bind def
/W* { eoclip } bind def
/BT { } bind def
/ET { } bind def
/pdfmark where { pop globaldict /?pdfmark /exec load put }
    { globaldict begin /?pdfmark /pop load def /pdfmark
    /cleartomark load def end } ifelse
/BDC { mark 3 1 roll /BDC pdfmark } bind def
/EMC { mark /EMC pdfmark } bind def
/cairo_store_point { /cairo_point_y exch def /cairo_point_x exch def } def
/Tj { show currentpoint cairo_store_point } bind def
/TJ {
  {
    dup
    type /stringtype eq
    { show } { -0.001 mul 0 cairo_font_matrix dtransform rmoveto } ifelse
  } forall
  currentpoint cairo_store_point
} bind def
/cairo_selectfont { cairo_font_matrix aload pop pop pop 0 0 6 array astore
    cairo_font exch selectfont cairo_point_x cairo_point_y moveto } bind def
/Tf { pop /cairo_font exch def /cairo_font_matrix where
      { pop cairo_selectfont } if } bind def
/Td { matrix translate cairo_font_matrix matrix concatmatrix dup
      /cairo_font_matrix exch def dup 4 get exch 5 get cairo_store_point
      /cairo_font where { pop cairo_selectfont } if } bind def
/Tm { 2 copy 8 2 roll 6 array astore /cairo_font_matrix exch def
      cairo_store_point /cairo_font where { pop cairo_selectfont } if } bind def
/g { setgray } bind def
/rg { setrgbcolor } bind def
/d1 { setcachedevice } bind def
%%EndProlog
%%BeginSetup
%%EndSetup
%%Page: 1 1
%%BeginPageSetup
%%PageBoundingBox: 39 -1 370 410
%%EndPageSetup
q 39 -1 331 411 rectclip q
0 g
251.66 259.561 m 247.824 259.561 244.078 259.159 240.461 258.405 c 240.461
 382.401 l 240.461 388.577 245.484 393.6 251.66 393.6 c 257.836 393.6 262.859
 388.577 262.859 382.401 c 262.859 305.866 l 262.859 301.448 266.441 297.866
 270.859 297.866 c 275.277 297.866 278.859 301.448 278.859 305.866 c 278.859
 382.401 l 278.859 397.397 266.66 409.6 251.66 409.6 c 236.66 409.6 224.461
 397.397 224.461 382.401 c 224.461 252.295 l 208.012 242.838 196.902 225.096
 196.902 204.799 c 196.902 177.717 216.668 155.178 242.527 150.819 c 239.469
 141.303 230.535 134.401 220.02 134.401 c 169.914 134.401 l 166.543 144.608
 156.922 151.998 145.602 151.998 c 131.484 151.998 120 140.514 120 126.401
 c 120 112.284 131.484 100.799 145.602 100.799 c 156.922 100.799 166.543
 108.19 169.914 118.401 c 220.02 118.401 l 239.312 118.401 255.422 132.256
 258.938 150.541 c 285.703 154.112 306.418 177.077 306.418 204.799 c 306.418
 234.995 281.855 259.561 251.66 259.561 c h
145.602 116.799 m 140.305 116.799 136 121.108 136 126.401 c 136 131.694
 140.305 135.998 145.602 135.998 c 150.895 135.998 155.199 131.694 155.199
 126.401 c 155.199 121.108 150.895 116.799 145.602 116.799 c h
251.66 166.041 m 230.289 166.041 212.902 183.428 212.902 204.799 c 212.902
 226.17 230.289 243.561 251.66 243.561 c 273.031 243.561 290.418 226.17 
290.418 204.799 c 290.418 183.428 273.031 166.041 251.66 166.041 c h
251.66 166.041 m f
251.66 229.6 m 237.984 229.6 226.859 218.475 226.859 204.799 c 226.859 
191.127 237.984 179.998 251.66 179.998 c 265.336 179.998 276.461 191.127
 276.461 204.799 c 276.461 218.475 265.336 229.6 251.66 229.6 c h
251.66 195.998 m 246.809 195.998 242.859 199.948 242.859 204.799 c 242.859
 209.651 246.809 213.6 251.66 213.6 c 256.512 213.6 260.461 209.651 260.461
 204.799 c 260.461 199.948 256.512 195.998 251.66 195.998 c h
251.66 195.998 m f
276.52 284.858 m 275.031 286.342 272.969 287.202 270.863 287.202 c 268.75
 287.202 266.688 286.342 265.199 284.858 c 263.711 283.37 262.863 281.303
 262.863 279.202 c 262.863 277.096 263.711 275.034 265.199 273.545 c 266.695
 272.057 268.75 271.202 270.863 271.202 c 272.969 271.202 275.023 272.057
 276.52 273.545 c 278.008 275.034 278.863 277.096 278.863 279.202 c 278.863
 281.303 278.008 283.37 276.52 284.858 c h
276.52 284.858 m f
136.594 263.256 m 135.105 264.745 133.039 265.6 130.938 265.6 c 128.824
 265.6 126.77 264.745 125.281 263.256 c 123.785 261.768 122.938 259.705 
122.938 257.6 c 122.938 255.495 123.785 253.432 125.281 251.944 c 126.762
 250.455 128.824 249.6 130.938 249.6 c 133.039 249.6 135.105 250.455 136.594
 251.944 c 138.078 253.432 138.938 255.495 138.938 257.6 c 138.938 259.705
 138.078 261.768 136.594 263.256 c h
136.594 263.256 m f
341.5 121.545 m 339.23 123.022 336.367 123.245 333.891 122.147 c 326.887
 119.034 l 326.887 119.745 l 326.887 131.623 330.461 143.041 337.219 152.764
 c 357.871 182.467 370.312 223.889 369.684 260.862 c 368.805 312.627 342.102
 359.764 298.258 386.948 c 294.5 389.28 289.57 388.12 287.242 384.366 c 
284.914 380.608 286.07 375.678 289.824 373.35 c 329.027 349.045 352.902 
306.893 353.688 260.588 c 354.254 227.315 342.633 188.577 324.082 161.897
 c 315.449 149.479 310.887 134.905 310.887 119.745 c 310.887 111.92 l 185.184
 56.041 l 182.863 69.901 170.793 80.495 156.285 80.495 c 131.551 80.495 
l 113.492 80.495 98.801 95.19 98.801 113.248 c 98.801 156.401 l 98.801 167.721
 89.59 176.932 78.27 176.932 c 58.676 176.932 l 82.625 255.909 l 82.852 
256.663 82.969 257.444 82.969 258.229 c 82.969 331.678 142.695 392.397 216.105
 393.58 c 220.523 393.655 224.047 397.291 223.977 401.709 c 223.906 406.127
 220.238 409.67 215.848 409.58 c 175.938 408.936 138.523 392.905 110.488
 364.444 c 82.703 336.233 67.277 298.983 66.973 259.432 c 40.238 171.252
 l 39.5 168.827 39.957 166.198 41.469 164.163 c 42.977 162.131 45.359 160.932
 47.891 160.932 c 78.27 160.932 l 80.766 160.932 82.801 158.897 82.801 156.401
 c 82.801 113.248 l 82.801 86.366 104.668 64.495 131.551 64.495 c 156.285
 64.495 l 163.625 64.495 169.594 58.526 169.594 51.186 c 169.594 7.998 l
 169.594 5.569 170.699 3.272 172.598 1.752 c 174.031 0.608 175.797 -0.002
 177.594 -0.002 c 178.18 -0.002 178.77 0.065 179.352 0.198 c 228.398 11.252
 l 232.707 12.225 235.414 16.506 234.441 20.815 c 233.473 25.127 229.195
 27.83 224.879 26.862 c 185.594 18.006 l 185.594 38.713 l 329.141 102.526
 l 329.141 50.366 l 283.121 39.991 l 278.809 39.018 276.102 34.737 277.074
 30.428 c 278.047 26.116 282.328 23.413 286.637 24.381 c 338.902 36.163 
l 342.551 36.987 345.141 40.229 345.141 43.967 c 345.141 114.838 l 345.141
 117.545 343.77 120.069 341.5 121.545 c h
341.5 121.545 m f
263.023 31.639 m 261.535 33.127 259.473 33.983 257.367 33.983 c 255.266
 33.983 253.199 33.127 251.711 31.639 c 250.227 30.151 249.367 28.088 249.367
 25.983 c 249.367 23.881 250.223 21.815 251.711 20.327 c 253.199 18.838 
255.266 17.983 257.367 17.983 c 259.473 17.983 261.535 18.838 263.023 20.327
 c 264.512 21.815 265.367 23.881 265.367 25.983 c 265.367 28.088 264.512
 30.151 263.023 31.639 c h
263.023 31.639 m f
Q Q
showpage
%%Trailer
end restore
%%EOF
