%!PS-Adobe-3.0 EPSF-3.0
%%Creator: cairo 1.14.2 (http://cairographics.org)
%%CreationDate: Thu Jul 26 08:51:17 2018
%%Pages: 1
%%DocumentData: Clean7Bit
%%LanguageLevel: 2
%%BoundingBox: 48 -1 362 410
%%EndComments
%%BeginProlog
save
50 dict begin
/q { gsave } bind def
/Q { grestore } bind def
/cm { 6 array astore concat } bind def
/w { setlinewidth } bind def
/J { setlinecap } bind def
/j { setlinejoin } bind def
/M { setmiterlimit } bind def
/d { setdash } bind def
/m { moveto } bind def
/l { lineto } bind def
/c { curveto } bind def
/h { closepath } bind def
/re { exch dup neg 3 1 roll 5 3 roll moveto 0 rlineto
      0 exch rlineto 0 rlineto closepath } bind def
/S { stroke } bind def
/f { fill } bind def
/f* { eofill } bind def
/n { newpath } bind def
/W { clip } bind def
/W* { eoclip } bind def
/BT { } bind def
/ET { } bind def
/pdfmark where { pop globaldict /?pdfmark /exec load put }
    { globaldict begin /?pdfmark /pop load def /pdfmark
    /cleartomark load def end } ifelse
/BDC { mark 3 1 roll /BDC pdfmark } bind def
/EMC { mark /EMC pdfmark } bind def
/cairo_store_point { /cairo_point_y exch def /cairo_point_x exch def } def
/Tj { show currentpoint cairo_store_point } bind def
/TJ {
  {
    dup
    type /stringtype eq
    { show } { -0.001 mul 0 cairo_font_matrix dtransform rmoveto } ifelse
  } forall
  currentpoint cairo_store_point
} bind def
/cairo_selectfont { cairo_font_matrix aload pop pop pop 0 0 6 array astore
    cairo_font exch selectfont cairo_point_x cairo_point_y moveto } bind def
/Tf { pop /cairo_font exch def /cairo_font_matrix where
      { pop cairo_selectfont } if } bind def
/Td { matrix translate cairo_font_matrix matrix concatmatrix dup
      /cairo_font_matrix exch def dup 4 get exch 5 get cairo_store_point
      /cairo_font where { pop cairo_selectfont } if } bind def
/Tm { 2 copy 8 2 roll 6 array astore /cairo_font_matrix exch def
      cairo_store_point /cairo_font where { pop cairo_selectfont } if } bind def
/g { setgray } bind def
/rg { setrgbcolor } bind def
/d1 { setcachedevice } bind def
%%EndProlog
%%BeginSetup
%%EndSetup
%%Page: 1 1
%%BeginPageSetup
%%PageBoundingBox: 48 -1 362 410
%%EndPageSetup
q 48 -1 314 411 rectclip q
0 g
204.48 349.662 m 131.258 349.662 71.684 290.087 71.684 216.865 c 71.684
 169.888 96.465 126.568 136.676 102.662 c 136.676 34.318 l 136.676 15.396
 152.07 0.002 170.996 0.002 c 238.016 0.002 l 256.938 0.002 272.336 15.396
 272.336 34.318 c 272.336 102.693 l 312.516 126.607 337.277 169.916 337.277
 216.865 c 337.277 290.087 277.707 349.662 204.48 349.662 c h
256.336 34.318 m 256.336 24.216 248.117 16.002 238.02 16.002 c 170.996 
16.002 l 160.895 16.002 152.676 24.216 152.676 34.318 c 152.676 38.498 l
 204.48 38.498 l 208.898 38.498 212.48 42.08 212.48 46.498 c 212.48 50.92
 208.898 54.498 204.48 54.498 c 152.676 54.498 l 152.676 74.74 l 256.336
 74.74 l h
260.492 114.353 m 257.93 112.947 256.336 110.259 256.336 107.334 c 256.336
 90.74 l 152.676 90.74 l 152.676 107.306 l 152.676 110.232 151.082 112.923
 148.516 114.326 c 110.996 134.853 87.684 174.142 87.684 216.865 c 87.684
 281.267 140.078 333.662 204.48 333.662 c 268.883 333.662 321.277 281.267
 321.277 216.865 c 321.277 174.166 297.988 134.884 260.492 114.353 c h
260.492 114.353 m f
204.48 409.599 m 200.062 409.599 196.48 406.017 196.48 401.599 c 196.48
 368.361 l 196.48 363.943 200.062 360.361 204.48 360.361 c 208.898 360.361
 212.48 363.943 212.48 368.361 c 212.48 401.599 l 212.48 406.017 208.898
 409.599 204.48 409.599 c h
204.48 409.599 m f
107.059 334.744 m 83.293 358.502 l 80.168 361.627 75.102 361.623 71.98 
358.502 c 68.855 355.377 68.855 350.31 71.98 347.185 c 95.746 323.431 l 
97.309 321.869 99.355 321.087 101.402 321.087 c 103.453 321.087 105.5 321.869
 107.062 323.431 c 110.184 326.556 110.184 331.623 107.059 334.744 c h
107.059 334.744 m f
62.609 379.185 m 62.234 379.568 l 59.152 382.732 54.086 382.795 50.922 
379.709 c 47.762 376.623 47.699 371.556 50.781 368.396 c 51.156 368.013 
l 52.723 366.408 54.801 365.599 56.883 365.599 c 58.898 365.599 60.91 366.357
 62.469 367.873 c 65.629 370.959 65.691 376.025 62.609 379.185 c h
62.609 379.185 m f
338.508 360.025 m 335.383 363.15 330.32 363.15 327.191 360.025 c 303.691
 336.525 l 300.566 333.4 300.566 328.334 303.691 325.212 c 305.254 323.65
 307.301 322.869 309.348 322.869 c 311.395 322.869 313.441 323.65 315.004
 325.212 c 338.508 348.712 l 341.633 351.837 341.633 356.904 338.508 360.025
 c h
338.508 360.025 m f
290.73 175.81 m 265.891 252.607 l 264.824 255.908 261.75 258.146 258.277
 258.146 c 254.809 258.146 251.734 255.908 250.668 252.607 c 225.828 175.81
 l 224.469 171.607 226.777 167.095 230.98 165.736 c 235.184 164.373 239.695
 166.681 241.055 170.888 c 245.805 185.58 l 270.754 185.58 l 275.504 170.888
 l 276.602 167.502 279.738 165.345 283.117 165.345 c 283.934 165.345 284.762
 165.47 285.578 165.736 c 289.781 167.095 292.09 171.607 290.73 175.81 c
 h
250.98 201.58 m 258.281 224.146 l 265.582 201.58 l h
250.98 201.58 m f
180.871 177.994 m 174.922 186.337 l 175.672 188.92 176.082 191.646 176.082
 194.466 c 176.082 229.025 l 176.082 245.084 163.02 258.146 146.965 258.146
 c 130.906 258.146 117.844 245.084 117.844 229.025 c 117.844 194.466 l 117.844
 178.412 130.91 165.349 146.965 165.349 c 153.992 165.349 160.449 167.853
 165.484 172.013 c 167.848 168.701 l 169.41 166.513 171.871 165.345 174.367
 165.345 c 175.977 165.345 177.598 165.83 179.008 166.834 c 182.602 169.4
 183.438 174.396 180.871 177.994 c h
160.082 204.537 m 157.727 205.337 155.039 205.041 152.859 203.486 c 149.262
 200.92 148.426 195.923 150.992 192.326 c 156.141 185.107 l 153.773 182.787
 150.535 181.345 146.965 181.345 c 139.73 181.345 133.844 187.232 133.844
 194.466 c 133.844 229.025 l 133.844 236.259 139.73 242.146 146.965 242.146
 c 154.199 242.146 160.082 236.259 160.082 229.025 c h
160.082 204.537 m f
224.34 270.56 m 220.07 271.701 215.688 269.17 214.543 264.9 c 187.164 162.732
 l 186.02 158.462 188.555 154.076 192.82 152.931 c 193.516 152.748 194.211
 152.658 194.898 152.658 c 198.43 152.658 201.66 155.013 202.621 158.587
 c 229.996 260.759 l 231.141 265.029 228.605 269.416 224.34 270.56 c h
224.34 270.56 m f
237.906 52.158 m 236.418 53.646 234.352 54.494 232.25 54.494 c 230.137 
54.494 228.082 53.646 226.594 52.158 c 225.098 50.67 224.25 48.607 224.25
 46.494 c 224.25 44.388 225.098 42.334 226.594 40.837 c 228.082 39.349 230.137
 38.494 232.25 38.494 c 234.352 38.494 236.418 39.349 237.906 40.837 c 239.391
 42.334 240.25 44.388 240.25 46.494 c 240.25 48.607 239.395 50.662 237.906
 52.158 c h
237.906 52.158 m f
358.68 380.334 m 355.52 383.42 350.453 383.361 347.367 380.201 c 347.316
 380.15 l 344.23 376.99 344.312 371.951 347.473 368.861 c 349.023 367.349
 351.039 366.599 353.051 366.599 c 355.145 366.599 357.238 367.408 358.812
 369.021 c 361.898 372.181 361.84 377.248 358.68 380.334 c h
358.68 380.334 m f
Q Q
showpage
%%Trailer
end restore
%%EOF
