%!PS-Adobe-3.0 EPSF-3.0
%%Creator: cairo 1.14.2 (http://cairographics.org)
%%CreationDate: Thu Jul 26 08:51:17 2018
%%Pages: 1
%%DocumentData: Clean7Bit
%%LanguageLevel: 2
%%BoundingBox: 0 -1 410 410
%%EndComments
%%BeginProlog
save
50 dict begin
/q { gsave } bind def
/Q { grestore } bind def
/cm { 6 array astore concat } bind def
/w { setlinewidth } bind def
/J { setlinecap } bind def
/j { setlinejoin } bind def
/M { setmiterlimit } bind def
/d { setdash } bind def
/m { moveto } bind def
/l { lineto } bind def
/c { curveto } bind def
/h { closepath } bind def
/re { exch dup neg 3 1 roll 5 3 roll moveto 0 rlineto
      0 exch rlineto 0 rlineto closepath } bind def
/S { stroke } bind def
/f { fill } bind def
/f* { eofill } bind def
/n { newpath } bind def
/W { clip } bind def
/W* { eoclip } bind def
/BT { } bind def
/ET { } bind def
/pdfmark where { pop globaldict /?pdfmark /exec load put }
    { globaldict begin /?pdfmark /pop load def /pdfmark
    /cleartomark load def end } ifelse
/BDC { mark 3 1 roll /BDC pdfmark } bind def
/EMC { mark /EMC pdfmark } bind def
/cairo_store_point { /cairo_point_y exch def /cairo_point_x exch def } def
/Tj { show currentpoint cairo_store_point } bind def
/TJ {
  {
    dup
    type /stringtype eq
    { show } { -0.001 mul 0 cairo_font_matrix dtransform rmoveto } ifelse
  } forall
  currentpoint cairo_store_point
} bind def
/cairo_selectfont { cairo_font_matrix aload pop pop pop 0 0 6 array astore
    cairo_font exch selectfont cairo_point_x cairo_point_y moveto } bind def
/Tf { pop /cairo_font exch def /cairo_font_matrix where
      { pop cairo_selectfont } if } bind def
/Td { matrix translate cairo_font_matrix matrix concatmatrix dup
      /cairo_font_matrix exch def dup 4 get exch 5 get cairo_store_point
      /cairo_font where { pop cairo_selectfont } if } bind def
/Tm { 2 copy 8 2 roll 6 array astore /cairo_font_matrix exch def
      cairo_store_point /cairo_font where { pop cairo_selectfont } if } bind def
/g { setgray } bind def
/rg { setrgbcolor } bind def
/d1 { setcachedevice } bind def
%%EndProlog
%%BeginSetup
%%EndSetup
%%Page: 1 1
%%BeginPageSetup
%%PageBoundingBox: 0 -1 410 410
%%EndPageSetup
q 0 -1 410 411 rectclip q
0 g
67.344 359.327 m 65.855 360.816 63.801 361.671 61.688 361.671 c 59.586 
361.671 57.52 360.816 56.031 359.327 c 54.543 357.839 53.688 355.784 53.688
 353.671 c 53.688 351.57 54.543 349.503 56.031 348.015 c 57.52 346.53 59.586
 345.671 61.688 345.671 c 63.793 345.671 65.855 346.53 67.344 348.015 c 
68.832 349.503 69.688 351.57 69.688 353.671 c 69.688 355.784 68.832 357.839
 67.344 359.327 c h
67.344 359.327 m f
401.578 366.402 m 383.578 366.402 l 379.16 366.402 375.578 362.82 375.578
 358.402 c 375.578 354.398 378.523 351.089 382.363 350.503 c 315.117 283.257
 l 276.734 321.636 l 275.234 323.136 273.199 323.98 271.078 323.98 c 268.957
 323.98 266.922 323.136 265.422 321.636 c 194.281 250.495 l 191.156 247.37
 191.156 242.308 194.281 239.183 c 195.844 237.62 197.891 236.839 199.938
 236.839 c 201.984 236.839 204.035 237.62 205.594 239.183 c 271.078 304.667
 l 309.461 266.284 l 310.961 264.784 312.996 263.941 315.117 263.941 c 317.238
 263.941 319.273 264.784 320.773 266.284 c 393.676 339.187 l 394.262 335.347
 397.57 332.402 401.574 332.402 c 405.996 332.402 409.574 335.98 409.574
 340.402 c 409.574 358.402 l 409.578 362.82 405.996 366.402 401.578 366.402
 c h
401.578 366.402 m f
376.562 66.03 m 365.746 66.03 355.578 70.241 347.93 77.89 c 347.527 78.292
 l 355.152 85.917 l 362.391 93.155 366.375 102.777 366.375 113.011 c 366.375
 123.249 362.391 132.87 355.152 140.109 c 299.648 195.613 l 284.707 210.554
 260.395 210.554 245.453 195.613 c 232.797 182.956 l 226.785 176.945 217.004
 176.945 210.996 182.956 c 139.73 254.222 l 133.719 260.23 133.719 270.011
 139.73 276.023 c 152.391 288.679 l 159.625 295.917 163.613 305.542 163.613
 315.777 c 163.613 326.011 159.625 335.636 152.391 342.874 c 96.883 398.378
 l 89.645 405.613 80.023 409.601 69.789 409.601 c 59.551 409.601 49.93 405.613
 42.691 398.378 c 29.41 385.097 l -9.773 345.913 -9.773 282.159 29.41 242.976
 c 199.75 72.636 l 218.734 53.655 243.969 43.202 270.812 43.202 c 294.969
 43.202 317.824 51.671 335.992 67.202 c 336.617 66.577 l 347.285 55.905 
361.473 50.03 376.562 50.03 c 385.945 50.03 393.578 42.398 393.578 33.015
 c 393.578 23.632 385.941 15.999 376.562 15.999 c 89.578 15.999 l 85.16 
15.999 81.578 12.417 81.578 7.999 c 81.578 3.581 85.16 -0.001 89.578 -0.001
 c 376.562 -0.001 l 394.766 -0.001 409.578 14.812 409.578 33.015 c 409.578
 51.222 394.766 66.03 376.562 66.03 c h
330.566 83.956 m 330.562 83.952 330.562 83.952 330.559 83.948 c 330.559
 83.948 330.559 83.945 330.555 83.945 c 314.598 67.988 293.379 59.202 270.812
 59.202 c 248.242 59.202 227.023 67.991 211.066 83.948 c 40.723 254.288 
l 7.781 287.234 7.781 340.839 40.723 373.78 c 54.004 387.062 l 58.223 391.28
 63.824 393.601 69.789 393.601 c 75.75 393.601 81.355 391.28 85.57 387.062
 c 141.074 331.558 l 145.293 327.343 147.613 321.738 147.613 315.777 c 147.613
 309.812 145.293 304.21 141.074 299.991 c 133.879 292.796 l 88.262 338.417
 l 85.137 341.542 80.07 341.542 76.945 338.417 c 73.824 335.292 73.824 330.23
 76.945 327.105 c 123.355 280.695 l 116.512 268.702 118.195 253.128 128.418
 242.905 c 199.68 171.64 l 205.613 165.706 213.504 162.441 221.898 162.441
 c 227.453 162.441 232.785 163.878 237.48 166.57 c 296.203 107.847 l 297.766
 106.284 299.812 105.503 301.859 105.503 c 303.906 105.503 305.953 106.288
 307.516 107.847 c 310.641 110.972 310.641 116.038 307.516 119.163 c 249.574
 177.105 l 256.77 184.3 l 265.473 193.003 279.633 193.003 288.336 184.3 
c 343.84 128.796 l 348.055 124.577 350.375 118.972 350.375 113.011 c 350.375
 107.05 348.055 101.445 343.84 97.23 c h
330.566 83.956 m f
56.832 13.655 m 55.344 15.144 53.281 15.999 51.176 15.999 c 49.074 15.999
 47.008 15.144 45.52 13.655 c 44.031 12.167 43.176 10.105 43.176 7.999 c
 43.176 5.898 44.031 3.831 45.52 2.343 c 47.008 0.859 49.074 -0.001 51.176
 -0.001 c 53.281 -0.001 55.344 0.859 56.832 2.343 c 58.32 3.831 59.176 5.898
 59.176 7.999 c 59.176 10.105 58.32 12.167 56.832 13.655 c h
56.832 13.655 m f
Q Q
showpage
%%Trailer
end restore
%%EOF
