%!PS-Adobe-3.0 EPSF-3.0
%%Creator: cairo 1.14.2 (http://cairographics.org)
%%CreationDate: Thu Jul 26 08:51:17 2018
%%Pages: 1
%%DocumentData: Clean7Bit
%%LanguageLevel: 2
%%BoundingBox: 0 -1 410 410
%%EndComments
%%BeginProlog
save
50 dict begin
/q { gsave } bind def
/Q { grestore } bind def
/cm { 6 array astore concat } bind def
/w { setlinewidth } bind def
/J { setlinecap } bind def
/j { setlinejoin } bind def
/M { setmiterlimit } bind def
/d { setdash } bind def
/m { moveto } bind def
/l { lineto } bind def
/c { curveto } bind def
/h { closepath } bind def
/re { exch dup neg 3 1 roll 5 3 roll moveto 0 rlineto
      0 exch rlineto 0 rlineto closepath } bind def
/S { stroke } bind def
/f { fill } bind def
/f* { eofill } bind def
/n { newpath } bind def
/W { clip } bind def
/W* { eoclip } bind def
/BT { } bind def
/ET { } bind def
/pdfmark where { pop globaldict /?pdfmark /exec load put }
    { globaldict begin /?pdfmark /pop load def /pdfmark
    /cleartomark load def end } ifelse
/BDC { mark 3 1 roll /BDC pdfmark } bind def
/EMC { mark /EMC pdfmark } bind def
/cairo_store_point { /cairo_point_y exch def /cairo_point_x exch def } def
/Tj { show currentpoint cairo_store_point } bind def
/TJ {
  {
    dup
    type /stringtype eq
    { show } { -0.001 mul 0 cairo_font_matrix dtransform rmoveto } ifelse
  } forall
  currentpoint cairo_store_point
} bind def
/cairo_selectfont { cairo_font_matrix aload pop pop pop 0 0 6 array astore
    cairo_font exch selectfont cairo_point_x cairo_point_y moveto } bind def
/Tf { pop /cairo_font exch def /cairo_font_matrix where
      { pop cairo_selectfont } if } bind def
/Td { matrix translate cairo_font_matrix matrix concatmatrix dup
      /cairo_font_matrix exch def dup 4 get exch 5 get cairo_store_point
      /cairo_font where { pop cairo_selectfont } if } bind def
/Tm { 2 copy 8 2 roll 6 array astore /cairo_font_matrix exch def
      cairo_store_point /cairo_font where { pop cairo_selectfont } if } bind def
/g { setgray } bind def
/rg { setrgbcolor } bind def
/d1 { setcachedevice } bind def
%%EndProlog
%%BeginSetup
%%EndSetup
%%Page: 1 1
%%BeginPageSetup
%%PageBoundingBox: 0 -1 410 410
%%EndPageSetup
q 0 -1 410 411 rectclip q
0 g
124.695 124.252 m 124.461 124.487 l 121.328 127.6 116.266 127.592 113.145
 124.459 c 110.031 121.327 110.043 116.26 113.172 113.143 c 113.434 112.885
 l 114.996 111.338 117.031 110.569 119.066 110.569 c 121.125 110.569 123.184
 111.358 124.75 112.936 c 127.859 116.077 127.836 121.143 124.695 124.252
 c h
124.695 124.252 m f
296.441 296.44 m 245.91 346.971 163.691 346.971 113.16 296.44 c 71.793 
255.073 63.266 190.819 92.426 140.178 c 94.629 136.35 99.523 135.034 103.352
 137.237 c 107.18 139.444 108.496 144.334 106.293 148.163 c 80.734 192.545
 88.211 248.866 124.473 285.127 c 168.766 329.42 240.836 329.42 285.129 
285.127 c 329.422 240.834 329.422 168.764 285.129 124.471 c 248.645 87.991
 192.09 80.651 147.594 106.623 c 143.777 108.85 138.879 107.561 136.652 
103.745 c 134.422 99.928 135.711 95.03 139.527 92.803 c 159.832 80.952 182.328
 75.182 204.688 75.182 c 238.238 75.182 271.469 88.182 296.441 113.159 c
 346.973 163.69 346.973 245.909 296.441 296.44 c h
296.441 296.44 m f
409.57 239.952 m 409.57 243.885 406.707 247.233 402.824 247.85 c 373.293
 252.53 l 357.629 290.311 l 375.18 314.514 l 377.492 317.698 377.145 322.088
 374.359 324.87 c 324.742 374.452 l 321.961 377.233 317.57 377.577 314.387
 375.264 c 290.207 357.698 l 252.398 373.342 l 247.699 402.858 l 247.082
 406.741 243.73 409.6 239.801 409.6 c 239.797 409.6 l 169.648 409.573 l 
165.715 409.569 162.367 406.709 161.75 402.823 c 157.074 373.291 l 119.293
 357.627 l 95.09 375.182 l 91.906 377.491 87.512 377.143 84.734 374.362 
c 35.148 324.745 l 32.367 321.959 32.023 317.569 34.336 314.385 c 51.902
 290.205 l 36.258 252.397 l 6.742 247.698 l 2.859 247.08 0 243.729 0 239.795
 c 0.027 169.651 l 0.031 165.717 2.891 162.366 6.777 161.752 c 36.309 157.073
 l 51.973 119.291 l 34.418 95.088 l 32.109 91.905 32.457 87.514 35.238 84.733
 c 84.855 35.151 l 87.641 32.37 92.031 32.022 95.215 34.334 c 119.395 51.901
 l 157.203 36.256 l 161.902 6.741 l 162.52 2.858 165.867 -0.002 169.801 
-0.002 c 169.805 -0.002 l 239.949 0.03 l 243.883 0.03 247.23 2.893 247.848
 6.776 c 252.527 36.307 l 290.309 51.975 l 314.512 34.42 l 317.695 32.108
 322.086 32.459 324.867 35.241 c 374.449 84.858 l 377.23 87.639 377.574 
92.034 375.266 95.213 c 357.699 119.393 l 373.344 157.202 l 402.859 161.901
 l 406.742 162.522 409.602 165.87 409.602 169.803 c h
366.406 172.299 m 363.656 171.862 361.336 170.03 360.27 167.459 c 341.203
 121.373 l 340.141 118.803 340.488 115.866 342.125 113.612 c 358.305 91.338
 l 318.379 51.381 l 296.078 67.557 l 293.828 69.19 290.887 69.534 288.316
 68.471 c 242.262 49.373 l 239.691 48.307 237.859 45.983 237.426 43.233 
c 233.113 16.026 l 176.629 16.002 l 172.301 43.194 l 171.863 45.944 170.027
 48.264 167.457 49.33 c 121.375 68.397 l 120.391 68.807 119.352 69.006 118.316
 69.006 c 116.652 69.006 115.004 68.487 113.613 67.479 c 91.336 51.295 l
 51.383 91.221 l 67.555 113.522 l 69.191 115.776 69.535 118.713 68.469 121.284
 c 49.371 167.338 l 48.309 169.909 45.984 171.741 43.234 172.174 c 16.027
 176.487 l 16.004 232.971 l 43.195 237.303 l 45.945 237.741 48.266 239.573
 49.332 242.143 c 68.398 288.225 l 69.461 290.795 69.113 293.737 67.477 
295.987 c 51.297 318.264 l 91.223 358.221 l 113.523 342.045 l 115.777 340.413
 118.715 340.065 121.285 341.131 c 167.34 360.229 l 169.91 361.295 171.742
 363.62 172.176 366.366 c 176.488 393.573 l 232.973 393.596 l 237.301 366.405
 l 237.738 363.659 239.574 361.334 242.145 360.272 c 288.227 341.202 l 290.797
 340.139 293.738 340.487 295.988 342.123 c 318.266 358.307 l 358.219 318.377
 l 342.047 296.077 l 340.414 293.827 340.066 290.889 341.133 288.319 c 360.23
 242.264 l 361.297 239.694 363.621 237.862 366.367 237.424 c 393.574 233.116
 l 393.598 176.627 l h
366.406 172.299 m f
277.68 194.834 m 267.676 203.924 254.23 207.873 240.957 205.807 c 205.824
 240.94 l 207.961 254.858 203.371 269.178 193.309 279.241 c 180.695 291.854
 161.84 295.713 145.27 289.08 c 142.77 288.084 140.945 285.897 140.402 283.264
 c 139.863 280.631 140.684 277.901 142.586 275.998 c 154.184 264.397 l 156.641
 261.944 156.641 257.948 154.184 255.491 c 151.73 253.038 147.734 253.038
 145.277 255.491 c 133.637 267.131 l 131.738 269.03 129.02 269.85 126.391
 269.315 c 123.758 268.784 121.57 266.967 120.566 264.479 c 113.59 247.252
 118.156 227.276 131.922 214.768 c 141.938 205.666 155.395 201.721 168.684
 203.799 c 203.785 168.698 l 201.633 154.768 206.223 140.432 216.293 130.362
 c 224.812 121.838 236.168 117.311 247.75 117.315 c 253.367 117.315 259.039
 118.377 264.465 120.569 c 266.953 121.577 268.77 123.764 269.305 126.393
 c 269.84 129.022 269.023 131.745 267.125 133.643 c 255.578 145.194 l 253.121
 147.647 253.121 151.643 255.578 154.1 c 258.031 156.557 262.027 156.557
 264.484 154.1 c 276.008 142.577 l 277.906 140.674 280.637 139.854 283.27
 140.393 c 285.902 140.932 288.09 142.76 289.09 145.252 c 295.988 162.444
 291.402 182.37 277.68 194.834 c h
275.797 165.413 m 267.102 174.104 252.957 174.108 244.262 165.413 c 235.566
 156.717 235.566 142.573 244.262 133.877 c 244.652 133.487 l 238.336 134.178
 232.297 136.983 227.605 141.674 c 220.43 148.854 217.598 159.413 220.223
 169.237 c 220.957 171.995 220.168 174.936 218.148 176.955 c 176.941 218.166
 l 175.422 219.686 173.375 220.51 171.281 220.51 c 170.598 220.51 169.91
 220.424 169.23 220.241 c 159.758 217.725 149.832 220.108 142.68 226.608
 c 137.426 231.381 134.262 237.854 133.504 244.639 c 133.965 244.178 l 142.656
 235.483 156.805 235.483 165.496 244.178 c 174.191 252.873 174.191 267.018
 165.496 275.709 c 165.121 276.088 l 171.375 275.366 177.348 272.573 181.996
 267.924 c 189.164 260.756 191.996 250.205 189.387 240.389 c 188.652 237.631
 189.441 234.694 191.461 232.674 c 232.691 191.44 l 234.707 189.428 237.637
 188.635 240.395 189.362 c 249.859 191.866 259.777 189.483 266.922 182.991
 c 272.129 178.26 275.281 171.858 276.074 165.135 c h
275.797 165.413 m f
277.875 261.928 m 264.691 278.772 246 290.62 225.242 295.288 c 220.934 
296.26 216.652 293.553 215.68 289.241 c 214.711 284.928 217.418 280.647 
221.73 279.678 c 238.895 275.819 254.359 266.01 265.277 252.065 c 266.855
 250.049 269.207 248.998 271.582 248.998 c 273.305 248.998 275.043 249.553
 276.508 250.698 c 279.984 253.42 280.598 258.448 277.875 261.928 c h
277.875 261.928 m f
293.16 233.08 m 293.043 233.444 l 291.684 237.647 287.176 239.952 282.969
 238.596 c 278.766 237.241 276.457 232.729 277.816 228.526 c 277.918 228.213
 l 279.004 224.811 282.148 222.643 285.535 222.643 c 286.344 222.643 287.164
 222.768 287.973 223.026 c 292.18 224.37 294.504 228.873 293.16 233.08 c
 h
293.16 233.08 m f
Q Q
showpage
%%Trailer
end restore
%%EOF
