%!PS-Adobe-3.0 EPSF-3.0
%%Creator: cairo 1.14.2 (http://cairographics.org)
%%CreationDate: Thu Jul 26 08:51:17 2018
%%Pages: 1
%%DocumentData: Clean7Bit
%%LanguageLevel: 2
%%BoundingBox: 0 -1 410 410
%%EndComments
%%BeginProlog
save
50 dict begin
/q { gsave } bind def
/Q { grestore } bind def
/cm { 6 array astore concat } bind def
/w { setlinewidth } bind def
/J { setlinecap } bind def
/j { setlinejoin } bind def
/M { setmiterlimit } bind def
/d { setdash } bind def
/m { moveto } bind def
/l { lineto } bind def
/c { curveto } bind def
/h { closepath } bind def
/re { exch dup neg 3 1 roll 5 3 roll moveto 0 rlineto
      0 exch rlineto 0 rlineto closepath } bind def
/S { stroke } bind def
/f { fill } bind def
/f* { eofill } bind def
/n { newpath } bind def
/W { clip } bind def
/W* { eoclip } bind def
/BT { } bind def
/ET { } bind def
/pdfmark where { pop globaldict /?pdfmark /exec load put }
    { globaldict begin /?pdfmark /pop load def /pdfmark
    /cleartomark load def end } ifelse
/BDC { mark 3 1 roll /BDC pdfmark } bind def
/EMC { mark /EMC pdfmark } bind def
/cairo_store_point { /cairo_point_y exch def /cairo_point_x exch def } def
/Tj { show currentpoint cairo_store_point } bind def
/TJ {
  {
    dup
    type /stringtype eq
    { show } { -0.001 mul 0 cairo_font_matrix dtransform rmoveto } ifelse
  } forall
  currentpoint cairo_store_point
} bind def
/cairo_selectfont { cairo_font_matrix aload pop pop pop 0 0 6 array astore
    cairo_font exch selectfont cairo_point_x cairo_point_y moveto } bind def
/Tf { pop /cairo_font exch def /cairo_font_matrix where
      { pop cairo_selectfont } if } bind def
/Td { matrix translate cairo_font_matrix matrix concatmatrix dup
      /cairo_font_matrix exch def dup 4 get exch 5 get cairo_store_point
      /cairo_font where { pop cairo_selectfont } if } bind def
/Tm { 2 copy 8 2 roll 6 array astore /cairo_font_matrix exch def
      cairo_store_point /cairo_font where { pop cairo_selectfont } if } bind def
/g { setgray } bind def
/rg { setrgbcolor } bind def
/d1 { setcachedevice } bind def
%%EndProlog
%%BeginSetup
%%EndSetup
%%Page: 1 1
%%BeginPageSetup
%%PageBoundingBox: 0 -1 410 410
%%EndPageSetup
q 0 -1 410 411 rectclip q
0 g
409.551 134.143 m 409.043 143.299 404.527 151.678 397.164 157.143 c 385.246
 165.983 368.719 165.061 357.859 154.948 c 289.102 90.913 l 285.887 87.916
 282.195 85.573 278.223 83.936 c 279.09 86.256 279.68 88.721 279.938 91.295
 c 281.375 105.67 272.254 118.682 258.25 122.237 c 179.273 142.284 l 164.105
 146.131 148.152 145.842 133.133 141.444 c 79.996 125.885 l 79.996 132.803
 l 79.996 137.225 76.414 140.803 71.996 140.803 c 8 140.803 l 3.582 140.803
 0 137.221 0 132.803 c 0 8.014 l 0 3.596 3.582 0.014 8 0.014 c 71.996 0.014
 l 76.414 0.014 79.992 3.596 79.992 8.014 c 246.219 8.014 l 274.668 8.014
 301.809 18.69 322.633 38.077 c 399.797 109.909 l 406.504 116.159 410.062
 124.991 409.551 134.143 c h
63.996 115.358 m 63.996 16.014 l 16 16.014 l 16 124.807 l 31.996 124.807
 l 31.996 70.409 l 31.996 65.991 35.578 62.413 39.996 62.413 c 44.414 62.413
 47.996 65.995 47.996 70.409 c 47.996 124.807 l 63.992 124.807 l 63.992 
115.358 l h
388.895 121.623 m 311.73 49.788 l 293.879 33.166 270.609 24.014 246.219
 24.014 c 79.992 24.014 l 79.992 109.213 l 137.629 126.092 l 149.902 129.686
 162.941 129.924 175.336 126.776 c 254.312 106.729 l 260.578 105.139 264.66
 99.319 264.02 92.885 c 263.355 86.252 257.844 81.248 251.184 81.221 c 224.797
 81.221 l 224.781 81.221 224.762 81.217 224.742 81.217 c 186.902 81.217 
l 182.484 81.217 178.902 77.635 178.902 73.217 c 178.902 68.799 182.484 
65.217 186.902 65.217 c 251.129 65.217 l 251.168 65.217 251.203 65.221 251.242
 65.221 c 264.469 65.221 l 277.703 65.221 290.324 70.186 300.008 79.205 
c 368.766 143.241 l 373.977 148.096 381.91 148.538 387.633 144.295 c 391.164
 141.67 393.332 137.647 393.578 133.252 c 393.824 128.858 392.117 124.62
 388.895 121.623 c h
388.895 121.623 m f
355.512 320.877 m 341.426 373.108 293.762 409.584 239.605 409.584 c 235.188
 409.584 231.605 406.002 231.605 401.584 c 231.605 397.166 235.188 393.584
 239.605 393.584 c 286.547 393.584 327.859 361.975 340.066 316.713 c 341.027
 313.143 344.258 310.795 347.781 310.795 c 348.473 310.795 349.176 310.885
 349.871 311.073 c 354.137 312.221 356.66 316.612 355.512 320.877 c h
355.512 320.877 m f
351.645 297.666 m 347.227 297.666 343.648 294.088 343.648 289.67 c 343.648
 289.545 l 343.648 285.127 347.23 281.545 351.645 281.545 c 356.062 281.545
 359.645 285.127 359.645 289.545 c 359.645 289.67 l 359.645 294.088 356.062
 297.666 351.645 297.666 c h
351.645 297.666 m f
239.605 370.205 m 235.188 370.205 231.605 366.623 231.605 362.205 c 231.605
 357.788 235.188 354.205 239.605 354.205 c 275.262 354.205 304.266 325.198
 304.266 289.545 c 304.266 285.127 307.848 281.545 312.266 281.545 c 316.684
 281.545 320.266 285.127 320.266 289.545 c 320.266 334.018 284.082 370.205
 239.605 370.205 c h
239.605 370.205 m f
239.605 328.686 m 235.188 328.686 231.605 325.104 231.605 320.686 c 231.605
 316.268 235.188 312.686 239.605 312.686 c 252.367 312.686 262.746 302.303
 262.746 289.545 c 262.746 285.127 266.328 281.545 270.746 281.545 c 275.164
 281.545 278.746 285.127 278.746 289.545 c 278.746 311.127 261.188 328.686
 239.605 328.686 c h
239.605 328.686 m f
301.285 215.33 m 267.309 249.307 l 256.953 259.666 240.102 259.666 229.746
 249.307 c 227.531 247.092 l 225.059 244.623 221.039 244.623 218.57 247.092
 c 194.266 271.401 l 191.793 273.87 191.793 277.889 194.266 280.358 c 196.48
 282.573 l 206.836 292.932 206.836 309.78 196.48 320.135 c 162.5 354.116
 l 157.484 359.131 150.816 361.897 143.719 361.897 c 136.625 361.897 129.957
 359.131 124.938 354.116 c 116.809 345.987 l 91.613 320.791 91.613 279.791
 116.809 254.596 c 201.766 169.639 l 214.367 157.038 230.91 150.741 247.461
 150.741 c 264.008 150.741 280.562 157.041 293.156 169.639 c 301.289 177.768
 l 306.305 182.784 309.066 189.455 309.066 196.549 c 309.066 203.643 306.301
 210.311 301.285 215.33 c h
289.973 189.08 m 286.453 185.561 l 256.621 215.389 l 253.496 218.514 248.434
 218.514 245.309 215.389 c 242.184 212.264 242.184 207.202 245.309 204.077
 c 274.477 174.909 l 255.59 162.276 229.742 164.284 213.078 180.948 c 128.121
 265.909 l 109.164 284.866 109.164 315.713 128.121 334.67 c 136.254 342.799
 l 138.312 344.858 141.016 345.889 143.719 345.889 c 146.426 345.889 149.129
 344.858 151.188 342.799 c 185.168 308.823 l 189.285 304.702 189.285 298.002
 185.168 293.885 c 182.953 291.67 l 182.512 291.229 182.098 290.772 181.703
 290.307 c 156.102 315.905 l 152.98 319.03 147.914 319.03 144.789 315.905
 c 141.668 312.784 141.668 307.717 144.789 304.592 c 176.641 272.745 l 177.293
 268.108 179.395 263.639 182.953 260.084 c 207.258 235.776 l 215.965 227.069
 230.137 227.069 238.844 235.776 c 241.059 237.995 l 245.176 242.112 251.875
 242.112 255.996 237.995 c 289.973 204.014 l 294.09 199.897 294.09 193.198
 289.973 189.08 c h
289.973 189.08 m f
45.652 46.467 m 44.164 47.955 42.102 48.811 39.996 48.811 c 37.895 48.811
 35.828 47.955 34.344 46.467 c 32.855 44.979 32 42.916 32 40.811 c 32 38.709
 32.855 36.643 34.344 35.159 c 35.832 33.67 37.895 32.815 39.996 32.815 
c 42.102 32.815 44.164 33.67 45.652 35.159 c 47.141 36.647 47.996 38.709
 47.996 40.811 c 47.996 42.916 47.141 44.979 45.652 46.467 c h
45.652 46.467 m f
Q Q
showpage
%%Trailer
end restore
%%EOF
