%!PS-Adobe-3.0 EPSF-3.0
%%Creator: cairo 1.14.2 (http://cairographics.org)
%%CreationDate: Thu Jul 26 08:51:17 2018
%%Pages: 1
%%DocumentData: Clean7Bit
%%LanguageLevel: 2
%%BoundingBox: 0 -1 410 410
%%EndComments
%%BeginProlog
save
50 dict begin
/q { gsave } bind def
/Q { grestore } bind def
/cm { 6 array astore concat } bind def
/w { setlinewidth } bind def
/J { setlinecap } bind def
/j { setlinejoin } bind def
/M { setmiterlimit } bind def
/d { setdash } bind def
/m { moveto } bind def
/l { lineto } bind def
/c { curveto } bind def
/h { closepath } bind def
/re { exch dup neg 3 1 roll 5 3 roll moveto 0 rlineto
      0 exch rlineto 0 rlineto closepath } bind def
/S { stroke } bind def
/f { fill } bind def
/f* { eofill } bind def
/n { newpath } bind def
/W { clip } bind def
/W* { eoclip } bind def
/BT { } bind def
/ET { } bind def
/pdfmark where { pop globaldict /?pdfmark /exec load put }
    { globaldict begin /?pdfmark /pop load def /pdfmark
    /cleartomark load def end } ifelse
/BDC { mark 3 1 roll /BDC pdfmark } bind def
/EMC { mark /EMC pdfmark } bind def
/cairo_store_point { /cairo_point_y exch def /cairo_point_x exch def } def
/Tj { show currentpoint cairo_store_point } bind def
/TJ {
  {
    dup
    type /stringtype eq
    { show } { -0.001 mul 0 cairo_font_matrix dtransform rmoveto } ifelse
  } forall
  currentpoint cairo_store_point
} bind def
/cairo_selectfont { cairo_font_matrix aload pop pop pop 0 0 6 array astore
    cairo_font exch selectfont cairo_point_x cairo_point_y moveto } bind def
/Tf { pop /cairo_font exch def /cairo_font_matrix where
      { pop cairo_selectfont } if } bind def
/Td { matrix translate cairo_font_matrix matrix concatmatrix dup
      /cairo_font_matrix exch def dup 4 get exch 5 get cairo_store_point
      /cairo_font where { pop cairo_selectfont } if } bind def
/Tm { 2 copy 8 2 roll 6 array astore /cairo_font_matrix exch def
      cairo_store_point /cairo_font where { pop cairo_selectfont } if } bind def
/g { setgray } bind def
/rg { setrgbcolor } bind def
/d1 { setcachedevice } bind def
%%EndProlog
%%BeginSetup
%%EndSetup
%%Page: 1 1
%%BeginPageSetup
%%PageBoundingBox: 0 -1 410 410
%%EndPageSetup
q 0 -1 410 411 rectclip q
0 g
355.148 96.916 m 299.648 152.416 l 284.707 167.357 260.398 167.357 245.461
 152.416 c 232.801 139.759 l 226.793 133.752 217.012 133.752 211.004 139.759
 c 139.742 211.017 l 133.734 217.029 133.734 226.806 139.742 232.818 c 152.402
 245.474 l 167.34 260.416 167.34 284.724 152.402 299.666 c 96.898 355.166
 l 89.664 362.4 80.039 366.388 69.805 366.388 c 59.57 366.388 49.949 362.4
 42.711 355.166 c 29.43 341.884 l 10.453 322.904 0 297.67 0 270.83 c 0 243.99
 10.453 218.755 29.43 199.775 c 199.758 29.447 l 218.738 10.466 243.973 
0.013 270.812 0.013 c 297.656 0.013 322.891 10.466 341.867 29.447 c 355.148
 42.728 l 362.387 49.962 366.371 59.587 366.371 69.822 c 366.371 80.056 
362.387 89.677 355.148 96.916 c h
343.836 54.041 m 330.555 40.759 l 314.598 24.802 293.383 16.013 270.812
 16.013 c 248.246 16.013 227.031 24.802 211.074 40.759 c 40.746 211.087 
l 24.789 227.045 16 248.263 16 270.83 c 16 290.912 22.965 309.923 35.746
 325.115 c 94.59 266.271 l 96.152 264.709 98.199 263.927 100.246 263.927
 c 102.293 263.927 104.34 264.709 105.902 266.271 c 109.027 269.396 109.027
 274.459 105.902 277.584 c 46.828 336.658 l 54.023 343.853 l 58.238 348.068
 63.844 350.388 69.805 350.388 c 75.77 350.388 81.371 348.068 85.59 343.853
 c 141.09 288.353 l 149.793 279.65 149.793 265.49 141.09 256.787 c 128.434
 244.13 l 122.5 238.197 119.23 230.31 119.23 221.92 c 119.23 213.525 122.5
 205.638 128.434 199.705 c 199.691 128.447 l 205.625 122.513 213.512 119.244
 221.902 119.244 c 227.461 119.244 232.793 120.685 237.484 123.377 c 296.203
 64.658 l 297.766 63.095 299.812 62.314 301.859 62.314 c 303.906 62.314 
305.953 63.095 307.516 64.658 c 310.641 67.783 310.641 72.845 307.516 75.97
 c 249.578 133.908 l 256.773 141.103 l 265.473 149.806 279.637 149.806 288.336
 141.103 c 343.836 85.603 l 348.055 81.388 350.375 75.783 350.375 69.822
 c 350.375 63.861 348.051 58.255 343.836 54.041 c h
343.836 54.041 m f
312.727 312.74 m 273.199 352.267 215.301 367.025 161.621 351.252 c 157.379
 350.005 154.953 345.56 156.199 341.322 c 157.445 337.084 161.891 334.658
 166.129 335.9 c 214.191 350.021 266.031 336.814 301.414 301.427 c 327.25
 275.591 341.465 241.24 341.441 204.701 c 341.438 200.283 345.016 196.701
 349.434 196.697 c 349.438 196.697 l 353.855 196.697 357.434 200.275 357.438
 204.693 c 357.469 245.509 341.59 283.88 312.727 312.74 c h
312.727 312.74 m f
347.988 182.947 m 343.668 183.837 339.441 181.029 338.539 176.716 c 338.539
 176.705 338.523 176.638 338.523 176.63 c 337.641 172.306 340.43 168.111
 344.746 167.22 c 345.289 167.107 345.832 167.056 346.363 167.056 c 350.078
 167.056 353.414 169.67 354.203 173.447 c 354.203 173.462 354.223 173.545
 354.227 173.56 c 355.098 177.88 352.305 182.06 347.988 182.947 c h
347.988 182.947 m f
406.391 240.834 m 399.035 282.189 379.395 319.798 349.59 349.603 c 310.91
 388.283 259.484 409.584 204.785 409.584 c 193.441 409.584 182.023 408.638
 170.852 406.767 c 166.492 406.041 163.551 401.916 164.281 397.56 c 165.008
 393.201 169.137 390.263 173.488 390.99 c 183.793 392.712 194.324 393.587
 204.785 393.587 c 255.211 393.587 302.621 373.947 338.277 338.291 c 393.027
 283.541 408.781 199.185 377.473 128.388 c 375.688 124.345 377.512 119.623
 381.555 117.834 c 382.605 117.369 383.703 117.15 384.785 117.15 c 387.855
 117.15 390.781 118.927 392.105 121.916 c 408.637 159.306 413.578 200.427
 406.391 240.834 c h
406.391 240.834 m f
150.027 394.037 m 148.621 398.224 144.086 400.478 139.898 399.076 c 139.52
 398.951 l 135.328 397.545 133.07 393.013 134.477 388.822 c 135.598 385.478
 138.719 383.365 142.059 383.365 c 142.902 383.365 143.762 383.498 144.605
 383.783 c 144.984 383.908 l 149.176 385.314 151.434 389.849 150.027 394.037
 c h
150.027 394.037 m f
204.785 305.322 m 199.23 305.322 193.656 304.865 188.219 303.962 c 183.859
 303.236 180.914 299.119 181.637 294.759 c 182.359 290.4 186.48 287.455 
190.836 288.177 c 195.414 288.939 200.105 289.322 204.785 289.322 c 251.391
 289.322 289.309 251.408 289.309 204.802 c 289.309 200.982 289.051 197.138
 288.543 193.38 c 287.953 189.002 291.023 184.974 295.402 184.384 c 295.766
 184.334 296.125 184.31 296.48 184.31 c 300.426 184.31 303.855 187.228 304.398
 191.24 c 305 195.705 305.305 200.267 305.305 204.798 c 305.305 260.228 
260.211 305.322 204.785 305.322 c h
204.785 305.322 m f
Q Q
showpage
%%Trailer
end restore
%%EOF
