%!PS-Adobe-3.0 EPSF-3.0
%%Creator: cairo 1.14.2 (http://cairographics.org)
%%CreationDate: Thu Jul 26 08:51:17 2018
%%Pages: 1
%%DocumentData: Clean7Bit
%%LanguageLevel: 2
%%BoundingBox: 0 -1 410 410
%%EndComments
%%BeginProlog
save
50 dict begin
/q { gsave } bind def
/Q { grestore } bind def
/cm { 6 array astore concat } bind def
/w { setlinewidth } bind def
/J { setlinecap } bind def
/j { setlinejoin } bind def
/M { setmiterlimit } bind def
/d { setdash } bind def
/m { moveto } bind def
/l { lineto } bind def
/c { curveto } bind def
/h { closepath } bind def
/re { exch dup neg 3 1 roll 5 3 roll moveto 0 rlineto
      0 exch rlineto 0 rlineto closepath } bind def
/S { stroke } bind def
/f { fill } bind def
/f* { eofill } bind def
/n { newpath } bind def
/W { clip } bind def
/W* { eoclip } bind def
/BT { } bind def
/ET { } bind def
/pdfmark where { pop globaldict /?pdfmark /exec load put }
    { globaldict begin /?pdfmark /pop load def /pdfmark
    /cleartomark load def end } ifelse
/BDC { mark 3 1 roll /BDC pdfmark } bind def
/EMC { mark /EMC pdfmark } bind def
/cairo_store_point { /cairo_point_y exch def /cairo_point_x exch def } def
/Tj { show currentpoint cairo_store_point } bind def
/TJ {
  {
    dup
    type /stringtype eq
    { show } { -0.001 mul 0 cairo_font_matrix dtransform rmoveto } ifelse
  } forall
  currentpoint cairo_store_point
} bind def
/cairo_selectfont { cairo_font_matrix aload pop pop pop 0 0 6 array astore
    cairo_font exch selectfont cairo_point_x cairo_point_y moveto } bind def
/Tf { pop /cairo_font exch def /cairo_font_matrix where
      { pop cairo_selectfont } if } bind def
/Td { matrix translate cairo_font_matrix matrix concatmatrix dup
      /cairo_font_matrix exch def dup 4 get exch 5 get cairo_store_point
      /cairo_font where { pop cairo_selectfont } if } bind def
/Tm { 2 copy 8 2 roll 6 array astore /cairo_font_matrix exch def
      cairo_store_point /cairo_font where { pop cairo_selectfont } if } bind def
/g { setgray } bind def
/rg { setrgbcolor } bind def
/d1 { setcachedevice } bind def
%%EndProlog
%%BeginSetup
%%EndSetup
%%Page: 1 1
%%BeginPageSetup
%%PageBoundingBox: 0 -1 410 410
%%EndPageSetup
q 0 -1 410 411 rectclip q
0 g
395.207 232.342 m 395.207 288.807 l 395.207 347.475 347.477 395.209 288.809
 395.209 c 232.344 395.209 l 226.266 403.901 216.188 409.6 204.801 409.6
 c 193.41 409.6 183.336 403.901 177.258 395.209 c 120.793 395.209 l 62.125
 395.209 14.391 347.475 14.391 288.807 c 14.391 232.534 l 14.391 232.471
 14.398 232.413 14.402 232.35 c 5.703 226.272 0 216.194 0 204.799 c 0 193.413
 5.699 183.334 14.391 177.256 c 14.391 120.791 l 14.391 62.123 62.125 14.393
 120.793 14.393 c 177.258 14.393 l 183.336 5.702 193.41 -0.002 204.801 -0.002
 c 216.199 -0.002 226.281 5.709 232.359 14.413 c 232.508 14.405 232.652 
14.393 232.801 14.393 c 288.809 14.393 l 347.477 14.393 395.207 62.123 395.207
 120.791 c 395.207 177.256 l 403.898 183.334 409.602 193.413 409.602 204.799
 c 409.602 216.19 403.898 226.264 395.207 232.342 c h
288.809 379.209 m 338.656 379.209 379.207 338.655 379.207 288.807 c 379.207
 238.245 l 378.68 238.295 378.148 238.334 377.613 238.358 c 371.043 272.584
 354.438 304.065 329.25 329.252 c 304.062 354.44 272.586 371.041 238.359
 377.616 c 238.332 378.151 238.293 378.682 238.242 379.209 c h
345.719 211.604 m 345.648 211.604 l 341.262 211.604 337.688 208.065 337.652
 203.67 c 337.492 184.987 333.359 166.459 325.656 149.565 c 298.312 176.905
 l 303.699 195.077 303.699 214.522 298.312 232.694 c 345.863 280.241 l 357.938
 257.752 364.801 232.065 364.801 204.799 c 364.801 177.538 357.938 151.846
 345.863 129.358 c 337.645 137.573 l 347.934 157.909 353.457 180.623 353.652
 203.538 c 353.688 207.955 350.137 211.569 345.719 211.604 c h
63.883 197.995 m 63.949 197.995 l 68.336 197.995 71.91 201.534 71.949 205.928
 c 72.105 224.616 76.238 243.139 83.945 260.038 c 111.289 232.694 l 105.898
 214.522 105.898 195.08 111.289 176.909 c 63.738 129.358 l 51.66 151.846
 44.801 177.538 44.801 204.799 c 44.801 232.065 51.66 257.752 63.738 280.241
 c 71.953 272.026 l 61.668 251.69 56.145 228.979 55.949 206.065 c 55.91 
201.643 59.465 198.034 63.883 197.995 c h
72.266 294.342 m 83.73 311.256 98.344 325.87 115.258 337.334 c 160.715 
291.877 l 151.723 287.334 143.289 281.319 135.785 273.815 c 128.285 266.311
 122.266 257.877 117.723 248.885 c h
117.723 160.713 m 122.266 151.721 128.281 143.288 135.785 135.788 c 143.289
 128.284 151.723 122.268 160.715 117.721 c 115.258 72.264 l 98.344 83.729
 83.73 98.342 72.266 115.256 c h
147.102 147.1 m 115.285 178.916 115.285 230.682 147.102 262.498 c 163.008
 278.409 183.902 286.362 204.801 286.362 c 225.695 286.362 246.594 278.409
 262.5 262.498 c 294.316 230.682 294.316 178.916 262.5 147.1 c 230.684 115.284
 178.914 115.284 147.102 147.1 c h
248.887 291.877 m 294.344 337.334 l 311.258 325.87 325.871 311.256 337.336
 294.342 c 291.879 248.885 l 287.332 257.877 281.316 266.311 273.812 273.815
 c 266.309 281.315 257.879 287.334 248.887 291.877 c h
273.812 135.788 m 281.316 143.288 287.332 151.721 291.879 160.713 c 337.336
 115.256 l 325.871 98.342 311.258 83.729 294.344 72.264 c 248.887 117.721
 l 257.879 122.268 266.312 128.284 273.812 135.788 c h
204.801 393.6 m 213.137 393.6 220.133 387.772 221.941 379.979 c 216.277
 380.522 210.562 380.799 204.801 380.799 c 199.039 380.799 193.32 380.522
 187.66 379.979 c 189.469 387.772 196.465 393.6 204.801 393.6 c h
204.801 364.799 m 232.062 364.799 257.754 357.94 280.242 345.862 c 232.691
 298.311 l 214.52 303.698 195.078 303.698 176.906 298.311 c 129.355 345.862
 l 151.848 357.94 177.535 364.799 204.801 364.799 c h
29.621 187.659 m 21.828 189.467 16 196.463 16 204.799 c 16 213.135 21.828
 220.131 29.621 221.94 c 29.078 216.28 28.801 210.561 28.801 204.799 c 28.801
 199.038 29.078 193.323 29.621 187.659 c h
30.391 288.807 m 30.391 338.655 70.945 379.209 120.793 379.209 c 171.355
 379.209 l 171.305 378.678 171.266 378.147 171.242 377.612 c 137.016 371.041
 105.535 354.436 80.348 329.252 c 55.16 304.065 38.559 272.584 31.984 238.358
 c 31.449 238.334 30.918 238.291 30.391 238.241 c h
120.793 30.393 m 70.945 30.393 30.391 70.944 30.391 120.791 c 30.391 171.358
 l 30.922 171.307 31.453 171.268 31.988 171.241 c 38.559 137.014 55.164 
105.538 80.348 80.35 c 105.535 55.163 137.016 38.557 171.242 31.987 c 171.266
 31.452 171.309 30.92 171.359 30.393 c h
204.801 15.998 m 196.465 15.998 189.469 21.827 187.66 29.623 c 193.32 29.077
 199.039 28.799 204.801 28.799 c 210.562 28.799 216.277 29.077 221.941 29.623
 c 220.133 21.827 213.137 15.998 204.801 15.998 c h
204.801 44.799 m 177.535 44.799 151.848 51.663 129.359 63.737 c 176.906
 111.288 l 185.992 108.592 195.398 107.245 204.801 107.245 c 214.203 107.245
 223.609 108.592 232.695 111.288 c 280.242 63.737 l 257.754 51.663 232.062
 44.799 204.801 44.799 c h
379.207 120.791 m 379.207 70.944 338.656 30.393 288.809 30.393 c 238.242
 30.393 l 238.293 30.92 238.332 31.452 238.359 31.987 c 272.586 38.557 304.062
 55.163 329.25 80.35 c 354.438 105.538 371.043 137.014 377.613 171.241 c
 378.148 171.268 378.68 171.307 379.207 171.358 c h
379.977 187.659 m 380.523 193.323 380.801 199.038 380.801 204.799 c 380.801
 210.561 380.523 216.28 379.977 221.94 c 387.773 220.131 393.602 213.135
 393.602 204.799 c 393.602 196.463 387.773 189.467 379.977 187.659 c h
379.977 187.659 m f
192.746 184.405 m 170.828 184.405 l 170.828 190.002 l 170.828 193.092 173.34
 195.604 176.426 195.604 c 179.148 195.604 l 191.059 195.604 200.746 205.295
 200.746 217.205 c 200.746 229.116 191.059 238.803 179.148 238.803 c 162.828
 238.803 l 158.41 238.803 154.828 235.221 154.828 230.803 c 154.828 226.385
 158.41 222.803 162.828 222.803 c 179.148 222.803 l 182.234 222.803 184.746
 220.291 184.746 217.205 c 184.746 214.116 182.234 211.604 179.148 211.604
 c 176.426 211.604 l 164.516 211.604 154.828 201.913 154.828 190.002 c 154.828
 176.405 l 154.828 171.987 158.41 168.405 162.828 168.405 c 192.746 168.405
 l 197.164 168.405 200.746 171.987 200.746 176.405 c 200.746 180.823 197.164
 184.405 192.746 184.405 c h
192.746 184.405 m f
246.773 241.198 m 242.355 241.198 238.773 237.616 238.773 233.198 c 238.773
 211.276 l 226.266 211.276 l 225.488 211.276 224.852 211.909 224.852 212.69
 c 224.852 233.198 l 224.852 237.616 221.27 241.198 216.852 241.198 c 212.434
 241.198 208.852 237.616 208.852 233.198 c 208.852 212.69 l 208.852 203.088
 216.664 195.276 226.266 195.276 c 238.773 195.276 l 238.773 176.405 l 238.773
 171.987 242.355 168.405 246.773 168.405 c 251.191 168.405 254.773 171.987
 254.773 176.405 c 254.773 233.198 l 254.773 237.616 251.191 241.198 246.773
 241.198 c h
246.773 241.198 m f
351.18 231.909 m 351.176 231.924 351.16 232.006 351.16 232.022 c 350.332
 236.354 346.168 239.166 341.832 238.354 c 337.5 237.541 334.645 233.342
 335.445 229.006 c 335.445 228.995 335.461 228.928 335.461 228.916 c 336.188
 225.08 339.531 222.428 343.297 222.428 c 343.789 222.428 344.285 222.471
 344.785 222.565 c 349.121 223.373 351.98 227.569 351.18 231.909 c h
351.18 231.909 m f
74.156 180.592 m 74.152 180.604 74.141 180.67 74.137 180.682 c 73.32 185.018
 69.152 187.842 64.812 187.034 c 60.477 186.225 57.621 182.03 58.418 177.694
 c 58.422 177.678 58.438 177.596 58.441 177.577 c 59.172 173.748 62.512 
171.108 66.273 171.108 c 66.766 171.108 67.266 171.151 67.766 171.245 c 
72.102 172.057 74.953 176.256 74.156 180.592 c h
74.156 180.592 m f
Q Q
showpage
%%Trailer
end restore
%%EOF
