%!PS-Adobe-3.0 EPSF-3.0
%%Creator: cairo 1.14.2 (http://cairographics.org)
%%CreationDate: Thu Jul 26 08:51:17 2018
%%Pages: 1
%%DocumentData: Clean7Bit
%%LanguageLevel: 2
%%BoundingBox: 0 -1 410 410
%%EndComments
%%BeginProlog
save
50 dict begin
/q { gsave } bind def
/Q { grestore } bind def
/cm { 6 array astore concat } bind def
/w { setlinewidth } bind def
/J { setlinecap } bind def
/j { setlinejoin } bind def
/M { setmiterlimit } bind def
/d { setdash } bind def
/m { moveto } bind def
/l { lineto } bind def
/c { curveto } bind def
/h { closepath } bind def
/re { exch dup neg 3 1 roll 5 3 roll moveto 0 rlineto
      0 exch rlineto 0 rlineto closepath } bind def
/S { stroke } bind def
/f { fill } bind def
/f* { eofill } bind def
/n { newpath } bind def
/W { clip } bind def
/W* { eoclip } bind def
/BT { } bind def
/ET { } bind def
/pdfmark where { pop globaldict /?pdfmark /exec load put }
    { globaldict begin /?pdfmark /pop load def /pdfmark
    /cleartomark load def end } ifelse
/BDC { mark 3 1 roll /BDC pdfmark } bind def
/EMC { mark /EMC pdfmark } bind def
/cairo_store_point { /cairo_point_y exch def /cairo_point_x exch def } def
/Tj { show currentpoint cairo_store_point } bind def
/TJ {
  {
    dup
    type /stringtype eq
    { show } { -0.001 mul 0 cairo_font_matrix dtransform rmoveto } ifelse
  } forall
  currentpoint cairo_store_point
} bind def
/cairo_selectfont { cairo_font_matrix aload pop pop pop 0 0 6 array astore
    cairo_font exch selectfont cairo_point_x cairo_point_y moveto } bind def
/Tf { pop /cairo_font exch def /cairo_font_matrix where
      { pop cairo_selectfont } if } bind def
/Td { matrix translate cairo_font_matrix matrix concatmatrix dup
      /cairo_font_matrix exch def dup 4 get exch 5 get cairo_store_point
      /cairo_font where { pop cairo_selectfont } if } bind def
/Tm { 2 copy 8 2 roll 6 array astore /cairo_font_matrix exch def
      cairo_store_point /cairo_font where { pop cairo_selectfont } if } bind def
/g { setgray } bind def
/rg { setrgbcolor } bind def
/d1 { setcachedevice } bind def
%%EndProlog
%%BeginSetup
%%EndSetup
%%Page: 1 1
%%BeginPageSetup
%%PageBoundingBox: 0 -1 410 410
%%EndPageSetup
q 0 -1 410 411 rectclip q
0 g
267.207 230.135 m 271.625 230.135 275.207 233.713 275.207 238.135 c 275.207
 353.6 l 275.207 366.834 264.438 377.6 251.207 377.6 c 232.004 377.6 l 232.004
 383.998 l 232.004 398.116 220.523 409.6 206.406 409.6 c 192.289 409.6 180.805
 398.116 180.805 383.998 c 180.805 377.6 l 163.207 377.6 l 163.207 383.998
 l 163.207 398.116 151.723 409.6 137.605 409.6 c 123.488 409.6 112.004 398.116
 112.004 383.998 c 112.004 377.6 l 94.406 377.6 l 94.406 383.998 l 94.406
 398.116 82.922 409.6 68.805 409.6 c 54.691 409.6 43.207 398.116 43.207 
383.998 c 43.207 377.6 l 24.004 377.6 l 10.773 377.6 0.004 366.834 0.004
 353.6 c 0.004 81.538 l 0.004 79.416 0.848 77.381 2.348 75.881 c 75.887 
2.342 l 77.391 0.842 79.422 -0.002 81.543 -0.002 c 251.207 -0.002 l 264.438
 -0.002 275.207 10.768 275.207 23.998 c 275.207 39.202 l 275.207 43.62 271.625
 47.202 267.207 47.202 c 262.789 47.202 259.207 43.62 259.207 39.202 c 259.207
 23.998 l 259.207 19.588 255.617 15.998 251.207 15.998 c 89.543 15.998 l
 89.543 65.538 l 89.543 78.772 78.777 89.538 65.543 89.538 c 16.004 89.538
 l 16.004 299.202 l 259.207 299.202 l 259.207 238.135 l 259.207 233.713 
262.789 230.135 267.207 230.135 c h
65.543 73.538 m 69.957 73.538 73.543 69.952 73.543 65.538 c 73.543 27.315
 l 27.32 73.538 l h
196.805 383.998 m 196.805 389.295 201.113 393.6 206.406 393.6 c 211.699
 393.6 216.004 389.295 216.004 383.998 c 216.004 377.6 l 196.805 377.6 l
 h
128.004 383.998 m 128.004 389.295 132.312 393.6 137.605 393.6 c 142.898
 393.6 147.207 389.295 147.207 383.998 c 147.207 377.6 l 128.004 377.6 l
 h
59.207 383.998 m 59.207 389.295 63.512 393.6 68.805 393.6 c 74.098 393.6
 78.406 389.295 78.406 383.998 c 78.406 377.6 l 59.207 377.6 l h
16.004 315.202 m 16.004 353.6 l 16.004 358.01 19.594 361.6 24.004 361.6
 c 78.406 361.6 l 78.406 355.202 l 78.406 349.905 74.098 345.6 68.805 345.6
 c 64.387 345.6 60.805 342.018 60.805 337.6 c 60.805 333.182 64.387 329.6
 68.805 329.6 c 82.922 329.6 94.406 341.084 94.406 355.202 c 94.406 361.6
 l 147.207 361.6 l 147.207 355.202 l 147.207 349.905 142.898 345.6 137.605
 345.6 c 133.188 345.6 129.605 342.018 129.605 337.6 c 129.605 333.182 133.188
 329.6 137.605 329.6 c 151.723 329.6 163.207 341.084 163.207 355.202 c 163.207
 361.6 l 216.004 361.6 l 216.004 355.202 l 216.004 349.905 211.699 345.6
 206.406 345.6 c 201.988 345.6 198.406 342.018 198.406 337.6 c 198.406 333.182
 201.988 329.6 206.406 329.6 c 220.523 329.6 232.004 341.084 232.004 355.202
 c 232.004 361.6 l 251.207 361.6 l 255.617 361.6 259.207 358.01 259.207 
353.6 c 259.207 315.202 l h
16.004 315.202 m f
272.859 210.354 m 271.375 211.846 269.309 212.698 267.207 212.698 c 265.102
 212.698 263.039 211.846 261.551 210.354 c 260.062 208.866 259.207 206.799
 259.207 204.698 c 259.207 202.592 260.062 200.538 261.551 199.041 c 263.039
 197.553 265.102 196.698 267.207 196.698 c 269.309 196.698 271.375 197.553
 272.859 199.041 c 274.348 200.53 275.207 202.592 275.207 204.698 c 275.207
 206.799 274.348 208.866 272.859 210.354 c h
272.859 210.354 m f
216.145 225.6 m 59.066 225.6 l 54.652 225.6 51.066 222.018 51.066 217.6
 c 51.066 213.182 54.652 209.6 59.066 209.6 c 216.145 209.6 l 220.562 209.6
 224.145 213.182 224.145 217.6 c 224.145 222.018 220.562 225.6 216.145 225.6
 c h
216.145 225.6 m f
216.145 180.799 m 59.066 180.799 l 54.652 180.799 51.066 177.217 51.066
 172.799 c 51.066 168.381 54.652 164.799 59.066 164.799 c 216.145 164.799
 l 220.562 164.799 224.145 168.381 224.145 172.799 c 224.145 177.217 220.562
 180.799 216.145 180.799 c h
216.145 180.799 m f
216.145 135.998 m 59.066 135.998 l 54.652 135.998 51.066 132.42 51.066 
127.998 c 51.066 123.58 54.652 119.998 59.066 119.998 c 216.145 119.998 
l 220.562 119.998 224.145 123.58 224.145 127.998 c 224.145 132.42 220.562
 135.998 216.145 135.998 c h
216.145 135.998 m f
216.145 270.401 m 94.141 270.401 l 89.723 270.401 86.141 266.819 86.141
 262.401 c 86.141 257.983 89.723 254.401 94.141 254.401 c 216.145 254.401
 l 220.562 254.401 224.145 257.983 224.145 262.401 c 224.145 266.819 220.562
 270.401 216.145 270.401 c h
216.145 270.401 m f
64.727 268.057 m 63.238 269.545 61.172 270.401 59.07 270.401 c 56.957 270.401
 54.902 269.545 53.414 268.057 c 51.926 266.569 51.07 264.502 51.07 262.401
 c 51.07 260.295 51.926 258.233 53.414 256.745 c 54.902 255.256 56.957 254.401
 59.07 254.401 c 61.172 254.401 63.238 255.256 64.727 256.745 c 66.211 258.233
 67.07 260.295 67.07 262.401 c 67.07 264.502 66.215 266.569 64.727 268.057
 c h
64.727 268.057 m f
392.801 305.342 m 385.031 309.83 375.977 311.022 367.305 308.702 c 358.637
 306.377 351.391 300.819 346.902 293.045 c 246.23 118.674 l 245.68 117.721
 245.328 116.659 245.207 115.561 c 238.121 52.088 l 237.77 48.928 239.32
 45.862 242.07 44.272 c 243.312 43.553 244.695 43.198 246.07 43.198 c 247.742
 43.198 249.41 43.725 250.816 44.756 c 302.242 82.631 l 303.133 83.288 303.875
 84.12 304.426 85.073 c 405.098 259.444 l 414.363 275.491 408.848 296.08
 392.801 305.342 c h
256.051 68.487 m 259.75 101.631 l 282.906 88.264 l h
294.57 100.002 m 264.086 117.604 l 344.875 257.53 l 375.359 239.932 l h
391.242 267.444 m 383.359 253.788 l 352.875 271.389 l 360.758 285.045 l
 363.109 289.116 366.906 292.03 371.445 293.245 c 375.988 294.463 380.73
 293.838 384.801 291.487 c 388.871 289.135 391.785 285.342 393 280.799 c
 394.219 276.26 393.594 271.518 391.242 267.444 c h
391.242 267.444 m f
Q Q
showpage
%%Trailer
end restore
%%EOF
