%!PS-Adobe-3.0 EPSF-3.0
%%Creator: cairo 1.14.2 (http://cairographics.org)
%%CreationDate: Thu Jul 26 08:51:17 2018
%%Pages: 1
%%DocumentData: Clean7Bit
%%LanguageLevel: 2
%%BoundingBox: 0 -1 410 410
%%EndComments
%%BeginProlog
save
50 dict begin
/q { gsave } bind def
/Q { grestore } bind def
/cm { 6 array astore concat } bind def
/w { setlinewidth } bind def
/J { setlinecap } bind def
/j { setlinejoin } bind def
/M { setmiterlimit } bind def
/d { setdash } bind def
/m { moveto } bind def
/l { lineto } bind def
/c { curveto } bind def
/h { closepath } bind def
/re { exch dup neg 3 1 roll 5 3 roll moveto 0 rlineto
      0 exch rlineto 0 rlineto closepath } bind def
/S { stroke } bind def
/f { fill } bind def
/f* { eofill } bind def
/n { newpath } bind def
/W { clip } bind def
/W* { eoclip } bind def
/BT { } bind def
/ET { } bind def
/pdfmark where { pop globaldict /?pdfmark /exec load put }
    { globaldict begin /?pdfmark /pop load def /pdfmark
    /cleartomark load def end } ifelse
/BDC { mark 3 1 roll /BDC pdfmark } bind def
/EMC { mark /EMC pdfmark } bind def
/cairo_store_point { /cairo_point_y exch def /cairo_point_x exch def } def
/Tj { show currentpoint cairo_store_point } bind def
/TJ {
  {
    dup
    type /stringtype eq
    { show } { -0.001 mul 0 cairo_font_matrix dtransform rmoveto } ifelse
  } forall
  currentpoint cairo_store_point
} bind def
/cairo_selectfont { cairo_font_matrix aload pop pop pop 0 0 6 array astore
    cairo_font exch selectfont cairo_point_x cairo_point_y moveto } bind def
/Tf { pop /cairo_font exch def /cairo_font_matrix where
      { pop cairo_selectfont } if } bind def
/Td { matrix translate cairo_font_matrix matrix concatmatrix dup
      /cairo_font_matrix exch def dup 4 get exch 5 get cairo_store_point
      /cairo_font where { pop cairo_selectfont } if } bind def
/Tm { 2 copy 8 2 roll 6 array astore /cairo_font_matrix exch def
      cairo_store_point /cairo_font where { pop cairo_selectfont } if } bind def
/g { setgray } bind def
/rg { setrgbcolor } bind def
/d1 { setcachedevice } bind def
%%EndProlog
%%BeginSetup
%%EndSetup
%%Page: 1 1
%%BeginPageSetup
%%PageBoundingBox: 0 -1 410 410
%%EndPageSetup
q 0 -1 410 411 rectclip q
0 g
371.383 91.076 m 369.898 92.564 367.832 93.42 365.73 93.42 c 363.617 93.42
 361.562 92.564 360.074 91.076 c 358.578 89.587 357.723 87.529 357.723 85.42
 c 357.723 83.314 358.578 81.252 360.074 79.763 c 361.562 78.275 363.625
 77.42 365.73 77.42 c 367.832 77.42 369.887 78.275 371.383 79.763 c 372.871
 81.252 373.73 83.314 373.73 85.42 c 373.73 87.521 372.871 89.587 371.383
 91.076 c h
371.383 91.076 m f
392.031 70.431 m 388.906 73.552 383.844 73.552 380.719 70.431 c 377.594
 67.306 377.594 62.24 380.719 59.115 c 387.309 52.525 l 395.648 44.185 395.648
 30.611 387.309 22.267 c 383.266 18.224 377.895 15.998 372.176 15.998 c 
366.461 15.998 361.09 18.224 357.047 22.267 c 287.305 92.005 l 317.566 122.267
 l 339.145 100.689 l 342.27 97.564 347.332 97.564 350.461 100.689 c 353.582
 103.81 353.582 108.877 350.461 112.002 c 323.223 139.236 l 320.098 142.361
 315.035 142.361 311.91 139.236 c 308.402 135.728 l 286.281 157.853 l 303.984
 182.033 315.012 211.396 316.602 243.209 c 343.348 243.209 l 346.945 228.533
 360.207 217.611 375.977 217.611 c 394.504 217.611 409.574 232.681 409.574
 251.209 c 409.574 269.732 394.504 284.806 375.977 284.806 c 360.207 284.806
 346.945 273.88 343.348 259.209 c 316.602 259.209 l 312.422 342.841 243.07
 409.599 158.414 409.599 c 71.078 409.599 0.023 338.545 0.023 251.209 c 
0.023 166.556 66.781 97.201 150.414 93.021 c 150.414 66.224 l 135.738 62.627
 124.816 49.365 124.816 33.599 c 124.816 15.072 139.891 0.002 158.414 0.002
 c 176.941 0.002 192.012 15.072 192.012 33.599 c 192.012 49.369 181.09 62.627
 166.414 66.224 c 166.414 93.021 l 198.199 94.607 227.543 105.619 251.715
 123.298 c 273.844 101.17 l 270.336 97.662 l 267.215 94.541 267.215 89.474
 270.336 86.349 c 345.734 10.955 l 352.797 3.892 362.188 0.002 372.18 0.002
 c 382.168 0.002 391.559 3.892 398.621 10.955 c 413.203 25.533 413.203 49.259
 398.621 63.841 c h
375.977 268.806 m 385.68 268.806 393.574 260.912 393.574 251.209 c 393.574
 241.505 385.68 233.611 375.977 233.611 c 366.273 233.611 358.379 241.505
 358.379 251.209 c 358.379 260.912 366.273 268.806 375.977 268.806 c h
133.238 358.97 m 131.926 363.189 127.441 365.548 123.223 364.236 c 99.633
 356.896 78.453 341.904 63.582 322.021 c 48.199 301.451 40.066 276.962 40.066
 251.209 c 40.066 188.642 88.875 137.267 150.414 133.138 c 150.414 109.045
 l 75.609 113.209 16.023 175.38 16.023 251.209 c 16.023 329.724 79.902 393.599
 158.414 393.599 c 234.246 393.599 296.414 334.013 300.578 259.209 c 276.496
 259.209 l 274.961 282.478 266.73 304.416 252.453 323.072 c 237.059 343.185
 215.242 358.076 191.02 365.005 c 186.77 366.22 182.344 363.763 181.129 
359.513 c 179.914 355.267 182.371 350.837 186.621 349.623 c 227.695 337.877
 257.105 301.353 260.438 259.209 c 249.09 259.209 l 244.672 259.209 241.09
 255.627 241.09 251.209 c 241.09 246.791 244.672 243.209 249.09 243.209 
c 260.453 243.209 l 256.562 193.138 216.484 153.06 166.414 149.173 c 166.414
 156.857 l 166.414 161.275 162.832 164.857 158.414 164.857 c 154 164.857
 150.414 161.275 150.414 156.857 c 150.414 149.173 l 97.703 153.267 56.066
 197.466 56.066 251.209 c 56.066 296.298 84.965 335.58 127.977 348.959 c
 132.195 350.267 134.551 354.752 133.238 358.97 c h
176.012 33.595 m 176.012 23.892 168.121 15.998 158.414 15.998 c 148.711
 15.998 140.816 23.892 140.816 33.595 c 140.816 43.302 148.711 51.197 158.414
 51.197 c 168.117 51.197 176.012 43.302 176.012 33.595 c h
166.414 109.045 m 166.414 133.138 l 225.309 137.087 272.535 184.314 276.484
 243.209 c 300.578 243.209 l 296.562 171.052 238.574 113.064 166.414 109.045
 c h
264.203 133.435 m 268.391 137.201 272.375 141.181 276.141 145.365 c 297.09
 124.416 l 285.156 112.482 l h
264.203 133.435 m f
158.836 369.556 m 158.414 369.556 l 153.996 369.556 150.414 365.974 150.414
 361.556 c 150.414 357.138 153.996 353.556 158.414 353.556 c 158.816 353.556
 l 163.223 353.556 166.801 357.123 166.812 361.533 c 166.828 365.951 163.258
 369.541 158.836 369.556 c h
158.836 369.556 m f
158.414 316.806 m 122.246 316.806 92.82 287.377 92.82 251.209 c 92.82 215.041
 122.246 185.611 158.414 185.611 c 194.586 185.611 224.012 215.041 224.012
 251.209 c 224.012 287.377 194.586 316.806 158.414 316.806 c h
158.414 201.611 m 131.066 201.611 108.816 223.861 108.816 251.209 c 108.816
 278.556 131.066 300.806 158.414 300.806 c 185.762 300.806 208.012 278.556
 208.012 251.209 c 208.012 223.861 185.762 201.611 158.414 201.611 c h
158.414 201.611 m f
Q Q
showpage
%%Trailer
end restore
%%EOF
