%!PS-Adobe-3.0 EPSF-3.0
%%Creator: cairo 1.14.2 (http://cairographics.org)
%%CreationDate: Thu Jul 26 08:51:17 2018
%%Pages: 1
%%DocumentData: Clean7Bit
%%LanguageLevel: 2
%%BoundingBox: 0 -1 410 410
%%EndComments
%%BeginProlog
save
50 dict begin
/q { gsave } bind def
/Q { grestore } bind def
/cm { 6 array astore concat } bind def
/w { setlinewidth } bind def
/J { setlinecap } bind def
/j { setlinejoin } bind def
/M { setmiterlimit } bind def
/d { setdash } bind def
/m { moveto } bind def
/l { lineto } bind def
/c { curveto } bind def
/h { closepath } bind def
/re { exch dup neg 3 1 roll 5 3 roll moveto 0 rlineto
      0 exch rlineto 0 rlineto closepath } bind def
/S { stroke } bind def
/f { fill } bind def
/f* { eofill } bind def
/n { newpath } bind def
/W { clip } bind def
/W* { eoclip } bind def
/BT { } bind def
/ET { } bind def
/pdfmark where { pop globaldict /?pdfmark /exec load put }
    { globaldict begin /?pdfmark /pop load def /pdfmark
    /cleartomark load def end } ifelse
/BDC { mark 3 1 roll /BDC pdfmark } bind def
/EMC { mark /EMC pdfmark } bind def
/cairo_store_point { /cairo_point_y exch def /cairo_point_x exch def } def
/Tj { show currentpoint cairo_store_point } bind def
/TJ {
  {
    dup
    type /stringtype eq
    { show } { -0.001 mul 0 cairo_font_matrix dtransform rmoveto } ifelse
  } forall
  currentpoint cairo_store_point
} bind def
/cairo_selectfont { cairo_font_matrix aload pop pop pop 0 0 6 array astore
    cairo_font exch selectfont cairo_point_x cairo_point_y moveto } bind def
/Tf { pop /cairo_font exch def /cairo_font_matrix where
      { pop cairo_selectfont } if } bind def
/Td { matrix translate cairo_font_matrix matrix concatmatrix dup
      /cairo_font_matrix exch def dup 4 get exch 5 get cairo_store_point
      /cairo_font where { pop cairo_selectfont } if } bind def
/Tm { 2 copy 8 2 roll 6 array astore /cairo_font_matrix exch def
      cairo_store_point /cairo_font where { pop cairo_selectfont } if } bind def
/g { setgray } bind def
/rg { setrgbcolor } bind def
/d1 { setcachedevice } bind def
%%EndProlog
%%BeginSetup
%%EndSetup
%%Page: 1 1
%%BeginPageSetup
%%PageBoundingBox: 0 -1 410 410
%%EndPageSetup
q 0 -1 410 411 rectclip q
0 g
339.453 158.786 m 331.922 158.786 325.098 155.712 320.16 150.755 c 315.234
 155.641 308.457 158.669 300.98 158.669 c 293.48 158.669 286.676 155.622
 281.746 150.696 c 276.816 155.622 270.012 158.669 262.508 158.669 c 258.504
 158.669 254.703 157.794 251.273 156.235 c 251.273 208.747 l 251.273 223.766
 239.055 235.985 224.039 235.985 c 209.02 235.985 196.801 223.766 196.801
 208.747 c 196.801 101.856 l 195.473 105.212 l 192.238 113.388 186.012 119.806
 177.941 123.294 c 169.871 126.778 160.926 126.911 152.758 123.665 c 135.906
 116.97 127.648 97.813 134.344 80.966 c 164.516 5.048 l 165.762 1.911 168.77
 0.001 171.953 0.001 c 172.938 0.001 173.938 0.184 174.906 0.567 c 179.012
 2.2 181.016 6.852 179.387 10.958 c 149.211 86.872 l 145.773 95.524 150.016
 105.36 158.664 108.798 c 162.859 110.462 167.449 110.395 171.594 108.606
 c 175.738 106.813 178.934 103.516 180.598 99.321 c 196.801 58.388 l 196.801
 51.204 l 196.801 46.782 200.383 43.204 204.801 43.204 c 209.219 43.204 
212.801 46.782 212.801 51.204 c 212.801 208.751 l 212.801 214.946 217.844
 219.985 224.039 219.985 c 230.234 219.985 235.273 214.946 235.273 208.751
 c 235.273 103.38 l 235.273 98.962 238.855 95.38 243.273 95.38 c 247.691
 95.38 251.273 98.962 251.273 103.38 c 251.273 131.434 l 251.273 137.63 
256.312 142.673 262.508 142.673 c 268.707 142.673 273.746 137.63 273.746
 131.434 c 273.746 103.38 l 273.746 98.962 277.328 95.38 281.746 95.38 c
 286.164 95.38 289.746 98.962 289.746 103.38 c 289.746 131.434 l 289.746
 137.63 294.789 142.673 300.98 142.673 c 307.176 142.673 312.219 137.63 
312.219 131.434 c 312.219 103.38 l 312.219 98.962 315.801 95.38 320.219 
95.38 c 324.637 95.38 328.219 98.962 328.219 103.38 c 328.219 131.548 l 
328.219 137.743 333.258 142.786 339.453 142.786 c 345.648 142.786 350.691
 137.743 350.691 131.548 c 350.691 41.665 l 341.961 10.138 l 340.781 5.88
 343.277 1.47 347.535 0.294 c 348.25 0.095 348.969 0.001 349.676 0.001 c
 353.184 0.001 356.398 2.325 357.383 5.868 c 366.398 38.442 l 366.594 39.138
 366.691 39.856 366.691 40.575 c 366.691 131.552 l 366.691 146.567 354.473
 158.786 339.453 158.786 c h
339.453 158.786 m f
369.602 409.602 m 40 409.602 l 17.945 409.602 0 391.657 0 369.602 c 0 216.001
 l 0 193.946 17.945 176.001 40 176.001 c 135.203 176.001 l 139.621 176.001
 143.203 179.583 143.203 184.001 c 143.203 188.423 139.621 192.001 135.203
 192.001 c 40 192.001 l 26.77 192.001 16 202.77 16 216.001 c 16 369.602 
l 16 382.837 26.77 393.602 40 393.602 c 369.602 393.602 l 382.297 393.602
 392.715 383.692 393.543 371.204 c 358.402 371.204 l 353.984 371.204 350.402
 367.622 350.402 363.204 c 350.402 358.782 353.984 355.204 358.402 355.204
 c 393.602 355.204 l 393.602 216.001 l 393.602 202.77 382.836 192.001 369.602
 192.001 c 277.602 192.001 l 273.184 192.001 269.602 188.423 269.602 184.001
 c 269.602 179.583 273.184 176.001 277.602 176.001 c 369.602 176.001 l 391.656
 176.001 409.602 193.946 409.602 216.001 c 409.602 369.602 l 409.602 391.657
 391.66 409.602 369.602 409.602 c h
369.602 409.602 m f
174.457 189.657 m 172.969 191.145 170.906 192.001 168.801 192.001 c 166.688
 192.001 164.633 191.145 163.145 189.657 c 161.656 188.169 160.801 186.106
 160.801 184.001 c 160.801 181.899 161.656 179.833 163.145 178.345 c 164.633
 176.86 166.695 176.001 168.801 176.001 c 170.906 176.001 172.969 176.86
 174.457 178.345 c 175.945 179.833 176.801 181.899 176.801 184.001 c 176.801
 186.106 175.945 188.169 174.457 189.657 c h
174.457 189.657 m f
210.828 256.864 m 185.988 333.665 l 184.922 336.966 181.844 339.204 178.375
 339.204 c 174.906 339.204 171.832 336.966 170.766 333.665 c 145.926 256.864
 l 144.566 252.661 146.871 248.149 151.074 246.79 c 155.281 245.431 159.789
 247.739 161.148 251.942 c 165.902 266.634 l 190.852 266.634 l 195.602 251.942
 l 196.699 248.556 199.836 246.399 203.215 246.399 c 204.031 246.399 204.859
 246.528 205.676 246.79 c 209.883 248.149 212.188 252.661 210.828 256.864
 c h
171.078 282.634 m 178.375 305.204 l 185.676 282.634 l h
171.078 282.634 m f
118.734 283.524 m 114.32 283.524 110.734 279.942 110.734 275.524 c 110.734
 268.29 104.852 262.403 97.617 262.403 c 90.383 262.403 84.496 268.29 84.496
 275.524 c 84.496 310.083 l 84.496 317.317 90.383 323.204 97.617 323.204
 c 104.852 323.204 110.734 317.317 110.734 310.083 c 110.734 305.665 114.32
 302.083 118.734 302.083 c 123.152 302.083 126.734 305.665 126.734 310.083
 c 126.734 326.138 113.672 339.204 97.617 339.204 c 81.559 339.204 68.496
 326.138 68.496 310.083 c 68.496 275.524 l 68.496 259.466 81.559 246.403
 97.617 246.403 c 113.672 246.403 126.734 259.466 126.734 275.524 c 126.734
 279.942 123.156 283.524 118.734 283.524 c h
118.734 283.524 m f
269.859 262.403 m 254.52 262.403 l 254.52 331.204 l 254.52 335.622 250.938
 339.204 246.52 339.204 c 242.102 339.204 238.52 335.622 238.52 331.204 
c 238.52 254.403 l 238.52 249.985 242.102 246.403 246.52 246.403 c 269.859
 246.403 l 274.277 246.403 277.859 249.985 277.859 254.403 c 277.859 258.821
 274.277 262.403 269.859 262.403 c h
269.859 262.403 m f
333.105 262.403 m 317.766 262.403 l 317.766 331.204 l 317.766 335.622 314.184
 339.204 309.766 339.204 c 305.348 339.204 301.766 335.622 301.766 331.204
 c 301.766 254.403 l 301.766 249.985 305.348 246.403 309.766 246.403 c 333.105
 246.403 l 337.523 246.403 341.105 249.985 341.105 254.403 c 341.105 258.821
 337.523 262.403 333.105 262.403 c h
333.105 262.403 m f
331.258 368.86 m 329.77 370.345 327.703 371.204 325.602 371.204 c 323.496
 371.204 321.434 370.345 319.945 368.86 c 318.457 367.372 317.602 365.306
 317.602 363.204 c 317.602 361.098 318.457 359.036 319.945 357.548 c 321.434
 356.059 323.496 355.204 325.602 355.204 c 327.703 355.204 329.77 356.059
 331.258 357.548 c 332.742 359.036 333.602 361.098 333.602 363.204 c 333.602
 365.306 332.746 367.372 331.258 368.86 c h
331.258 368.86 m f
Q Q
showpage
%%Trailer
end restore
%%EOF
