%!PS-Adobe-3.0 EPSF-3.0
%%Creator: cairo 1.14.2 (http://cairographics.org)
%%CreationDate: Thu Jul 26 08:51:17 2018
%%Pages: 1
%%DocumentData: Clean7Bit
%%LanguageLevel: 2
%%BoundingBox: 21 -1 388 410
%%EndComments
%%BeginProlog
save
50 dict begin
/q { gsave } bind def
/Q { grestore } bind def
/cm { 6 array astore concat } bind def
/w { setlinewidth } bind def
/J { setlinecap } bind def
/j { setlinejoin } bind def
/M { setmiterlimit } bind def
/d { setdash } bind def
/m { moveto } bind def
/l { lineto } bind def
/c { curveto } bind def
/h { closepath } bind def
/re { exch dup neg 3 1 roll 5 3 roll moveto 0 rlineto
      0 exch rlineto 0 rlineto closepath } bind def
/S { stroke } bind def
/f { fill } bind def
/f* { eofill } bind def
/n { newpath } bind def
/W { clip } bind def
/W* { eoclip } bind def
/BT { } bind def
/ET { } bind def
/pdfmark where { pop globaldict /?pdfmark /exec load put }
    { globaldict begin /?pdfmark /pop load def /pdfmark
    /cleartomark load def end } ifelse
/BDC { mark 3 1 roll /BDC pdfmark } bind def
/EMC { mark /EMC pdfmark } bind def
/cairo_store_point { /cairo_point_y exch def /cairo_point_x exch def } def
/Tj { show currentpoint cairo_store_point } bind def
/TJ {
  {
    dup
    type /stringtype eq
    { show } { -0.001 mul 0 cairo_font_matrix dtransform rmoveto } ifelse
  } forall
  currentpoint cairo_store_point
} bind def
/cairo_selectfont { cairo_font_matrix aload pop pop pop 0 0 6 array astore
    cairo_font exch selectfont cairo_point_x cairo_point_y moveto } bind def
/Tf { pop /cairo_font exch def /cairo_font_matrix where
      { pop cairo_selectfont } if } bind def
/Td { matrix translate cairo_font_matrix matrix concatmatrix dup
      /cairo_font_matrix exch def dup 4 get exch 5 get cairo_store_point
      /cairo_font where { pop cairo_selectfont } if } bind def
/Tm { 2 copy 8 2 roll 6 array astore /cairo_font_matrix exch def
      cairo_store_point /cairo_font where { pop cairo_selectfont } if } bind def
/g { setgray } bind def
/rg { setrgbcolor } bind def
/d1 { setcachedevice } bind def
%%EndProlog
%%BeginSetup
%%EndSetup
%%Page: 1 1
%%BeginPageSetup
%%PageBoundingBox: 21 -1 388 410
%%EndPageSetup
q 21 -1 367 411 rectclip q
0 g
254.391 71.163 m 252.906 72.651 250.844 73.506 248.742 73.506 c 246.641
 73.506 244.582 72.651 243.094 71.163 c 241.609 69.678 240.754 67.616 240.754
 65.514 c 240.754 63.413 241.609 61.354 243.094 59.866 c 244.582 58.381 
246.641 57.526 248.742 57.526 c 250.844 57.526 252.906 58.381 254.391 59.866
 c 255.879 61.354 256.734 63.413 256.734 65.514 c 256.734 67.616 255.879
 69.678 254.391 71.163 c h
254.391 71.163 m f
387.766 340.362 m 387.766 353.577 377.012 364.33 363.797 364.33 c 344.621
 364.33 l 344.621 401.612 l 344.621 406.022 341.043 409.6 336.629 409.6 
c 53.793 409.6 l 36.172 409.6 21.836 395.264 21.836 377.643 c 21.836 37.28
 l 21.836 37.221 21.844 37.163 21.844 37.104 c 21.844 36.987 21.836 36.87
 21.836 36.752 c 21.836 16.487 38.324 -0.002 58.59 -0.002 c 336.629 -0.002
 l 341.043 -0.002 344.621 3.577 344.621 7.991 c 344.621 99.073 l 363.797
 99.073 l 377.012 99.073 387.766 109.827 387.766 123.041 c 387.766 174.174
 l 387.766 180.311 385.445 185.909 381.641 190.155 c 385.445 194.397 387.766
 199.998 387.766 206.135 c 387.766 257.268 l 387.766 263.401 385.445 269.002
 381.641 273.248 c 385.445 277.491 387.766 283.092 387.766 289.225 c h
328.641 73.506 m 281.234 73.506 l 276.824 73.506 273.246 69.928 273.246
 65.514 c 273.246 61.104 276.824 57.526 281.234 57.526 c 328.641 57.526 
l 328.641 15.979 l 58.59 15.979 l 47.133 15.979 37.816 25.299 37.816 36.752
 c 37.816 48.205 47.133 57.526 58.59 57.526 c 213.055 57.526 l 217.469 57.526
 221.047 61.104 221.047 65.514 c 221.047 69.928 217.469 73.506 213.055 73.506
 c 58.59 73.506 l 50.883 73.506 43.73 71.12 37.816 67.049 c 37.816 377.643
 l 37.816 386.452 44.984 393.62 53.793 393.62 c 328.641 393.62 l h
371.785 123.041 m 371.785 118.635 368.199 115.053 363.797 115.053 c 344.621
 115.053 l 344.621 182.166 l 363.797 182.166 l 368.199 182.166 371.785 178.58
 371.785 174.174 c h
371.785 206.135 m 371.785 201.729 368.199 198.143 363.797 198.143 c 344.621
 198.143 l 344.621 265.26 l 363.797 265.26 l 368.199 265.26 371.785 261.674
 371.785 257.268 c h
371.785 289.229 m 371.785 284.823 368.199 281.237 363.797 281.237 c 344.621
 281.237 l 344.621 348.35 l 363.797 348.35 l 368.199 348.35 371.785 344.768
 371.785 340.362 c h
371.785 289.229 m f
245.777 229.823 m 224.656 250.944 l 217.043 258.557 204.652 258.557 197.035
 250.944 c 195.66 249.565 l 195.301 249.209 194.719 249.209 194.359 249.565
 c 179.246 264.674 l 178.891 265.034 178.891 265.62 179.246 265.979 c 180.625
 267.358 l 188.238 274.971 188.238 287.358 180.625 294.971 c 159.504 316.096
 l 155.812 319.784 150.91 321.815 145.695 321.815 c 140.477 321.815 135.574
 319.784 131.887 316.096 c 126.832 311.041 l 109.992 294.202 109.992 266.803
 126.832 249.963 c 179.645 197.147 l 188.062 188.729 199.125 184.518 210.184
 184.518 c 221.246 184.518 232.305 188.729 240.727 197.147 c 245.777 202.202
 l 249.465 205.889 251.5 210.795 251.5 216.01 c 251.5 221.229 249.465 226.135
 245.777 229.823 c h
234.477 213.502 m 229.426 208.448 l 218.816 197.838 201.555 197.838 190.945
 208.448 c 138.129 261.26 l 127.523 271.87 127.523 289.131 138.129 299.741
 c 143.184 304.795 l 144.09 305.702 145.145 305.834 145.695 305.834 c 146.242
 305.834 147.301 305.702 148.203 304.795 c 169.328 283.674 l 170.711 282.291
 170.711 280.038 169.328 278.655 c 167.949 277.276 l 161.359 270.69 161.359
 259.967 167.949 253.377 c 183.059 238.268 l 186.25 235.073 190.496 233.319
 195.012 233.319 c 199.523 233.319 203.77 235.077 206.961 238.268 c 208.336
 239.643 l 209.723 241.026 211.977 241.026 213.359 239.643 c 234.48 218.522
 l 235.387 217.616 235.52 216.561 235.52 216.01 c 235.52 215.463 235.383
 214.409 234.477 213.502 c h
234.477 213.502 m f
183.227 365.928 m 121.258 365.928 70.844 315.514 70.844 253.545 c 70.844
 191.577 121.262 141.163 183.227 141.163 c 245.195 141.163 295.609 191.577
 295.609 253.545 c 295.609 315.514 245.195 365.928 183.227 365.928 c h
183.227 157.143 m 130.07 157.143 86.824 200.389 86.824 253.545 c 86.824
 306.705 130.07 349.948 183.227 349.948 c 236.387 349.948 279.633 306.702
 279.633 253.545 c 279.633 200.389 236.387 157.143 183.227 157.143 c h
183.227 157.143 m f
240.754 118.748 m 156.062 118.748 l 151.652 118.748 148.074 115.17 148.074
 110.756 c 148.074 106.346 151.652 102.768 156.062 102.768 c 240.754 102.768
 l 245.168 102.768 248.742 106.346 248.742 110.756 c 248.742 115.17 245.164
 118.748 240.754 118.748 c h
240.754 118.748 m f
131.348 116.409 m 129.863 117.897 127.805 118.752 125.703 118.752 c 123.602
 118.752 121.539 117.897 120.055 116.409 c 118.566 114.916 117.711 112.862
 117.711 110.752 c 117.711 108.651 118.566 106.592 120.055 105.104 c 121.539
 103.62 123.602 102.764 125.703 102.764 c 127.805 102.764 129.863 103.62
 131.348 105.104 c 132.836 106.592 133.691 108.651 133.691 110.752 c 133.691
 112.862 132.836 114.916 131.348 116.409 c h
131.348 116.409 m f
Q Q
showpage
%%Trailer
end restore
%%EOF
