%!PS-Adobe-3.0 EPSF-3.0
%%Creator: cairo 1.14.2 (http://cairographics.org)
%%CreationDate: Thu Jul 26 08:51:17 2018
%%Pages: 1
%%DocumentData: Clean7Bit
%%LanguageLevel: 2
%%BoundingBox: 0 -1 410 410
%%EndComments
%%BeginProlog
save
50 dict begin
/q { gsave } bind def
/Q { grestore } bind def
/cm { 6 array astore concat } bind def
/w { setlinewidth } bind def
/J { setlinecap } bind def
/j { setlinejoin } bind def
/M { setmiterlimit } bind def
/d { setdash } bind def
/m { moveto } bind def
/l { lineto } bind def
/c { curveto } bind def
/h { closepath } bind def
/re { exch dup neg 3 1 roll 5 3 roll moveto 0 rlineto
      0 exch rlineto 0 rlineto closepath } bind def
/S { stroke } bind def
/f { fill } bind def
/f* { eofill } bind def
/n { newpath } bind def
/W { clip } bind def
/W* { eoclip } bind def
/BT { } bind def
/ET { } bind def
/pdfmark where { pop globaldict /?pdfmark /exec load put }
    { globaldict begin /?pdfmark /pop load def /pdfmark
    /cleartomark load def end } ifelse
/BDC { mark 3 1 roll /BDC pdfmark } bind def
/EMC { mark /EMC pdfmark } bind def
/cairo_store_point { /cairo_point_y exch def /cairo_point_x exch def } def
/Tj { show currentpoint cairo_store_point } bind def
/TJ {
  {
    dup
    type /stringtype eq
    { show } { -0.001 mul 0 cairo_font_matrix dtransform rmoveto } ifelse
  } forall
  currentpoint cairo_store_point
} bind def
/cairo_selectfont { cairo_font_matrix aload pop pop pop 0 0 6 array astore
    cairo_font exch selectfont cairo_point_x cairo_point_y moveto } bind def
/Tf { pop /cairo_font exch def /cairo_font_matrix where
      { pop cairo_selectfont } if } bind def
/Td { matrix translate cairo_font_matrix matrix concatmatrix dup
      /cairo_font_matrix exch def dup 4 get exch 5 get cairo_store_point
      /cairo_font where { pop cairo_selectfont } if } bind def
/Tm { 2 copy 8 2 roll 6 array astore /cairo_font_matrix exch def
      cairo_store_point /cairo_font where { pop cairo_selectfont } if } bind def
/g { setgray } bind def
/rg { setrgbcolor } bind def
/d1 { setcachedevice } bind def
%%EndProlog
%%BeginSetup
%%EndSetup
%%Page: 1 1
%%BeginPageSetup
%%PageBoundingBox: 0 -1 410 410
%%EndPageSetup
q 0 -1 410 411 rectclip q
0 g
307.152 161.53 m 271.5 197.182 l 266.312 202.373 259.41 205.229 252.07 
205.229 c 244.734 205.229 237.832 202.373 232.645 197.182 c 230.32 194.858
 l 228.992 193.53 227.223 192.795 225.34 192.795 c 223.461 192.795 221.691
 193.53 220.363 194.858 c 194.859 220.362 l 193.531 221.69 192.797 223.459
 192.797 225.338 c 192.797 227.221 193.531 228.991 194.859 230.319 c 197.184
 232.643 l 202.375 237.834 205.23 244.733 205.23 252.073 c 205.23 259.413
 202.375 266.311 197.184 271.498 c 161.531 307.155 l 156.344 312.342 149.441
 315.202 142.102 315.202 c 134.766 315.202 127.863 312.342 122.676 307.155
 c 114.145 298.623 l 101.41 285.889 94.398 268.959 94.398 250.955 c 94.398
 232.948 101.41 216.022 114.145 203.288 c 203.289 114.143 l 216.43 101.002
 233.691 94.432 250.953 94.432 c 268.219 94.432 285.48 101.002 298.621 114.143
 c 307.152 122.674 l 312.34 127.866 315.199 134.764 315.199 142.104 c 315.199
 149.44 312.34 156.342 307.152 161.53 c h
295.84 133.991 m 291.867 130.018 l 260.289 161.592 l 257.164 164.717 252.102
 164.717 248.977 161.592 c 245.852 158.471 245.852 153.405 248.977 150.28
 c 279.922 119.334 l 271.453 113.53 261.445 110.401 250.953 110.401 c 237.223
 110.401 224.312 115.748 214.602 125.459 c 125.457 214.6 l 115.746 224.311
 110.398 237.221 110.398 250.955 c 110.398 264.686 115.746 277.596 125.457
 287.307 c 133.988 295.838 l 136.156 298.006 139.039 299.202 142.102 299.202
 c 145.168 299.202 148.051 298.006 150.219 295.838 c 185.871 260.186 l 188.039
 258.018 189.23 255.135 189.23 252.073 c 189.23 249.006 188.039 246.127 
185.871 243.955 c 183.547 241.635 l 182.992 241.08 182.473 240.502 181.98
 239.905 c 154.82 267.065 l 151.695 270.19 146.629 270.19 143.504 267.065
 c 140.379 263.94 140.379 258.877 143.504 255.752 c 177.008 222.248 l 177.672
 217.268 179.934 212.663 183.547 209.049 c 209.047 183.545 l 213.402 179.194
 219.188 176.799 225.34 176.799 c 231.496 176.799 237.281 179.194 241.633
 183.545 c 243.957 185.87 l 246.125 188.038 249.008 189.233 252.07 189.233
 c 255.137 189.233 258.02 188.038 260.188 185.87 c 295.84 150.217 l 298.008
 148.049 299.199 145.166 299.199 142.104 c 299.199 139.038 298.008 136.159
 295.84 133.991 c h
295.84 133.991 m f
361.461 365.803 m 358.473 367.041 355.031 366.354 352.742 364.069 c 343.844
 355.17 l 305.891 390.334 256.824 409.6 204.797 409.6 c 150.094 409.6 98.664
 388.295 59.984 349.616 c 21.305 310.932 0 259.502 0 204.799 c 0 200.381
 3.582 196.799 8 196.799 c 12.418 196.799 16 200.381 16 204.799 c 16 255.229
 35.637 302.643 71.297 338.299 c 144.906 411.913 264.684 411.913 338.297
 338.307 c 341.422 335.182 346.484 335.182 349.609 338.307 c 350.398 339.096
 l 350.398 310.014 l 321.316 310.014 l 325.852 314.549 l 327.352 316.049
 328.195 318.084 328.195 320.205 c 328.195 322.327 327.352 324.362 325.852
 325.862 c 293.516 358.194 250.523 376.002 204.797 375.998 c 159.07 375.998
 116.078 358.19 83.742 325.858 c 60.469 302.584 44.488 273.358 37.527 241.342
 c 36.586 237.026 39.324 232.764 43.641 231.827 c 47.961 230.885 52.223 
233.623 53.16 237.94 c 59.469 266.955 73.957 293.444 95.059 314.541 c 153.668
 373.155 247.887 374.995 308.738 320.061 c 296.348 307.67 l 294.059 305.381
 293.375 301.94 294.613 298.952 c 295.852 295.963 298.766 294.014 302.004
 294.014 c 358.398 294.014 l 362.816 294.014 366.398 297.596 366.398 302.014
 c 366.398 358.409 l 366.398 361.647 364.449 364.565 361.461 365.803 c h
361.461 365.803 m f
49.602 204.799 m 49.602 209.217 46.02 212.799 41.602 212.799 c 37.184 212.799
 33.602 209.217 33.602 204.799 c 33.602 203.975 l 33.613 199.565 37.195 
195.998 41.602 195.998 c 41.625 195.998 l 46.043 196.014 49.613 199.604 
49.602 204.022 c h
49.602 204.799 m f
401.602 212.799 m 397.184 212.799 393.602 209.217 393.602 204.799 c 393.602
 154.37 373.961 106.959 338.301 71.299 c 264.691 -2.31 144.918 -2.314 71.305
 71.295 c 68.18 74.42 63.113 74.42 59.988 71.295 c 59.199 70.502 l 59.199
 99.588 l 88.281 99.588 l 83.746 95.053 l 82.246 93.553 81.406 91.514 81.406
 89.393 c 81.406 87.272 82.246 85.237 83.75 83.737 c 116.086 51.405 159.074
 33.6 204.801 33.6 c 250.531 33.6 293.523 51.409 325.855 83.745 c 349.129
 107.014 365.109 136.241 372.074 168.256 c 373.012 172.577 370.273 176.834
 365.957 177.776 c 361.641 178.713 357.379 175.975 356.441 171.659 c 350.129
 142.643 335.641 116.159 314.543 95.057 c 255.93 36.444 161.711 34.608 100.863
 89.538 c 113.254 101.928 l 115.539 104.217 116.227 107.659 114.988 110.647
 c 113.75 113.635 110.832 115.584 107.598 115.584 c 51.199 115.584 l 46.781
 115.584 43.199 112.002 43.199 107.584 c 43.199 51.19 l 43.199 47.952 45.148
 45.034 48.137 43.795 c 51.129 42.557 54.57 43.245 56.855 45.53 c 65.754
 54.428 l 103.711 19.268 152.777 -0.002 204.805 -0.002 c 259.508 0.002 310.934
 21.303 349.617 59.983 c 388.297 98.666 409.602 150.096 409.602 204.799 
c 409.602 209.217 406.02 212.799 401.602 212.799 c h
401.602 212.799 m f
376 205.623 m 375.984 210.034 372.406 213.6 368 213.6 c 367.977 213.6 l
 363.559 213.588 359.984 209.995 360 205.577 c 360 204.799 l 360 200.381
 363.582 196.799 368 196.799 c 372.418 196.799 376 200.381 376 204.799 c
 h
376 205.623 m f
Q Q
showpage
%%Trailer
end restore
%%EOF
