%!PS-Adobe-3.0 EPSF-3.0
%%Creator: cairo 1.14.2 (http://cairographics.org)
%%CreationDate: Thu Jul 26 08:51:17 2018
%%Pages: 1
%%DocumentData: Clean7Bit
%%LanguageLevel: 2
%%BoundingBox: 0 21 410 389
%%EndComments
%%BeginProlog
save
50 dict begin
/q { gsave } bind def
/Q { grestore } bind def
/cm { 6 array astore concat } bind def
/w { setlinewidth } bind def
/J { setlinecap } bind def
/j { setlinejoin } bind def
/M { setmiterlimit } bind def
/d { setdash } bind def
/m { moveto } bind def
/l { lineto } bind def
/c { curveto } bind def
/h { closepath } bind def
/re { exch dup neg 3 1 roll 5 3 roll moveto 0 rlineto
      0 exch rlineto 0 rlineto closepath } bind def
/S { stroke } bind def
/f { fill } bind def
/f* { eofill } bind def
/n { newpath } bind def
/W { clip } bind def
/W* { eoclip } bind def
/BT { } bind def
/ET { } bind def
/pdfmark where { pop globaldict /?pdfmark /exec load put }
    { globaldict begin /?pdfmark /pop load def /pdfmark
    /cleartomark load def end } ifelse
/BDC { mark 3 1 roll /BDC pdfmark } bind def
/EMC { mark /EMC pdfmark } bind def
/cairo_store_point { /cairo_point_y exch def /cairo_point_x exch def } def
/Tj { show currentpoint cairo_store_point } bind def
/TJ {
  {
    dup
    type /stringtype eq
    { show } { -0.001 mul 0 cairo_font_matrix dtransform rmoveto } ifelse
  } forall
  currentpoint cairo_store_point
} bind def
/cairo_selectfont { cairo_font_matrix aload pop pop pop 0 0 6 array astore
    cairo_font exch selectfont cairo_point_x cairo_point_y moveto } bind def
/Tf { pop /cairo_font exch def /cairo_font_matrix where
      { pop cairo_selectfont } if } bind def
/Td { matrix translate cairo_font_matrix matrix concatmatrix dup
      /cairo_font_matrix exch def dup 4 get exch 5 get cairo_store_point
      /cairo_font where { pop cairo_selectfont } if } bind def
/Tm { 2 copy 8 2 roll 6 array astore /cairo_font_matrix exch def
      cairo_store_point /cairo_font where { pop cairo_selectfont } if } bind def
/g { setgray } bind def
/rg { setrgbcolor } bind def
/d1 { setcachedevice } bind def
%%EndProlog
%%BeginSetup
%%EndSetup
%%Page: 1 1
%%BeginPageSetup
%%PageBoundingBox: 0 21 410 389
%%EndPageSetup
q 0 21 410 368 rectclip q
0 g
353.602 387.998 m 180.801 387.998 l 149.922 387.998 124.801 362.877 124.801
 331.998 c 124.801 293.998 l 124.801 289.58 128.383 285.998 132.801 285.998
 c 137.219 285.998 140.801 289.58 140.801 293.998 c 140.801 331.998 l 140.801
 354.057 158.742 371.998 180.801 371.998 c 353.602 371.998 l 375.656 371.998
 393.602 354.057 393.602 331.998 c 393.602 208.799 l 393.602 186.745 375.656
 168.799 353.547 168.799 c 343.945 168.737 l 341.844 168.725 339.828 167.881
 338.344 166.393 c 316.848 144.901 l 316.836 160.807 l 316.836 165.221 313.254
 168.799 308.836 168.799 c 267.199 168.799 l 262.781 168.799 259.199 165.217
 259.199 160.799 c 259.199 156.381 262.781 152.799 267.199 152.799 c 300.844
 152.799 l 300.863 125.596 l 300.867 122.362 302.816 119.444 305.805 118.209
 c 306.793 117.799 307.832 117.6 308.863 117.6 c 310.941 117.6 312.988 118.413
 314.52 119.944 c 347.336 152.76 l 353.602 152.799 l 384.477 152.799 409.602
 177.92 409.602 208.799 c 409.602 331.998 l 409.602 362.877 384.477 387.998
 353.602 387.998 c h
353.602 387.998 m f
169.547 255.709 m 104.852 255.709 l 47.035 255.709 0 208.67 0 150.858 c
 0 119.979 13.32 91.163 36.691 71.182 c 36.691 29.6 l 36.691 26.366 38.641
 23.448 41.629 22.209 c 42.621 21.799 43.66 21.6 44.691 21.6 c 46.77 21.6
 48.816 22.413 50.348 23.94 c 76.355 49.928 l 85.594 47.323 95.16 46.006
 104.852 46.006 c 169.547 46.006 l 227.363 46.006 274.398 93.041 274.398
 150.858 c 274.398 208.67 227.363 255.709 169.547 255.709 c h
169.547 62.006 m 104.852 62.006 l 95.203 62.006 85.711 63.545 76.641 66.577
 c 73.766 67.538 70.594 66.795 68.449 64.651 c 52.691 48.905 l 52.691 74.955
 l 52.691 77.397 51.578 79.705 49.664 81.221 c 28.27 98.202 16 123.584 16
 150.858 c 16 199.85 55.859 239.709 104.852 239.709 c 169.547 239.709 l 
218.543 239.709 258.398 199.85 258.398 150.858 c 258.398 101.862 218.543
 62.006 169.547 62.006 c h
169.547 62.006 m f
164.871 170.811 m 163.926 184.53 152.867 195.584 139.148 196.53 c 131.367
 197.069 123.957 194.44 118.277 189.139 c 112.676 183.913 109.465 176.522
 109.465 168.862 c 109.465 164.444 113.043 160.862 117.465 160.862 c 121.883
 160.862 125.465 164.444 125.465 168.862 c 125.465 172.151 126.789 175.198
 129.195 177.444 c 131.598 179.686 134.738 180.803 138.047 180.569 c 143.84
 180.17 148.508 175.502 148.906 169.709 c 149.312 163.854 145.473 158.682
 139.781 157.409 c 133.551 156.014 129.199 150.596 129.199 144.237 c 129.199
 129.827 l 129.199 125.409 132.781 121.827 137.199 121.827 c 141.617 121.827
 145.199 125.409 145.199 129.827 c 145.199 142.295 l 157.594 145.991 165.773
 157.678 164.871 170.811 c h
164.871 170.811 m f
142.855 107.006 m 141.367 108.495 139.305 109.354 137.199 109.354 c 135.098
 109.354 133.031 108.495 131.543 107.006 c 130.055 105.522 129.199 103.455
 129.199 101.354 c 129.199 99.248 130.055 97.186 131.543 95.698 c 133.031
 94.209 135.098 93.354 137.199 93.354 c 139.305 93.354 141.367 94.209 142.855
 95.698 c 144.344 97.186 145.199 99.248 145.199 101.354 c 145.199 103.455
 144.344 105.522 142.855 107.006 c h
142.855 107.006 m f
358.398 272.799 m 243.199 272.799 l 238.781 272.799 235.199 269.217 235.199
 264.799 c 235.199 260.381 238.781 256.799 243.199 256.799 c 358.398 256.799
 l 362.82 256.799 366.398 260.381 366.398 264.799 c 366.398 269.217 362.82
 272.799 358.398 272.799 c h
358.398 272.799 m f
358.398 234.401 m 289.867 234.401 l 285.449 234.401 281.867 230.819 281.867
 226.401 c 281.867 221.983 285.449 218.401 289.867 218.401 c 358.398 218.401
 l 362.82 218.401 366.398 221.983 366.398 226.401 c 366.398 230.819 362.82
 234.401 358.398 234.401 c h
358.398 234.401 m f
358.398 311.202 m 216.801 311.202 l 212.383 311.202 208.801 307.62 208.801
 303.202 c 208.801 298.78 212.383 295.202 216.801 295.202 c 358.398 295.202
 l 362.82 295.202 366.398 298.78 366.398 303.202 c 366.398 307.62 362.82
 311.202 358.398 311.202 c h
358.398 311.202 m f
186.457 308.858 m 184.969 310.342 182.902 311.202 180.801 311.202 c 178.695
 311.202 176.633 310.342 175.145 308.858 c 173.656 307.37 172.801 305.303
 172.801 303.202 c 172.801 301.096 173.656 299.034 175.145 297.545 c 176.633
 296.057 178.695 295.202 180.801 295.202 c 182.902 295.202 184.969 296.057
 186.457 297.545 c 187.945 299.034 188.801 301.096 188.801 303.202 c 188.801
 305.303 187.945 307.37 186.457 308.858 c h
186.457 308.858 m f
Q Q
showpage
%%Trailer
end restore
%%EOF
