%!PS-Adobe-3.0 EPSF-3.0
%%Creator: cairo 1.14.2 (http://cairographics.org)
%%CreationDate: Thu Jul 26 08:51:17 2018
%%Pages: 1
%%DocumentData: Clean7Bit
%%LanguageLevel: 2
%%BoundingBox: 0 -1 410 410
%%EndComments
%%BeginProlog
save
50 dict begin
/q { gsave } bind def
/Q { grestore } bind def
/cm { 6 array astore concat } bind def
/w { setlinewidth } bind def
/J { setlinecap } bind def
/j { setlinejoin } bind def
/M { setmiterlimit } bind def
/d { setdash } bind def
/m { moveto } bind def
/l { lineto } bind def
/c { curveto } bind def
/h { closepath } bind def
/re { exch dup neg 3 1 roll 5 3 roll moveto 0 rlineto
      0 exch rlineto 0 rlineto closepath } bind def
/S { stroke } bind def
/f { fill } bind def
/f* { eofill } bind def
/n { newpath } bind def
/W { clip } bind def
/W* { eoclip } bind def
/BT { } bind def
/ET { } bind def
/pdfmark where { pop globaldict /?pdfmark /exec load put }
    { globaldict begin /?pdfmark /pop load def /pdfmark
    /cleartomark load def end } ifelse
/BDC { mark 3 1 roll /BDC pdfmark } bind def
/EMC { mark /EMC pdfmark } bind def
/cairo_store_point { /cairo_point_y exch def /cairo_point_x exch def } def
/Tj { show currentpoint cairo_store_point } bind def
/TJ {
  {
    dup
    type /stringtype eq
    { show } { -0.001 mul 0 cairo_font_matrix dtransform rmoveto } ifelse
  } forall
  currentpoint cairo_store_point
} bind def
/cairo_selectfont { cairo_font_matrix aload pop pop pop 0 0 6 array astore
    cairo_font exch selectfont cairo_point_x cairo_point_y moveto } bind def
/Tf { pop /cairo_font exch def /cairo_font_matrix where
      { pop cairo_selectfont } if } bind def
/Td { matrix translate cairo_font_matrix matrix concatmatrix dup
      /cairo_font_matrix exch def dup 4 get exch 5 get cairo_store_point
      /cairo_font where { pop cairo_selectfont } if } bind def
/Tm { 2 copy 8 2 roll 6 array astore /cairo_font_matrix exch def
      cairo_store_point /cairo_font where { pop cairo_selectfont } if } bind def
/g { setgray } bind def
/rg { setrgbcolor } bind def
/d1 { setcachedevice } bind def
%%EndProlog
%%BeginSetup
%%EndSetup
%%Page: 1 1
%%BeginPageSetup
%%PageBoundingBox: 0 -1 410 410
%%EndPageSetup
q 0 -1 410 411 rectclip q
0 g
289.285 36.209 m 286.832 39.889 281.867 40.881 278.191 38.428 c 278.117
 38.381 l 274.441 35.928 273.445 30.963 275.898 27.288 c 277.441 24.975 
279.977 23.725 282.562 23.725 c 284.086 23.725 285.629 24.159 286.992 25.069
 c 286.996 25.069 287.055 25.108 287.066 25.12 c 290.742 27.569 291.734 
32.534 289.285 36.209 c h
289.285 36.209 m f
384 229.514 m 384 230.401 l 384 272.647 369.016 313.67 341.809 345.909 
c 314.93 377.76 277.66 399.366 236.871 406.737 c 232.527 407.522 228.363
 404.635 227.574 400.288 c 226.789 395.94 229.676 391.776 234.023 390.991
 c 311.656 376.963 368 309.424 368 230.401 c 368 229.592 l 363.598 229.592
 l 359.457 229.592 355.527 228.67 352 227.03 c 352 230.401 l 352 311.565
 285.965 377.6 204.801 377.6 c 123.633 377.6 57.602 311.565 57.602 230.401
 c 57.602 227.038 l 54.07 228.678 50.145 229.6 46.004 229.6 c 41.602 229.6
 l 41.602 230.401 l 41.602 309.127 97.695 376.62 174.984 390.885 c 179.328
 391.686 182.203 395.858 181.398 400.202 c 180.598 404.549 176.426 407.42
 172.082 406.62 c 87.203 390.955 25.602 316.842 25.602 230.401 c 25.602 
229.522 l 11.312 228.495 0 216.549 0 202.002 c 0 113.205 l 0 97.987 12.379
 85.608 27.598 85.608 c 46.004 85.608 l 54.422 85.608 61.969 89.401 67.035
 95.362 c 88.047 39.698 141.871 -0.002 204.801 -0.002 c 223.512 -0.002 241.746
 3.467 259 10.299 c 263.105 11.928 265.117 16.577 263.488 20.686 c 261.859
 24.791 257.211 26.803 253.105 25.174 c 237.738 19.088 221.484 15.998 204.801
 15.998 c 160.047 15.998 120.465 38.53 96.773 72.834 c 104.09 72.834 l 127.219
 72.834 146.031 91.647 146.031 114.772 c 146.031 117.311 148.098 119.377
 150.637 119.377 c 167.344 119.377 180.938 132.971 180.938 149.682 c 180.938
 154.53 l 180.938 171.241 167.344 184.834 150.637 184.834 c 79.109 184.834
 l 90.387 222.428 118.094 252.983 153.867 268.108 c 153.867 256.139 l 153.867
 240.756 166.379 228.241 181.766 228.241 c 198.398 228.241 l 198.398 194.252
 l 198.398 176.424 212.902 161.92 230.73 161.92 c 286.082 161.92 l 298.379
 161.92 308.383 171.928 308.383 184.225 c 308.383 188.053 l 329.477 188.053
 l 333.703 175.19 336 161.459 336 147.202 c 336 94.108 l 336 85.448 328.953
 78.401 320.293 78.401 c 263.086 78.401 l 259.66 89.506 249.301 97.6 237.086
 97.6 c 205.086 97.6 l 190.09 97.6 177.887 85.397 177.887 70.401 c 177.887
 55.401 190.09 43.202 205.086 43.202 c 237.086 43.202 l 249.301 43.202 259.66
 51.295 263.086 62.401 c 320.293 62.401 l 335.832 62.401 348.785 73.639 
351.477 88.409 c 355.137 86.612 359.25 85.6 363.598 85.6 c 382.004 85.6 
l 397.219 85.6 409.602 97.979 409.602 113.198 c 409.602 201.998 l 409.602
 216.541 398.289 228.487 384 229.514 c h
57.602 113.202 m 57.602 106.807 52.398 101.608 46.004 101.608 c 27.598 
101.608 l 21.203 101.608 16 106.807 16 113.202 c 16 202.002 l 16 208.397
 21.203 213.6 27.598 213.6 c 33.477 213.6 l 33.52 213.6 33.559 213.592 33.602
 213.592 c 33.641 213.592 33.684 213.6 33.727 213.6 c 46.004 213.6 l 52.398
 213.6 57.602 208.397 57.602 202.002 c h
237.086 59.202 m 205.086 59.202 l 198.91 59.202 193.887 64.225 193.887 
70.401 c 193.887 76.577 198.91 81.6 205.086 81.6 c 237.086 81.6 l 243.262
 81.6 248.285 76.577 248.285 70.401 c 248.285 64.225 243.262 59.202 237.086
 59.202 c h
150.637 168.834 m 158.523 168.834 164.938 162.416 164.938 154.53 c 164.938
 149.682 l 164.938 141.795 158.523 135.381 150.637 135.381 c 139.273 135.381
 130.031 126.135 130.031 114.772 c 130.031 100.471 118.395 88.834 104.09
 88.834 c 87.32 88.834 l 78.547 106.424 73.602 126.245 73.602 147.202 c 
73.602 154.569 74.223 161.791 75.395 168.834 c h
300.387 204.053 m 295.965 204.053 292.387 200.471 292.387 196.053 c 292.387
 184.225 l 292.387 180.748 289.559 177.92 286.082 177.92 c 230.734 177.92
 l 221.727 177.92 214.402 185.248 214.402 194.252 c 214.402 229.674 l 214.402
 237.705 207.867 244.241 199.836 244.241 c 181.766 244.241 l 175.203 244.241
 169.867 249.577 169.867 256.139 c 169.867 273.67 l 180.992 276.748 192.707
 278.401 204.801 278.401 c 256.789 278.401 301.809 248.006 323.031 204.053
 c h
336 213.901 m 311.633 261.635 261.973 294.401 204.801 294.401 c 147.629
 294.401 97.969 261.635 73.602 213.901 c 73.602 230.401 l 73.602 302.745
 132.457 361.6 204.801 361.6 c 277.145 361.6 336 302.745 336 230.401 c h
393.602 113.198 m 393.602 106.803 388.398 101.6 382.004 101.6 c 363.598
 101.6 l 357.203 101.6 352 106.803 352 113.198 c 352 201.998 l 352 208.393
 357.199 213.592 363.598 213.592 c 382.004 213.592 l 388.398 213.592 393.602
 208.393 393.602 201.998 c h
393.602 113.198 m f
205.109 409.6 m 204.801 409.6 l 200.383 409.6 196.801 406.018 196.801 401.6
 c 196.801 397.182 200.383 393.6 204.801 393.6 c 205.074 393.6 l 209.477
 393.6 213.055 397.159 213.074 401.565 c 213.094 405.983 209.527 409.58 
205.109 409.6 c h
205.109 409.6 m f
Q Q
showpage
%%Trailer
end restore
%%EOF
