%!PS-Adobe-3.0 EPSF-3.0
%%Creator: cairo 1.14.2 (http://cairographics.org)
%%CreationDate: Thu Jul 26 08:51:17 2018
%%Pages: 1
%%DocumentData: Clean7Bit
%%LanguageLevel: 2
%%BoundingBox: 57 -1 352 410
%%EndComments
%%BeginProlog
save
50 dict begin
/q { gsave } bind def
/Q { grestore } bind def
/cm { 6 array astore concat } bind def
/w { setlinewidth } bind def
/J { setlinecap } bind def
/j { setlinejoin } bind def
/M { setmiterlimit } bind def
/d { setdash } bind def
/m { moveto } bind def
/l { lineto } bind def
/c { curveto } bind def
/h { closepath } bind def
/re { exch dup neg 3 1 roll 5 3 roll moveto 0 rlineto
      0 exch rlineto 0 rlineto closepath } bind def
/S { stroke } bind def
/f { fill } bind def
/f* { eofill } bind def
/n { newpath } bind def
/W { clip } bind def
/W* { eoclip } bind def
/BT { } bind def
/ET { } bind def
/pdfmark where { pop globaldict /?pdfmark /exec load put }
    { globaldict begin /?pdfmark /pop load def /pdfmark
    /cleartomark load def end } ifelse
/BDC { mark 3 1 roll /BDC pdfmark } bind def
/EMC { mark /EMC pdfmark } bind def
/cairo_store_point { /cairo_point_y exch def /cairo_point_x exch def } def
/Tj { show currentpoint cairo_store_point } bind def
/TJ {
  {
    dup
    type /stringtype eq
    { show } { -0.001 mul 0 cairo_font_matrix dtransform rmoveto } ifelse
  } forall
  currentpoint cairo_store_point
} bind def
/cairo_selectfont { cairo_font_matrix aload pop pop pop 0 0 6 array astore
    cairo_font exch selectfont cairo_point_x cairo_point_y moveto } bind def
/Tf { pop /cairo_font exch def /cairo_font_matrix where
      { pop cairo_selectfont } if } bind def
/Td { matrix translate cairo_font_matrix matrix concatmatrix dup
      /cairo_font_matrix exch def dup 4 get exch 5 get cairo_store_point
      /cairo_font where { pop cairo_selectfont } if } bind def
/Tm { 2 copy 8 2 roll 6 array astore /cairo_font_matrix exch def
      cairo_store_point /cairo_font where { pop cairo_selectfont } if } bind def
/g { setgray } bind def
/rg { setrgbcolor } bind def
/d1 { setcachedevice } bind def
%%EndProlog
%%BeginSetup
%%EndSetup
%%Page: 1 1
%%BeginPageSetup
%%PageBoundingBox: 57 -1 352 410
%%EndPageSetup
q 57 -1 295 411 rectclip q
0 g
349.656 217.655 m 348.168 219.143 346.105 219.998 344 219.998 c 341.895
 219.998 339.832 219.143 338.344 217.655 c 336.855 216.166 336 214.104 336
 211.998 c 336 209.897 336.855 207.83 338.344 206.342 c 339.832 204.858 
341.895 203.998 344 203.998 c 346.105 203.998 348.168 204.858 349.656 206.342
 c 351.145 207.83 352 209.897 352 211.998 c 352 214.104 351.145 216.166 
349.656 217.655 c h
349.656 217.655 m f
344 236.799 m 348.418 236.799 352 240.381 352 244.799 c 352 385.6 l 352
 398.834 341.234 409.6 328 409.6 c 81.602 409.6 l 68.367 409.6 57.602 398.834
 57.602 385.6 c 57.602 23.998 l 57.602 10.768 68.367 -0.002 81.602 -0.002
 c 328 -0.002 l 341.234 -0.002 352 10.768 352 23.998 c 352 178.799 l 352
 183.217 348.418 186.799 344 186.799 c 339.582 186.799 336 183.217 336 178.799
 c 336 23.998 l 336 19.588 332.41 15.998 328 15.998 c 81.602 15.998 l 77.188
 15.998 73.602 19.588 73.602 23.998 c 73.602 385.6 l 73.602 390.01 77.188
 393.6 81.602 393.6 c 328 393.6 l 332.41 393.6 336 390.01 336 385.6 c 336
 244.799 l 336 240.381 339.582 236.799 344 236.799 c h
344 236.799 m f
312 366.401 m 97.602 366.401 l 93.18 366.401 89.602 362.819 89.602 358.401
 c 89.602 65.6 l 89.602 61.182 93.18 57.6 97.602 57.6 c 312 57.6 l 316.418
 57.6 320 61.182 320 65.6 c 320 358.401 l 320 362.819 316.418 366.401 312
 366.401 c h
304 73.6 m 105.602 73.6 l 105.602 350.401 l 304 350.401 l h
304 73.6 m f
210.559 42.455 m 209.07 43.944 207.008 44.799 204.902 44.799 c 202.793 
44.799 200.734 43.944 199.246 42.455 c 197.754 40.967 196.902 38.905 196.902
 36.799 c 196.902 34.698 197.754 32.631 199.246 31.143 c 200.734 29.655 
202.793 28.799 204.902 28.799 c 207.008 28.799 209.07 29.655 210.559 31.143
 c 212.047 32.631 212.902 34.698 212.902 36.799 c 212.902 38.905 212.047
 40.967 210.559 42.455 c h
210.559 42.455 m f
272.355 231.955 m 249.531 254.776 l 245.668 258.643 240.527 260.772 235.062
 260.772 c 229.594 260.772 224.453 258.643 220.59 254.776 c 219.102 253.291
 l 218.707 252.897 218.258 252.811 217.949 252.811 c 217.641 252.811 217.191
 252.897 216.797 253.291 c 200.473 269.616 l 200.078 270.01 199.996 270.459
 199.996 270.768 c 199.996 271.073 200.078 271.522 200.473 271.916 c 201.961
 273.405 l 205.824 277.272 207.953 282.409 207.953 287.877 c 207.953 293.346
 205.824 298.483 201.961 302.35 c 179.137 325.17 l 175.27 329.038 170.133
 331.166 164.664 331.166 c 159.199 331.166 154.059 329.038 150.191 325.17
 c 144.73 319.709 l 126.785 301.764 126.785 272.561 144.73 254.612 c 201.797
 197.549 l 210.77 188.577 222.559 184.088 234.344 184.088 c 246.133 184.088
 257.922 188.577 266.895 197.549 c 272.355 203.01 l 276.223 206.877 278.348
 212.014 278.348 217.483 c 278.348 222.948 276.223 228.088 272.355 231.955
 c h
261.043 214.323 m 255.582 208.862 l 243.871 197.151 224.82 197.151 213.109
 208.862 c 156.047 265.924 l 144.336 277.635 144.336 296.69 156.047 308.397
 c 161.508 313.858 l 162.352 314.702 163.473 315.166 164.668 315.166 c 165.859
 315.166 166.98 314.702 167.824 313.858 c 190.648 291.034 l 191.492 290.19
 191.957 289.069 191.957 287.877 c 191.957 286.682 191.492 285.561 190.645
 284.717 c 189.16 283.233 l 185.828 279.901 183.996 275.475 183.996 270.764
 c 183.996 266.057 185.828 261.631 189.16 258.299 c 205.484 241.975 l 208.812
 238.647 213.238 236.811 217.949 236.811 c 222.66 236.811 227.086 238.643
 230.414 241.975 c 231.902 243.463 l 232.746 244.307 233.867 244.772 235.062
 244.772 c 236.254 244.772 237.375 244.307 238.219 243.463 c 261.043 220.639
 l 261.887 219.795 262.352 218.674 262.352 217.479 c 262.352 216.288 261.887
 215.166 261.043 214.323 c h
261.043 214.323 m f
240 111.998 m 202.934 111.998 l 198.516 111.998 194.934 108.42 194.934 
103.998 c 194.934 99.58 198.516 95.998 202.934 95.998 c 240 95.998 l 244.418
 95.998 248 99.58 248 103.998 c 248 108.42 244.418 111.998 240 111.998 c
 h
240 111.998 m f
175.465 109.655 m 173.969 111.143 171.91 111.998 169.801 111.998 c 167.695
 111.998 165.633 111.143 164.145 109.655 c 162.656 108.166 161.801 106.104
 161.801 103.998 c 161.801 101.897 162.656 99.83 164.145 98.342 c 165.633
 96.858 167.695 95.998 169.801 95.998 c 171.91 95.998 173.977 96.858 175.465
 98.342 c 176.953 99.83 177.801 101.897 177.801 103.998 c 177.801 106.104
 176.953 108.166 175.465 109.655 c h
175.465 109.655 m f
259.199 150.401 m 150.602 150.401 l 146.184 150.401 142.602 146.819 142.602
 142.401 c 142.602 137.983 146.184 134.401 150.602 134.401 c 259.199 134.401
 l 263.617 134.401 267.199 137.983 267.199 142.401 c 267.199 146.819 263.617
 150.401 259.199 150.401 c h
259.199 150.401 m f
Q Q
showpage
%%Trailer
end restore
%%EOF
