%!PS-Adobe-3.0 EPSF-3.0
%%Creator: cairo 1.14.2 (http://cairographics.org)
%%CreationDate: Thu Jul 26 08:51:17 2018
%%Pages: 1
%%DocumentData: Clean7Bit
%%LanguageLevel: 2
%%BoundingBox: 0 -1 410 410
%%EndComments
%%BeginProlog
save
50 dict begin
/q { gsave } bind def
/Q { grestore } bind def
/cm { 6 array astore concat } bind def
/w { setlinewidth } bind def
/J { setlinecap } bind def
/j { setlinejoin } bind def
/M { setmiterlimit } bind def
/d { setdash } bind def
/m { moveto } bind def
/l { lineto } bind def
/c { curveto } bind def
/h { closepath } bind def
/re { exch dup neg 3 1 roll 5 3 roll moveto 0 rlineto
      0 exch rlineto 0 rlineto closepath } bind def
/S { stroke } bind def
/f { fill } bind def
/f* { eofill } bind def
/n { newpath } bind def
/W { clip } bind def
/W* { eoclip } bind def
/BT { } bind def
/ET { } bind def
/pdfmark where { pop globaldict /?pdfmark /exec load put }
    { globaldict begin /?pdfmark /pop load def /pdfmark
    /cleartomark load def end } ifelse
/BDC { mark 3 1 roll /BDC pdfmark } bind def
/EMC { mark /EMC pdfmark } bind def
/cairo_store_point { /cairo_point_y exch def /cairo_point_x exch def } def
/Tj { show currentpoint cairo_store_point } bind def
/TJ {
  {
    dup
    type /stringtype eq
    { show } { -0.001 mul 0 cairo_font_matrix dtransform rmoveto } ifelse
  } forall
  currentpoint cairo_store_point
} bind def
/cairo_selectfont { cairo_font_matrix aload pop pop pop 0 0 6 array astore
    cairo_font exch selectfont cairo_point_x cairo_point_y moveto } bind def
/Tf { pop /cairo_font exch def /cairo_font_matrix where
      { pop cairo_selectfont } if } bind def
/Td { matrix translate cairo_font_matrix matrix concatmatrix dup
      /cairo_font_matrix exch def dup 4 get exch 5 get cairo_store_point
      /cairo_font where { pop cairo_selectfont } if } bind def
/Tm { 2 copy 8 2 roll 6 array astore /cairo_font_matrix exch def
      cairo_store_point /cairo_font where { pop cairo_selectfont } if } bind def
/g { setgray } bind def
/rg { setrgbcolor } bind def
/d1 { setcachedevice } bind def
%%EndProlog
%%BeginSetup
%%EndSetup
%%Page: 1 1
%%BeginPageSetup
%%PageBoundingBox: 0 -1 410 410
%%EndPageSetup
q 0 -1 410 411 rectclip q
0 g
123.52 128.32 m 122.031 129.808 119.969 130.663 117.863 130.663 c 115.754
 130.663 113.688 129.808 112.199 128.32 c 110.711 126.831 109.863 124.769
 109.863 122.663 c 109.863 120.562 110.711 118.495 112.199 117.007 c 113.688
 115.523 115.754 114.663 117.863 114.663 c 119.969 114.663 122.031 115.523
 123.52 117.007 c 125.008 118.495 125.855 120.562 125.855 122.663 c 125.855
 124.769 125.008 126.831 123.52 128.32 c h
123.52 128.32 m f
355.176 96.909 m 299.672 152.413 l 284.73 167.355 260.422 167.355 245.477
 152.413 c 232.82 139.757 l 226.809 133.745 217.027 133.745 211.02 139.757
 c 139.754 211.019 l 133.742 217.03 133.742 226.812 139.754 232.823 c 152.414
 245.48 l 167.355 260.421 167.355 284.73 152.414 299.671 c 96.906 355.175
 l 89.672 362.413 80.047 366.402 69.812 366.402 c 59.574 366.402 49.953 
362.413 42.715 355.175 c 29.434 341.898 l 10.453 322.913 0 297.679 0 270.835
 c 0 243.991 10.453 218.757 29.434 199.777 c 89.922 139.284 l 93.047 136.163
 98.113 136.163 101.238 139.284 c 104.363 142.409 104.363 147.476 101.238
 150.601 c 40.746 211.089 l 24.789 227.05 16 248.269 16 270.835 c 16 293.405
 24.789 314.624 40.746 330.581 c 54.027 343.863 l 58.242 348.077 63.848 
350.402 69.812 350.402 c 75.773 350.402 81.379 348.077 85.594 343.863 c 
141.098 288.359 l 149.801 279.655 149.801 265.495 141.098 256.792 c 133.902
 249.597 l 82.949 300.554 l 79.828 303.675 74.762 303.675 71.637 300.554
 c 68.512 297.429 68.512 292.363 71.637 289.238 c 123.371 237.503 l 120.68
 232.808 119.238 227.476 119.238 221.921 c 119.238 213.53 122.508 205.64
 128.441 199.706 c 199.703 128.441 l 205.637 122.507 213.527 119.241 221.922
 119.241 c 227.477 119.241 232.809 120.679 237.504 123.37 c 296.227 64.648
 l 297.789 63.085 299.836 62.304 301.883 62.304 c 303.93 62.304 305.977 
63.089 307.539 64.648 c 310.664 67.773 310.664 72.839 307.539 75.964 c 249.598
 133.905 l 256.793 141.101 l 265.496 149.804 279.656 149.804 288.359 141.101
 c 343.863 85.597 l 348.078 81.378 350.402 75.773 350.402 69.812 c 350.402
 63.851 348.078 58.245 343.863 54.03 c 330.582 40.749 l 314.625 24.788 293.406
 15.999 270.836 15.999 c 248.266 15.999 227.047 24.788 211.09 40.749 c 144.074
 107.761 l 140.953 110.886 135.887 110.886 132.762 107.761 c 129.637 104.64
 129.637 99.573 132.762 96.448 c 199.773 29.437 l 218.758 10.452 243.992
 -0.001 270.836 -0.001 c 297.676 -0.001 322.914 10.452 341.895 29.433 c 
355.176 42.714 l 362.414 49.952 366.398 59.577 366.398 69.812 c 366.398 
80.046 362.414 89.671 355.176 96.909 c h
355.176 96.909 m f
63.328 320.167 m 61.84 321.655 59.777 322.511 57.672 322.511 c 55.566 322.511
 53.504 321.655 52.016 320.167 c 50.527 318.679 49.672 316.624 49.672 314.511
 c 49.672 312.409 50.527 310.343 52.016 308.859 c 53.504 307.37 55.566 306.511
 57.672 306.511 c 59.777 306.511 61.84 307.37 63.328 308.859 c 64.816 310.343
 65.672 312.409 65.672 314.511 c 65.672 316.624 64.816 318.679 63.328 320.167
 c h
63.328 320.167 m f
315.367 409.601 m 266.871 409.601 l 214.91 409.601 172.637 367.327 172.637
 315.366 c 172.637 274.159 199.164 238.136 237.879 225.679 c 237.879 204.8
 l 237.879 201.796 239.562 199.042 242.238 197.675 c 243.391 197.089 244.637
 196.8 245.879 196.8 c 247.531 196.8 249.18 197.312 250.566 198.32 c 282.113
 221.132 l 315.367 221.132 l 367.328 221.132 409.602 263.405 409.602 315.366
 c 409.602 367.327 367.328 409.601 315.367 409.601 c h
315.367 237.132 m 279.523 237.132 l 277.84 237.132 276.199 236.601 274.836
 235.613 c 253.879 220.46 l 253.879 231.71 l 253.879 235.382 251.383 238.581
 247.82 239.472 c 212.973 248.187 188.637 279.398 188.637 315.366 c 188.637
 358.503 223.734 393.601 266.871 393.601 c 315.367 393.601 l 358.504 393.601
 393.602 358.503 393.602 315.366 c 393.602 272.23 358.504 237.132 315.367
 237.132 c h
315.367 237.132 m f
252.441 321.027 m 250.953 322.511 248.887 323.37 246.785 323.37 c 244.68
 323.37 242.617 322.511 241.129 321.027 c 239.641 319.538 238.785 317.472
 238.785 315.37 c 238.785 313.257 239.641 311.202 241.129 309.714 c 242.617
 308.226 244.68 307.37 246.785 307.37 c 248.887 307.37 250.953 308.226 252.441
 309.714 c 253.93 311.202 254.785 313.257 254.785 315.37 c 254.785 317.472
 253.93 319.534 252.441 321.027 c h
252.441 321.027 m f
296.586 321.027 m 295.098 322.511 293.031 323.37 290.93 323.37 c 288.816
 323.37 286.754 322.511 285.273 321.027 c 283.777 319.538 282.93 317.472
 282.93 315.37 c 282.93 313.257 283.777 311.202 285.273 309.714 c 286.754
 308.226 288.816 307.37 290.93 307.37 c 293.031 307.37 295.098 308.226 296.586
 309.714 c 298.07 311.202 298.93 313.257 298.93 315.37 c 298.93 317.472 
298.07 319.534 296.586 321.027 c h
296.586 321.027 m f
340.719 321.027 m 339.23 322.511 337.176 323.37 335.062 323.37 c 332.961
 323.37 330.895 322.511 329.406 321.027 c 327.922 319.538 327.062 317.472
 327.062 315.37 c 327.062 313.257 327.922 311.202 329.406 309.714 c 330.895
 308.226 332.961 307.37 335.062 307.37 c 337.176 307.37 339.23 308.226 340.719
 309.714 c 342.207 311.202 343.062 313.257 343.062 315.37 c 343.062 317.472
 342.207 319.534 340.719 321.027 c h
340.719 321.027 m f
Q Q
showpage
%%Trailer
end restore
%%EOF
